# Blender v2.79 (sub 0) OBJ File: 'untitled.blend'
# www.blender.org
mtllib ground.mtl
o ground_Plane.004
v -63.196323 0.077638 63.196323
v 63.196323 0.077638 63.196323
v 63.196323 0.077658 -63.196323
v -63.196323 0.077658 -63.196323
vt 0.000000 0.000000
vt 1.000000 0.000000
vt 1.000000 1.000000
vt 0.000000 1.000000
vn 0.0000 1.0000 0.0000
usemtl ground
s 1
f 1/1/1 2/2/1 3/3/1 4/4/1
