# Blender MTL File: 'None'
# Material Count: 1

newmtl ground
Ns 94.117647
Ka 1.000000 1.000000 1.000000
Kd 0.640000 0.640000 0.640000
Ks 0.500000 0.500000 0.500000
Ke 0.000000 0.000000 0.000000
Ni 1.000000
d 1.000000
illum 2
map_Bump ground_norm.png
map_Kd ground_diffuse.png
