# Blender v2.79 (sub 0) OBJ File: ''
# www.blender.org
mtllib table.mtl
o Rectangle073
v -12.540439 0.949930 10.476000
v -12.518450 0.949930 10.529341
v -12.581570 1.111254 10.555361
v -12.603559 1.111254 10.502020
v -13.305277 0.949930 8.620691
v -13.283287 0.949930 8.674032
v -13.346407 1.111254 8.700052
v -13.368396 1.111254 8.646712
v -14.022312 0.949930 6.881340
v -14.000323 0.949930 6.934680
v -14.063443 1.111254 6.960700
v -14.085432 1.111254 6.907360
v -11.902238 1.687738 10.142362
v -11.882374 1.637058 10.134172
v -11.679872 1.637058 10.050693
v -12.089439 0.137770 10.219534
v -12.329282 0.137770 10.318407
v -11.655632 1.639566 10.105818
v -11.677621 1.639566 10.052479
v -11.877563 1.639566 10.134903
v -11.855574 1.639566 10.188242
v -11.858473 1.637058 10.192151
v -11.878337 1.687738 10.200340
v -12.305380 0.137770 10.376385
v -12.065538 0.137770 10.277513
v -11.655971 1.637058 10.108671
v -12.089314 0.135262 10.222196
v -12.067326 0.135262 10.275536
v -12.307621 0.135261 10.374596
v -12.329611 0.135261 10.321256
v -12.064040 0.137542 10.274181
v -12.086029 0.137542 10.220841
v -11.676268 1.637286 10.051920
v -11.654279 1.637286 10.105261
v -11.858798 1.641876 10.189571
v -11.880787 1.641876 10.136231
v -11.900301 1.691661 10.144276
v -11.878311 1.691661 10.197617
v -11.880178 1.691688 10.198385
v -11.902167 1.691688 10.145046
v -12.330969 0.137544 10.321815
v -12.308979 0.137544 10.375156
v -13.474491 1.116073 6.618875
v -13.815404 1.116073 6.759414
v -13.815404 1.186310 6.759414
v -13.474491 1.186310 6.618875
v -14.166956 1.186310 6.907052
v -14.166956 1.116073 6.907052
v -12.639193 1.116073 10.613031
v -12.639193 1.186310 10.613031
v -12.635917 1.116073 10.614394
v -12.295004 1.116073 10.473856
v -12.295004 1.186310 10.473856
v -12.635917 1.186310 10.614394
v -11.943452 1.186310 10.326217
v -11.943452 1.116073 10.326217
v -13.471216 1.116073 6.620237
v -13.471216 1.186310 6.620237
v -12.636873 1.113564 10.612076
v -14.164638 1.113564 6.906096
v -13.823725 1.113564 6.765557
v -12.295960 1.113564 10.471537
v -12.636873 1.188819 10.612076
v -12.295960 1.188818 10.471537
v -13.823725 1.188818 6.765557
v -14.164638 1.188819 6.906096
v -12.619274 1.687738 8.403009
v -12.599409 1.637058 8.394820
v -12.396908 1.637058 8.311341
v -12.806476 0.137770 8.480183
v -13.046317 0.137770 8.579055
v -12.372667 1.639566 8.366467
v -12.394657 1.639566 8.313127
v -12.594599 1.639566 8.395551
v -12.572610 1.639566 8.448891
v -12.575508 1.637058 8.452799
v -12.595373 1.687738 8.460988
v -13.022415 0.137770 8.637033
v -12.782574 0.137770 8.538160
v -12.373006 1.637058 8.369319
v -12.806350 0.135262 8.482843
v -12.784361 0.135262 8.536184
v -13.024657 0.135261 8.635244
v -13.046646 0.135262 8.581904
v -12.781075 0.137542 8.534829
v -12.803064 0.137542 8.481489
v -12.393304 1.637286 8.312569
v -12.371315 1.637286 8.365909
v -12.575834 1.641876 8.450220
v -12.597823 1.641876 8.396880
v -12.617336 1.691661 8.404924
v -12.595347 1.691661 8.458264
v -12.597214 1.691688 8.459034
v -12.619204 1.691688 8.405694
v -13.048004 0.137544 8.582464
v -13.026015 0.137544 8.635804
v -13.336309 1.687738 6.663658
v -13.316445 1.637058 6.655469
v -13.113943 1.637058 6.571989
v -13.523511 0.137770 6.740830
v -13.763353 0.137770 6.839703
v -13.089704 1.639566 6.627114
v -13.111692 1.639566 6.573774
v -13.311634 1.639566 6.656199
v -13.289645 1.639566 6.709538
v -13.292544 1.637058 6.713447
v -13.312408 1.687738 6.721636
v -13.739451 0.137770 6.897681
v -13.499610 0.137770 6.798809
v -13.090042 1.637058 6.629967
v -13.523386 0.135262 6.743492
v -13.501396 0.135262 6.796832
v -13.741693 0.135262 6.895892
v -13.763682 0.135262 6.842552
v -13.498112 0.137542 6.795478
v -13.520101 0.137542 6.742137
v -13.110340 1.637286 6.573216
v -13.088350 1.637286 6.626556
v -13.292870 1.641876 6.710868
v -13.314858 1.641876 6.657528
v -13.334373 1.691661 6.665572
v -13.312384 1.691661 6.718913
v -13.314250 1.691688 6.719682
v -13.336239 1.691688 6.666342
v -13.765040 0.137545 6.843112
v -13.743052 0.137544 6.896452
v -11.880786 1.641876 10.136231
v -11.858797 1.641876 10.189571
v -11.921916 1.803201 10.215591
v -11.943905 1.803201 10.162251
v -12.597822 1.641876 8.396879
v -12.575832 1.641876 8.450219
v -12.638952 1.803201 8.476240
v -12.660941 1.803201 8.422900
v -13.314857 1.641876 6.657527
v -13.292869 1.641876 6.710867
v -13.355988 1.803201 6.736888
v -13.377977 1.803201 6.683548
v -13.526642 1.808019 6.643086
v -11.998878 1.808019 10.349066
v -11.998878 1.903341 10.349066
v -13.526642 1.903341 6.643086
v -12.538954 0.950128 10.472675
v -12.601919 1.111056 10.498631
v -9.378406 1.111055 9.169760
v -9.441370 0.950128 9.195718
v -9.352865 1.111254 9.224350
v -9.415984 0.949929 9.250371
v -9.437973 0.949929 9.197031
v -9.374854 1.111254 9.171009
v -13.303792 0.950128 8.617367
v -13.366756 1.111056 8.643323
v -10.143244 1.111055 7.314452
v -10.206208 0.950128 7.340409
v -10.117702 1.111254 7.369041
v -10.180822 0.949929 7.395062
v -10.202811 0.949929 7.341722
v -10.139692 1.111254 7.315701
v -14.020828 0.950128 6.878015
v -14.083793 1.111056 6.903970
v -10.860280 1.111055 5.575099
v -10.923244 0.950128 5.601057
v -10.834739 1.111254 5.629689
v -10.897859 0.949929 5.655710
v -10.919847 0.949929 5.602370
v -10.856728 1.111254 5.576348
v -10.145753 1.637058 9.418262
v -10.125888 1.687738 9.410074
v -9.698845 0.137769 9.234028
v -9.938686 0.137770 9.332901
v -10.348254 1.637058 9.501743
v -10.148651 1.639566 9.422171
v -10.348593 1.639566 9.504596
v -10.326604 1.639566 9.557936
v -10.126662 1.639566 9.475511
v -10.121851 1.637058 9.476241
v -9.914785 0.137770 9.390880
v -9.674944 0.137769 9.292006
v -10.101987 1.687737 9.468052
v -10.324353 1.637058 9.559721
v -9.674615 0.135261 9.289157
v -9.914911 0.135261 9.388218
v -9.936899 0.135261 9.334878
v -9.696604 0.135261 9.235817
v -10.349946 1.637286 9.505154
v -9.940186 0.137541 9.336232
v -9.918196 0.137542 9.389572
v -10.327957 1.637286 9.558494
v -10.125914 1.691661 9.412797
v -10.145427 1.641876 9.420841
v -10.123438 1.641876 9.474181
v -10.103924 1.691661 9.466137
v -9.695246 0.137544 9.235257
v -10.124046 1.691687 9.412028
v -10.102057 1.691687 9.465368
v -9.673257 0.137544 9.288597
v -11.493483 1.116072 5.802217
v -11.493483 1.186310 5.802217
v -11.152570 1.186309 5.661678
v -11.152570 1.116072 5.661678
v -9.271340 1.116072 9.224658
v -10.799105 1.116072 5.518679
v -10.799105 1.186309 5.518679
v -9.271340 1.186309 9.224658
v -9.272703 1.116072 9.227933
v -9.272703 1.186309 9.227933
v -9.613617 1.186309 9.368472
v -9.613617 1.116072 9.368472
v -11.494845 1.116072 5.805492
v -9.967081 1.116072 9.511472
v -9.967081 1.186310 9.511472
v -11.494845 1.186310 5.805492
v -9.273660 1.113564 9.225614
v -9.614573 1.113564 9.366153
v -11.142337 1.113564 5.660173
v -10.801424 1.113564 5.519634
v -9.273660 1.188818 9.225614
v -10.801424 1.188818 5.519634
v -11.142337 1.188818 5.660173
v -9.614573 1.188818 9.366153
v -10.862788 1.637058 7.678911
v -10.842924 1.687738 7.670722
v -10.415880 0.137770 7.494676
v -10.655723 0.137770 7.593549
v -11.065290 1.637058 7.762391
v -10.865687 1.639566 7.682819
v -11.065628 1.639566 7.765244
v -11.043639 1.639566 7.818584
v -10.843699 1.639566 7.736159
v -10.838887 1.637058 7.736889
v -10.631822 0.137770 7.651528
v -10.391980 0.137769 7.552654
v -10.819023 1.687738 7.728700
v -11.041389 1.637058 7.820370
v -10.391650 0.135261 7.549806
v -10.631947 0.135261 7.648866
v -10.653935 0.135261 7.595526
v -10.413639 0.135261 7.496465
v -11.066981 1.637286 7.765801
v -10.657221 0.137541 7.596880
v -10.635232 0.137542 7.650220
v -11.044992 1.637286 7.819142
v -10.842949 1.691661 7.673446
v -10.862463 1.641876 7.681490
v -10.840473 1.641876 7.734830
v -10.820960 1.691661 7.726786
v -10.412281 0.137544 7.495905
v -10.841083 1.691687 7.672676
v -10.819094 1.691687 7.726016
v -10.390292 0.137544 7.549246
v -11.579824 1.637058 5.939559
v -11.559959 1.687738 5.931370
v -11.132916 0.137770 5.755324
v -11.372758 0.137770 5.854198
v -11.782326 1.637058 6.023039
v -11.582723 1.639566 5.943467
v -11.782664 1.639566 6.025892
v -11.760675 1.639566 6.079232
v -11.560734 1.639566 5.996807
v -11.555923 1.637058 5.997537
v -11.348857 0.137770 5.912176
v -11.109015 0.137770 5.813303
v -11.536058 1.687738 5.989348
v -11.758425 1.637058 6.081017
v -11.108685 0.135261 5.810453
v -11.348982 0.135261 5.909514
v -11.370972 0.135261 5.856174
v -11.130675 0.135261 5.757113
v -11.784018 1.637286 6.026449
v -11.374256 0.137542 5.857528
v -11.352267 0.137542 5.910868
v -11.762029 1.637286 6.079790
v -11.559985 1.691661 5.934093
v -11.579499 1.641876 5.942138
v -11.557509 1.641876 5.995478
v -11.537996 1.691661 5.987433
v -11.129317 0.137544 5.756554
v -11.558118 1.691688 5.933324
v -11.536129 1.691687 5.986664
v -11.107328 0.137544 5.809894
v -11.879301 1.642074 10.132906
v -11.942266 1.803002 10.158863
v -10.085861 1.803002 9.393573
v -10.148825 1.642074 9.419529
v -10.060320 1.803200 9.448161
v -10.123439 1.641876 9.474182
v -10.145429 1.641876 9.420842
v -10.082309 1.803200 9.394821
v -12.596337 1.642074 8.393554
v -12.659302 1.803002 8.419511
v -10.802896 1.803002 7.654221
v -10.865861 1.642074 7.680177
v -10.777355 1.803200 7.708810
v -10.840475 1.641876 7.734830
v -10.862464 1.641876 7.681490
v -10.799344 1.803200 7.655470
v -13.313374 1.642074 6.654202
v -13.376337 1.803002 6.680159
v -11.519933 1.803002 5.914868
v -11.582896 1.642074 5.940825
v -11.494391 1.803200 5.969458
v -11.557510 1.641876 5.995478
v -11.579500 1.641876 5.942138
v -11.516380 1.803200 5.916118
v -12.143074 1.903341 6.070007
v -12.143074 1.808019 6.070007
v -12.477029 1.808019 6.207678
v -12.477029 1.903341 6.207678
v -9.911655 1.903341 9.488623
v -9.911655 1.808019 9.488623
v -11.439420 1.808019 5.782644
v -11.439420 1.903341 5.782644
v -12.515053 0.950128 10.530654
v -9.417469 0.950128 9.253696
v -9.354505 1.111055 9.227738
v -12.578017 1.111056 10.556609
v -12.537216 0.947620 10.474672
v -9.441196 0.947619 9.198359
v -9.419208 0.947619 9.251699
v -12.515226 0.947620 10.528012
v -12.580154 1.113564 10.554777
v -9.354280 1.113564 9.224933
v -9.376269 1.113564 9.171593
v -12.602143 1.113564 10.501436
v -13.279891 0.950128 8.675344
v -10.182307 0.950128 7.398387
v -10.119343 1.111055 7.372430
v -13.342855 1.111056 8.701302
v -13.302053 0.947620 8.619363
v -10.206035 0.947619 7.343050
v -10.184045 0.947619 7.396390
v -13.280065 0.947620 8.672703
v -13.344992 1.113564 8.699469
v -10.119118 1.113564 7.369625
v -10.141108 1.113564 7.316284
v -13.366981 1.113564 8.646129
v -13.996927 0.950128 6.935993
v -10.899343 0.950128 5.659035
v -10.836378 1.111055 5.633078
v -14.059892 1.111056 6.961948
v -14.019090 0.947620 6.880012
v -10.923070 0.947619 5.603699
v -10.901081 0.947619 5.657039
v -13.997101 0.947620 6.933352
v -14.062028 1.113564 6.960116
v -10.836154 1.113564 5.630272
v -10.858143 1.113564 5.576932
v -14.084017 1.113564 6.906776
v -11.855400 1.642074 10.190885
v -10.124924 1.642074 9.477508
v -10.061959 1.803002 9.451550
v -11.918365 1.803002 10.216841
v -11.877563 1.639566 10.134903
v -10.148651 1.639566 9.422171
v -10.126662 1.639566 9.475511
v -11.855574 1.639566 10.188242
v -11.920501 1.805511 10.215009
v -10.061735 1.805511 9.448745
v -10.083724 1.805511 9.395405
v -11.942491 1.805511 10.161669
v -12.572436 1.642074 8.451532
v -10.841960 1.642074 7.738155
v -10.778996 1.803002 7.712199
v -12.635400 1.803002 8.477489
v -12.594599 1.639566 8.395551
v -10.865687 1.639566 7.682819
v -10.843698 1.639566 7.736159
v -12.572610 1.639566 8.448891
v -12.637537 1.805511 8.475657
v -10.778770 1.805511 7.709394
v -10.800760 1.805511 7.656053
v -12.659526 1.805511 8.422317
v -13.289472 1.642074 6.712180
v -11.558995 1.642074 5.998804
v -11.496031 1.803002 5.972847
v -13.352436 1.803002 6.738137
v -13.311634 1.639566 6.656199
v -11.582723 1.639566 5.943467
v -11.560734 1.639566 5.996807
v -13.289645 1.639566 6.709539
v -13.354572 1.805511 6.736305
v -11.495807 1.805511 5.970041
v -11.517796 1.805511 5.916701
v -13.376562 1.805511 6.682964
v -11.295223 1.903341 10.061703
v -11.295223 1.808019 10.061703
v -10.961267 1.808019 9.924032
v -10.961267 1.903341 9.924032
v -11.296179 1.805510 10.059383
v -12.823943 1.805510 6.353404
v -12.489987 1.805510 6.215734
v -10.962224 1.805510 9.921713
v -12.823943 1.905849 6.353404
v -11.296179 1.905849 10.059383
v -10.962224 1.905849 9.921713
v -12.489987 1.905849 6.215734
v -13.186685 1.903341 6.500228
v -13.186685 1.808019 6.500228
v -13.525279 1.808019 6.639812
v -13.525279 1.903341 6.639812
v -12.838815 1.903341 6.356821
v -12.838815 1.808019 6.356821
v -13.172770 1.808019 6.494493
v -13.172770 1.903341 6.494493
v -12.490944 1.903341 6.213414
v -12.490944 1.808019 6.213414
v -12.824900 1.808019 6.351085
v -12.824900 1.903341 6.351085
v -11.781288 1.808019 5.920864
v -11.781288 1.903341 5.920864
v -11.442695 1.903341 5.781281
v -11.442695 1.808019 5.781281
v -12.129159 1.808019 6.064271
v -12.129159 1.903341 6.064271
v -11.795203 1.903341 5.926600
v -11.795203 1.808019 5.926600
v -10.251612 1.903341 9.631481
v -10.251612 1.808019 9.631481
v -9.913018 1.808019 9.491899
v -9.913018 1.903341 9.491899
v -10.599483 1.903341 9.774888
v -10.599483 1.808019 9.774888
v -10.265527 1.808019 9.637218
v -10.265527 1.903341 9.637218
v -10.947352 1.903341 9.918296
v -10.947352 1.808019 9.918296
v -10.613398 1.808019 9.780624
v -10.613398 1.903341 9.780624
v -11.657008 1.808019 10.210846
v -11.657008 1.903341 10.210846
v -11.995603 1.903341 10.350429
v -11.995603 1.808019 10.350429
v -11.309138 1.808019 10.067439
v -11.309138 1.903341 10.067439
v -11.643093 1.903341 10.205110
v -11.643093 1.808019 10.205110
v -10.252568 1.805510 9.629162
v -11.780333 1.805510 5.923182
v -11.441738 1.805510 5.783600
v -9.913975 1.805510 9.489579
v -10.600438 1.805510 9.772570
v -12.128202 1.805510 6.066590
v -11.794247 1.805510 5.928919
v -10.266483 1.805510 9.634898
v -10.948309 1.805510 9.915977
v -12.476073 1.805510 6.209997
v -12.142118 1.805510 6.072326
v -10.614353 1.805510 9.778305
v -13.185729 1.805510 6.502548
v -11.657965 1.805510 10.208527
v -11.996558 1.805511 10.348110
v -13.524323 1.805511 6.642130
v -12.837858 1.805510 6.359140
v -11.310094 1.805510 10.065120
v -11.644050 1.805510 10.202790
v -13.171814 1.805510 6.496811
v -11.780333 1.905849 5.923182
v -10.252568 1.905849 9.629162
v -9.913975 1.905849 9.489579
v -11.441738 1.905849 5.783600
v -12.128202 1.905849 6.066590
v -10.600438 1.905849 9.772570
v -10.266483 1.905849 9.634898
v -11.794247 1.905849 5.928919
v -12.476073 1.905849 6.209997
v -10.948309 1.905849 9.915977
v -10.614353 1.905849 9.778305
v -12.142118 1.905849 6.072326
v -11.657965 1.905849 10.208527
v -13.185729 1.905849 6.502548
v -13.524323 1.905849 6.642130
v -11.996558 1.905849 10.348110
v -11.310094 1.905849 10.065120
v -12.837858 1.905849 6.359140
v -13.171814 1.905849 6.496811
v -11.644050 1.905849 10.202790
v -12.474356 1.878191 6.232688
v -12.478839 1.899867 6.211090
v -12.478839 1.811492 6.211090
v -12.474356 1.833168 6.232688
v -12.139385 1.899867 6.071153
v -12.127345 1.878191 6.089635
v -12.127345 1.833168 6.089635
v -12.139385 1.811492 6.071153
v -10.963941 1.878191 9.899021
v -10.959458 1.899867 9.920620
v -10.959458 1.811492 9.920620
v -10.963941 1.833168 9.899021
v -11.298911 1.899867 10.060556
v -11.310952 1.878191 10.042074
v -11.310952 1.833169 10.042074
v -11.298911 1.811492 10.060556
v -10.965281 1.829652 9.895770
v -10.960798 1.807976 9.917368
v -12.485915 1.807976 6.217812
v -12.473875 1.829652 6.236294
v -11.300252 1.807976 10.057305
v -11.312292 1.829652 10.038823
v -12.820886 1.829652 6.379347
v -12.825369 1.807976 6.357749
v -12.473875 1.881708 6.236294
v -12.485915 1.903384 6.217812
v -10.960798 1.903384 9.917368
v -10.965281 1.881708 9.895770
v -12.825369 1.903384 6.357749
v -12.820886 1.881708 6.379347
v -11.312292 1.881708 10.038823
v -11.300252 1.903384 10.057305
v -13.170956 1.833169 6.519857
v -13.182997 1.811492 6.501374
v -13.182997 1.899867 6.501374
v -13.170956 1.878191 6.519857
v -13.170096 1.878191 6.519503
v -13.174580 1.899867 6.497904
v -13.174580 1.811492 6.497904
v -13.170096 1.833169 6.519503
v -12.835126 1.899867 6.357967
v -12.823086 1.878191 6.376450
v -12.823086 1.833169 6.376450
v -12.835126 1.811492 6.357967
v -12.822227 1.878191 6.376095
v -12.826709 1.899867 6.354497
v -12.826709 1.811492 6.354497
v -12.822227 1.833169 6.376095
v -12.487255 1.899867 6.214560
v -12.475215 1.878191 6.233043
v -12.475215 1.833168 6.233043
v -12.487255 1.811492 6.214560
v -11.778615 1.878191 5.945874
v -11.783098 1.899867 5.924275
v -11.783098 1.811492 5.924275
v -11.778615 1.833168 5.945874
v -11.779474 1.833168 5.946228
v -11.791514 1.811492 5.927746
v -11.791514 1.899867 5.927746
v -11.779474 1.878191 5.946228
v -12.130968 1.811492 6.067683
v -12.126486 1.833168 6.089281
v -12.126486 1.878191 6.089281
v -12.130968 1.899867 6.067683
v -10.267341 1.833168 9.611853
v -10.255301 1.811492 9.630336
v -10.255301 1.899867 9.630336
v -10.267341 1.878191 9.611853
v -10.268200 1.878191 9.612207
v -10.263718 1.899867 9.633805
v -10.263718 1.811492 9.633805
v -10.268200 1.833168 9.612207
v -10.603170 1.899867 9.773743
v -10.615211 1.878191 9.755260
v -10.615211 1.833168 9.755260
v -10.603170 1.811492 9.773743
v -10.616071 1.878191 9.755614
v -10.611588 1.899867 9.777212
v -10.611588 1.811492 9.777212
v -10.616071 1.833168 9.755614
v -10.951041 1.899867 9.917150
v -10.963081 1.878191 9.898667
v -10.963081 1.833168 9.898667
v -10.951041 1.811492 9.917150
v -11.659681 1.878191 10.185836
v -11.655199 1.899867 10.207434
v -11.655199 1.811492 10.207434
v -11.659681 1.833169 10.185836
v -11.658822 1.833169 10.185482
v -11.646782 1.811492 10.203964
v -11.646782 1.899867 10.203964
v -11.658822 1.878191 10.185482
v -11.307328 1.811492 10.064027
v -11.311811 1.833169 10.042429
v -11.311811 1.878191 10.042429
v -11.307328 1.899867 10.064027
v -11.777275 1.829652 5.949125
v -11.781757 1.807975 5.927527
v -10.256641 1.807975 9.627084
v -10.268681 1.829652 9.608602
v -10.269541 1.829652 9.608955
v -10.265058 1.807975 9.630554
v -11.790174 1.807975 5.930997
v -11.778134 1.829652 5.949480
v -10.604511 1.807976 9.770491
v -10.616551 1.829652 9.752008
v -12.125145 1.829652 6.092532
v -12.129627 1.807976 6.070934
v -10.617411 1.829652 9.752363
v -10.612928 1.807976 9.773961
v -12.138044 1.807976 6.074405
v -12.126004 1.829652 6.092887
v -10.952381 1.807976 9.913898
v -10.964422 1.829652 9.895416
v -12.473016 1.829652 6.235940
v -12.477498 1.807976 6.214342
v -11.661022 1.829652 10.182585
v -11.656540 1.807976 10.204183
v -13.181656 1.807976 6.504626
v -13.169616 1.829652 6.523108
v -13.168756 1.829652 6.522754
v -13.173239 1.807976 6.501156
v -11.648123 1.807976 10.200712
v -11.660163 1.829652 10.182230
v -12.833785 1.807976 6.361219
v -12.821745 1.829652 6.379701
v -11.313151 1.829652 10.039177
v -11.308669 1.807976 10.060776
v -10.268681 1.881707 9.608602
v -10.256641 1.903384 9.627084
v -11.781757 1.903384 5.927527
v -11.777275 1.881707 5.949125
v -11.778134 1.881707 5.949480
v -11.790174 1.903384 5.930997
v -10.265058 1.903384 9.630554
v -10.269541 1.881707 9.608955
v -12.129627 1.903384 6.070934
v -12.125145 1.881708 6.092532
v -10.616551 1.881708 9.752008
v -10.604511 1.903384 9.770491
v -12.126004 1.881708 6.092887
v -12.138044 1.903384 6.074405
v -10.612928 1.903384 9.773961
v -10.617411 1.881708 9.752363
v -12.477498 1.903384 6.214342
v -12.473016 1.881708 6.235940
v -10.964422 1.881708 9.895416
v -10.952381 1.903384 9.913898
v -13.169616 1.881708 6.523108
v -13.181656 1.903384 6.504626
v -11.656540 1.903384 10.204183
v -11.661022 1.881708 10.182585
v -11.660163 1.881708 10.182230
v -11.648123 1.903384 10.200712
v -13.173239 1.903384 6.501156
v -13.168756 1.881708 6.522754
v -11.308669 1.903384 10.060776
v -11.313151 1.881708 10.039177
v -12.821745 1.881708 6.379701
v -12.833785 1.903384 6.361219
v -13.473535 1.113564 6.621194
v -14.165593 1.116073 6.903777
v -11.944815 1.116073 10.329493
v -11.945770 1.113564 10.327173
v -13.473535 1.188818 6.621194
v -14.165593 1.186310 6.903777
v -11.945770 1.188818 10.327173
v -11.944815 1.186310 10.329493
v -11.492526 1.113564 5.804537
v -10.802380 1.116072 5.517315
v -9.964762 1.113564 9.510516
v -9.963806 1.116072 9.512835
v -11.492526 1.188818 5.804537
v -10.802380 1.186309 5.517315
v -9.963806 1.186310 9.512835
v -9.964762 1.188818 9.510516
v -13.824680 1.116073 6.763238
v -13.814447 1.188818 6.761733
v -12.285728 1.116073 10.470032
v -12.286684 1.113564 10.467712
v -11.151613 1.113564 5.663998
v -11.143292 1.186309 5.657854
v -9.622892 1.186309 9.372296
v -9.623849 1.188818 9.369977
v -13.824680 1.186310 6.763238
v -12.285728 1.186310 10.470032
v -13.814447 1.113564 6.761733
v -12.286684 1.188818 10.467712
v -11.143293 1.116072 5.657854
v -9.622893 1.116072 9.372296
v -9.623849 1.113564 9.369977
v -11.151613 1.188818 5.663998
v -13.806793 1.171911 6.793465
v -13.806793 1.130472 6.793465
v -12.303615 1.171911 10.439804
v -12.303615 1.130472 10.439804
v -12.296810 1.148327 10.456312
v -13.813598 1.148327 6.776958
v -13.813598 1.154056 6.776958
v -12.296810 1.154056 10.456312
v -11.134682 1.130471 5.691906
v -11.134682 1.171910 5.691906
v -9.631504 1.130471 9.338244
v -9.631504 1.171910 9.338244
v -11.141487 1.148327 5.675398
v -9.624699 1.148327 9.354753
v -9.624699 1.154055 9.354753
v -11.141487 1.154055 5.675398
vt 0.632215 0.741487
vt 0.634789 0.743910
vt 0.623204 0.743259
vt 0.626314 0.741155
vt 0.462724 0.921619
vt 0.465605 0.919256
vt 0.471525 0.919475
vt 0.474346 0.922048
vt 0.326565 0.744335
vt 0.329287 0.746883
vt 0.317662 0.746544
vt 0.320643 0.744163
vt 0.396750 0.921621
vt 0.399630 0.919259
vt 0.405551 0.919477
vt 0.408372 0.922050
vt 0.445898 0.537017
vt 0.448722 0.535405
vt 0.448419 0.921725
vt 0.445598 0.919152
vt 0.408834 0.921728
vt 0.406014 0.919155
vt 0.406314 0.537017
vt 0.409138 0.535405
vt 0.438753 0.918900
vt 0.435872 0.921262
vt 0.436176 0.534942
vt 0.439053 0.536765
vt 0.396591 0.534942
vt 0.399468 0.536764
vt 0.399168 0.918902
vt 0.396288 0.921264
vt 0.497915 0.919475
vt 0.500736 0.922048
vt 0.489114 0.921619
vt 0.491994 0.919256
vt 0.645368 0.741487
vt 0.647941 0.743910
vt 0.636357 0.743259
vt 0.639466 0.741155
vt 0.475919 0.921619
vt 0.478799 0.919256
vt 0.484720 0.919475
vt 0.487541 0.922048
vt 0.619063 0.741487
vt 0.621636 0.743910
vt 0.610052 0.743259
vt 0.613161 0.741155
vt 0.436335 0.921619
vt 0.439215 0.919256
vt 0.445136 0.919475
vt 0.447956 0.922048
vt 0.670211 0.726443
vt 0.672784 0.728867
vt 0.661200 0.728214
vt 0.664310 0.726110
vt 0.458330 0.919475
vt 0.461151 0.922048
vt 0.449530 0.921619
vt 0.452410 0.919256
vt 0.596900 0.743259
vt 0.600009 0.741155
vt 0.605910 0.741487
vt 0.608484 0.743910
vt 0.418746 0.919477
vt 0.421567 0.922050
vt 0.409945 0.921621
vt 0.412825 0.919259
vt 0.313367 0.744336
vt 0.316089 0.746883
vt 0.304464 0.746544
vt 0.307445 0.744163
vt 0.383555 0.921621
vt 0.386435 0.919259
vt 0.392356 0.919477
vt 0.395177 0.922050
vt 0.300169 0.744335
vt 0.302891 0.746883
vt 0.291266 0.746544
vt 0.294246 0.744163
vt 0.423140 0.921621
vt 0.426020 0.919259
vt 0.431941 0.919477
vt 0.434761 0.922050
vt 0.286971 0.744336
vt 0.289692 0.746884
vt 0.278068 0.746544
vt 0.281049 0.744163
vt 0.379161 0.919477
vt 0.381982 0.922050
vt 0.370360 0.921621
vt 0.373241 0.919259
vt 0.525674 0.747391
vt 0.528655 0.745010
vt 0.534577 0.745182
vt 0.537299 0.747729
vt 0.419509 0.537017
vt 0.422333 0.535405
vt 0.422029 0.921728
vt 0.419208 0.919155
vt 0.459093 0.537017
vt 0.461917 0.535405
vt 0.461614 0.921725
vt 0.458793 0.919152
vt 0.395639 0.921728
vt 0.392819 0.919155
vt 0.393119 0.537017
vt 0.395943 0.535405
vt 0.472288 0.537017
vt 0.475112 0.535405
vt 0.474809 0.921725
vt 0.471988 0.919152
vt 0.435224 0.921728
vt 0.432403 0.919155
vt 0.432703 0.537017
vt 0.435527 0.535405
vt 0.498678 0.537017
vt 0.501502 0.535405
vt 0.501198 0.921725
vt 0.498378 0.919152
vt 0.379924 0.537017
vt 0.382748 0.535405
vt 0.382445 0.921728
vt 0.379624 0.919155
vt 0.488004 0.921725
vt 0.485183 0.919152
vt 0.485483 0.537017
vt 0.488307 0.535405
vt 0.412363 0.918902
vt 0.409483 0.921264
vt 0.409786 0.534942
vt 0.412663 0.536765
vt 0.451948 0.918900
vt 0.449067 0.921262
vt 0.449371 0.534942
vt 0.452248 0.536765
vt 0.383396 0.534942
vt 0.386273 0.536765
vt 0.385973 0.918902
vt 0.383093 0.921264
vt 0.465142 0.918900
vt 0.462262 0.921262
vt 0.462566 0.534942
vt 0.465443 0.536765
vt 0.422981 0.534942
vt 0.425858 0.536765
vt 0.425558 0.918902
vt 0.422678 0.921264
vt 0.491532 0.918900
vt 0.488652 0.921262
vt 0.488955 0.534942
vt 0.491832 0.536765
vt 0.372778 0.918902
vt 0.369898 0.921264
vt 0.370202 0.534942
vt 0.373079 0.536765
vt 0.475760 0.534942
vt 0.478638 0.536765
vt 0.478337 0.918900
vt 0.475457 0.921262
vt 0.781087 0.534942
vt 0.781418 0.535293
vt 0.781087 0.535406
vt 0.773490 0.535406
vt 0.773160 0.535293
vt 0.773490 0.534942
vt 0.042573 0.534942
vt 0.042876 0.535118
vt 0.042514 0.535440
vt 0.518018 0.750389
vt 0.518264 0.749963
vt 0.518485 0.750223
vt 0.797604 0.534942
vt 0.797934 0.535293
vt 0.797604 0.535406
vt 0.790006 0.535406
vt 0.789676 0.535293
vt 0.790006 0.534942
vt 0.021135 0.534942
vt 0.021438 0.535118
vt 0.021076 0.535440
vt 0.234239 0.772235
vt 0.233993 0.772661
vt 0.233772 0.772401
vt 0.789346 0.534942
vt 0.789676 0.535293
vt 0.789346 0.535406
vt 0.781748 0.535406
vt 0.781418 0.535293
vt 0.781748 0.534942
vt 0.064011 0.534942
vt 0.064314 0.535118
vt 0.063952 0.535440
vt 0.717288 0.746713
vt 0.717534 0.746287
vt 0.717755 0.746548
vt 0.174633 0.783965
vt 0.174633 0.783491
vt 0.174963 0.783611
vt 0.705627 0.721952
vt 0.705919 0.721546
vt 0.706110 0.721822
vt 0.572903 0.538089
vt 0.573194 0.538495
vt 0.572710 0.538364
vt 0.167035 0.783965
vt 0.166705 0.783611
vt 0.167035 0.783491
vt 0.212678 0.534942
vt 0.212886 0.535195
vt 0.212404 0.535335
vt 0.256980 0.781689
vt 0.257447 0.781152
vt 0.257664 0.781548
vt 0.592298 0.541363
vt 0.592673 0.541115
vt 0.592838 0.541811
vt 0.884055 0.747796
vt 0.884538 0.747929
vt 0.884348 0.748194
vt 0.212886 0.750086
vt 0.212690 0.750141
vt 0.212467 0.749630
vt 0.595896 0.534942
vt 0.596078 0.534969
vt 0.596119 0.535527
vt 0.762933 0.922746
vt 0.762951 0.922274
vt 0.763264 0.922516
vt 0.561832 0.744895
vt 0.562158 0.744657
vt 0.562129 0.745127
vt 0.743471 0.922519
vt 0.743141 0.922749
vt 0.743159 0.922276
vt 0.129958 0.748849
vt 0.129945 0.749321
vt 0.129630 0.749070
vt 0.753697 0.922405
vt 0.753367 0.922151
vt 0.753715 0.921933
vt 0.571365 0.745177
vt 0.571696 0.745452
vt 0.571335 0.745647
vt 0.733905 0.922407
vt 0.733575 0.922153
vt 0.733922 0.921935
vt 0.139197 0.749120
vt 0.139529 0.749360
vt 0.139183 0.749592
vt 0.166374 0.783965
vt 0.166374 0.783491
vt 0.166705 0.783611
vt 0.682305 0.721952
vt 0.682596 0.721546
vt 0.682788 0.721822
vt 0.549160 0.538089
vt 0.549451 0.538495
vt 0.548968 0.538365
vt 0.158777 0.783965
vt 0.158447 0.783611
vt 0.158777 0.783491
vt 0.263924 0.534942
vt 0.264132 0.535195
vt 0.263650 0.535335
vt 0.518018 0.780003
vt 0.518485 0.779466
vt 0.518702 0.779862
vt 0.568555 0.541363
vt 0.568930 0.541115
vt 0.569095 0.541811
vt 0.895875 0.747796
vt 0.896358 0.747929
vt 0.896168 0.748194
vt 0.264132 0.750086
vt 0.263935 0.750141
vt 0.263713 0.749629
vt 0.572154 0.534942
vt 0.572335 0.534969
vt 0.572376 0.535527
vt 0.157355 0.783965
vt 0.157355 0.783491
vt 0.157686 0.783611
vt 0.711458 0.721952
vt 0.711749 0.721546
vt 0.711941 0.721822
vt 0.525417 0.538089
vt 0.525708 0.538495
vt 0.525225 0.538364
vt 0.149758 0.783965
vt 0.149427 0.783611
vt 0.149758 0.783491
vt 0.238301 0.534942
vt 0.238509 0.535195
vt 0.238027 0.535335
vt 0.717288 0.776327
vt 0.717755 0.775790
vt 0.717972 0.776187
vt 0.544813 0.541363
vt 0.545187 0.541115
vt 0.545352 0.541811
vt 0.889965 0.747796
vt 0.890448 0.747929
vt 0.890258 0.748194
vt 0.238509 0.750086
vt 0.238313 0.750141
vt 0.238090 0.749629
vt 0.548411 0.534942
vt 0.548593 0.534969
vt 0.548634 0.535527
vt 0.838894 0.534942
vt 0.839224 0.535293
vt 0.838894 0.535406
vt 0.831296 0.535406
vt 0.830966 0.535293
vt 0.831296 0.534942
vt 0.617250 0.534942
vt 0.617553 0.535118
vt 0.617191 0.535440
vt 0.595852 0.766751
vt 0.595606 0.767178
vt 0.595385 0.766917
vt 0.847152 0.534942
vt 0.847482 0.535293
vt 0.847152 0.535406
vt 0.839555 0.535406
vt 0.839224 0.535293
vt 0.839555 0.534942
vt 0.660117 0.534942
vt 0.660420 0.535118
vt 0.660058 0.535440
vt 0.245609 0.772235
vt 0.245364 0.772661
vt 0.245143 0.772401
vt 0.830636 0.534942
vt 0.830966 0.535293
vt 0.830636 0.535406
vt 0.823038 0.535406
vt 0.822708 0.535293
vt 0.823038 0.534942
vt 0.638683 0.534942
vt 0.638986 0.535118
vt 0.638625 0.535440
vt 0.717288 0.722425
vt 0.717534 0.721999
vt 0.717755 0.722259
vt 0.264458 0.743811
vt 0.264429 0.744281
vt 0.264132 0.744049
vt 0.356358 0.922641
vt 0.356028 0.922871
vt 0.356046 0.922398
vt 0.276953 0.744515
vt 0.277284 0.744790
vt 0.276924 0.744985
vt 0.343493 0.922407
vt 0.343163 0.922153
vt 0.343511 0.921935
vt 0.781418 0.981857
vt 0.781087 0.982209
vt 0.781087 0.981744
vt 0.773490 0.981744
vt 0.773490 0.982209
vt 0.773160 0.981857
vt 0.723195 0.742750
vt 0.722974 0.742490
vt 0.723441 0.742324
vt 0.085471 0.540996
vt 0.085513 0.540497
vt 0.085818 0.540649
vt 0.797934 0.981857
vt 0.797604 0.982209
vt 0.797604 0.981744
vt 0.790006 0.981744
vt 0.790006 0.982209
vt 0.789676 0.981857
vt 0.256734 0.772661
vt 0.256513 0.772401
vt 0.256980 0.772235
vt 0.129283 0.535441
vt 0.129326 0.534942
vt 0.129630 0.535094
vt 0.789676 0.981857
vt 0.789346 0.982209
vt 0.789346 0.981744
vt 0.781748 0.981744
vt 0.781748 0.982209
vt 0.781418 0.981857
vt 0.673818 0.762409
vt 0.674039 0.762669
vt 0.673572 0.762835
vt 0.107374 0.540996
vt 0.107417 0.540497
vt 0.107721 0.540649
vt 0.183221 0.749203
vt 0.182891 0.749322
vt 0.182891 0.748849
vt 0.317181 0.537959
vt 0.317395 0.537688
vt 0.317662 0.538104
vt 0.688619 0.721822
vt 0.688135 0.721952
vt 0.688427 0.721546
vt 0.175293 0.749322
vt 0.174963 0.749203
vt 0.175293 0.748849
vt 0.907695 0.747714
vt 0.908174 0.747858
vt 0.907978 0.748119
vt 0.338961 0.541276
vt 0.339377 0.541035
vt 0.339505 0.541738
vt 0.672029 0.767685
vt 0.671562 0.768223
vt 0.671345 0.767826
vt 0.181646 0.535596
vt 0.181836 0.535862
vt 0.181353 0.535994
vt 0.343153 0.535535
vt 0.342961 0.534942
vt 0.343163 0.534972
vt 0.672029 0.774793
vt 0.671735 0.775267
vt 0.671562 0.775205
vt 0.538089 0.744895
vt 0.538415 0.744657
vt 0.538386 0.745127
vt 0.772830 0.922746
vt 0.772847 0.922274
vt 0.773160 0.922517
vt 0.139856 0.748849
vt 0.139843 0.749321
vt 0.139529 0.749070
vt 0.753367 0.922519
vt 0.753037 0.922749
vt 0.753055 0.922276
vt 0.547622 0.745177
vt 0.547953 0.745452
vt 0.547593 0.745647
vt 0.763593 0.922405
vt 0.763264 0.922151
vt 0.763611 0.921933
vt 0.149095 0.749120
vt 0.149427 0.749360
vt 0.149082 0.749592
vt 0.743801 0.922407
vt 0.743471 0.922153
vt 0.743818 0.921935
vt 0.509760 0.748548
vt 0.509430 0.748668
vt 0.509430 0.748195
vt 0.264493 0.537959
vt 0.264707 0.537689
vt 0.264975 0.538105
vt 0.700280 0.721822
vt 0.699796 0.721952
vt 0.700088 0.721546
vt 0.501832 0.748668
vt 0.501502 0.748548
vt 0.501832 0.748195
vt 0.901785 0.747796
vt 0.902268 0.747929
vt 0.902078 0.748194
vt 0.286273 0.541276
vt 0.286690 0.541035
vt 0.286817 0.541738
vt 0.595971 0.769765
vt 0.595504 0.770302
vt 0.595288 0.769906
vt 0.524701 0.534942
vt 0.524891 0.535207
vt 0.524408 0.535339
vt 0.290465 0.535535
vt 0.290274 0.534942
vt 0.290476 0.534972
vt 0.595971 0.776873
vt 0.595677 0.777347
vt 0.595504 0.777285
vt 0.681830 0.726139
vt 0.681500 0.726259
vt 0.681500 0.725785
vt 0.290837 0.537959
vt 0.291051 0.537688
vt 0.291318 0.538105
vt 0.694449 0.721822
vt 0.693966 0.721952
vt 0.694257 0.721546
vt 0.673902 0.726259
vt 0.673572 0.726139
vt 0.673902 0.725785
vt 0.913576 0.747714
vt 0.914055 0.747858
vt 0.913859 0.748119
vt 0.312617 0.541276
vt 0.313034 0.541035
vt 0.313161 0.541738
vt 0.666224 0.767685
vt 0.665757 0.768223
vt 0.665541 0.767826
vt 0.152829 0.535596
vt 0.153019 0.535861
vt 0.152537 0.535994
vt 0.316809 0.535535
vt 0.316618 0.534942
vt 0.316820 0.534972
vt 0.666224 0.774793
vt 0.665930 0.775267
vt 0.665757 0.775205
vt 0.839224 0.784768
vt 0.838894 0.785120
vt 0.838894 0.784655
vt 0.831297 0.784655
vt 0.831297 0.785120
vt 0.830966 0.784768
vt 0.257226 0.751649
vt 0.257447 0.751909
vt 0.256980 0.752075
vt 0.681568 0.540997
vt 0.681610 0.540498
vt 0.681915 0.540649
vt 0.847482 0.784768
vt 0.847152 0.785120
vt 0.847152 0.784655
vt 0.839555 0.784655
vt 0.839555 0.785120
vt 0.839224 0.784768
vt 0.245855 0.751909
vt 0.246076 0.752170
vt 0.245609 0.752335
vt 0.703464 0.535441
vt 0.703507 0.534942
vt 0.703811 0.535094
vt 0.830966 0.784768
vt 0.830636 0.785120
vt 0.830636 0.784655
vt 0.823038 0.784655
vt 0.823038 0.785120
vt 0.822708 0.784768
vt 0.234485 0.751909
vt 0.234706 0.752170
vt 0.234239 0.752335
vt 0.724970 0.535441
vt 0.725013 0.534942
vt 0.725317 0.535094
vt 0.369553 0.922638
vt 0.369223 0.922868
vt 0.369241 0.922396
vt 0.548961 0.744657
vt 0.548948 0.745130
vt 0.548634 0.744878
vt 0.356688 0.922405
vt 0.356358 0.922151
vt 0.356705 0.921933
vt 0.561499 0.745024
vt 0.561832 0.745265
vt 0.561486 0.745497
vt 0.982566 0.528506
vt 0.982565 0.528037
vt 0.982688 0.528037
vt 0.982688 0.528506
vt 0.982198 0.528506
vt 0.982198 0.528038
vt 0.982321 0.528038
vt 0.982321 0.528506
vt 0.981953 0.528506
vt 0.981953 0.528037
vt 0.982076 0.528037
vt 0.982076 0.528506
vt 0.982076 0.528506
vt 0.982076 0.528037
vt 0.982198 0.528037
vt 0.982198 0.528506
vt 0.982810 0.000000
vt 0.982810 0.000469
vt 0.982688 0.000469
vt 0.982688 0.000000
vt 0.982321 0.000469
vt 0.982321 0.000000
vt 0.982443 0.000000
vt 0.982443 0.000469
vt 0.983178 0.528037
vt 0.983178 0.528506
vt 0.983055 0.528506
vt 0.983055 0.528037
vt 0.982933 0.528037
vt 0.982933 0.528506
vt 0.982810 0.528506
vt 0.982810 0.528037
vt 0.982566 0.528037
vt 0.982565 0.528506
vt 0.982443 0.528506
vt 0.982443 0.528037
vt 0.983055 0.528037
vt 0.983055 0.528506
vt 0.982933 0.528506
vt 0.982933 0.528037
vt 0.983055 0.000000
vt 0.983055 0.000469
vt 0.982933 0.000469
vt 0.982933 0.000000
vt 0.982565 0.000000
vt 0.982565 0.000469
vt 0.982443 0.000469
vt 0.982443 0.000000
vt 0.982933 0.000000
vt 0.982933 0.000469
vt 0.982810 0.000469
vt 0.982810 0.000000
vt 0.983178 0.000000
vt 0.983178 0.000469
vt 0.983055 0.000469
vt 0.983055 0.000000
vt 0.982321 0.528506
vt 0.982321 0.528037
vt 0.982443 0.528037
vt 0.982443 0.528506
vt 0.982810 0.528037
vt 0.982810 0.528506
vt 0.982688 0.528506
vt 0.982688 0.528037
vt 0.982076 0.000469
vt 0.982076 0.000000
vt 0.982198 0.000000
vt 0.982198 0.000469
vt 0.981953 0.000469
vt 0.981953 0.000000
vt 0.982076 0.000000
vt 0.982076 0.000469
vt 0.982198 0.000469
vt 0.982198 0.000000
vt 0.982321 0.000000
vt 0.982321 0.000469
vt 0.982565 0.000469
vt 0.982565 0.000000
vt 0.982688 0.000000
vt 0.982688 0.000469
vt 0.501172 0.922576
vt 0.501502 0.922346
vt 0.290137 0.747409
vt 0.290177 0.746559
vt 0.290482 0.747177
vt 0.673212 0.729407
vt 0.673290 0.728593
vt 0.673572 0.729212
vt 0.422003 0.922578
vt 0.422333 0.922348
vt 0.635874 0.743747
vt 0.635576 0.743515
vt 0.635940 0.742933
vt 0.488307 0.922346
vt 0.487977 0.922576
vt 0.609569 0.743747
vt 0.609271 0.743515
vt 0.609635 0.742933
vt 0.448722 0.922346
vt 0.448392 0.922576
vt 0.622721 0.743747
vt 0.622424 0.743515
vt 0.622788 0.742933
vt 0.475112 0.922346
vt 0.474782 0.922576
vt 0.596416 0.743747
vt 0.596119 0.743515
vt 0.596483 0.742933
vt 0.461917 0.922346
vt 0.461587 0.922576
vt 0.660420 0.728470
vt 0.660784 0.727888
vt 0.660717 0.728702
vt 0.369883 0.922115
vt 0.369553 0.921861
vt 0.537783 0.747404
vt 0.538089 0.748022
vt 0.537744 0.748254
vt 0.396273 0.922115
vt 0.395943 0.921861
vt 0.329771 0.746558
vt 0.330077 0.747175
vt 0.329731 0.747407
vt 0.422662 0.922115
vt 0.422333 0.921861
vt 0.303375 0.746558
vt 0.303680 0.747175
vt 0.303335 0.747407
vt 0.383078 0.922115
vt 0.382748 0.921861
vt 0.316573 0.746558
vt 0.316879 0.747175
vt 0.316533 0.747407
vt 0.409138 0.921861
vt 0.409467 0.922115
vt 0.449052 0.922113
vt 0.448722 0.921858
vt 0.608989 0.743637
vt 0.609271 0.744255
vt 0.608911 0.744450
vt 0.462247 0.922113
vt 0.461917 0.921858
vt 0.635294 0.743637
vt 0.635576 0.744255
vt 0.635216 0.744450
vt 0.435857 0.922113
vt 0.435528 0.921858
vt 0.622141 0.743637
vt 0.622424 0.744255
vt 0.622064 0.744450
vt 0.475442 0.922113
vt 0.475112 0.921858
vt 0.648446 0.743637
vt 0.648729 0.744255
vt 0.648368 0.744450
vt 0.488307 0.921858
vt 0.488637 0.922113
vt 0.303995 0.747042
vt 0.303680 0.746791
vt 0.304023 0.746192
vt 0.395943 0.922348
vt 0.395613 0.922578
vt 0.290797 0.747042
vt 0.290482 0.746791
vt 0.290825 0.746192
vt 0.435528 0.922348
vt 0.435197 0.922578
vt 0.317193 0.747042
vt 0.316879 0.746791
vt 0.317221 0.746192
vt 0.409138 0.922348
vt 0.408808 0.922578
vt 0.525205 0.747889
vt 0.524891 0.747637
vt 0.525234 0.747039
vt 0.382748 0.922348
vt 0.382418 0.922578
vt 0.277284 0.746790
vt 0.277627 0.746192
vt 0.277599 0.747042
vt 0.021438 0.541031
vt 0.021445 0.540546
vt 0.518485 0.772372
vt 0.518018 0.772483
vt 0.523482 0.748195
vt 0.523703 0.748455
vt 0.000000 0.541031
vt 0.000007 0.540546
vt 0.233772 0.750252
vt 0.234239 0.750141
vt 0.228775 0.774430
vt 0.228554 0.774169
vt 0.042876 0.541031
vt 0.042883 0.540546
vt 0.717755 0.768696
vt 0.717288 0.768807
vt 0.722752 0.744519
vt 0.722973 0.744779
vt 0.706110 0.924120
vt 0.705634 0.924187
vt 0.220295 0.779521
vt 0.219965 0.778966
vt 0.219965 0.750141
vt 0.220295 0.750328
vt 0.256980 0.774581
vt 0.257447 0.774169
vt 0.174633 0.748849
vt 0.174963 0.749034
vt 0.711266 0.720230
vt 0.711458 0.720506
vt 0.212368 0.778966
vt 0.212037 0.779521
vt 0.212037 0.750328
vt 0.212368 0.750141
vt 0.219965 0.779430
vt 0.212368 0.779430
vt 0.572853 0.740730
vt 0.572376 0.740662
vt 0.166705 0.749034
vt 0.167035 0.748849
vt 0.884113 0.535396
vt 0.884538 0.534942
vt 0.889965 0.748849
vt 0.889775 0.749114
vt 0.244354 0.534942
vt 0.195796 0.534942
vt 0.195796 0.534607
vt 0.244354 0.534607
vt 0.489453 0.000000
vt 0.538011 0.000000
vt 0.538011 0.000334
vt 0.489453 0.000334
vt 0.244684 0.534607
vt 0.244354 0.000334
vt 0.244684 0.000334
vt 0.586898 0.534607
vt 0.586568 0.534607
vt 0.586568 0.000334
vt 0.586898 0.000334
vt 0.245014 0.000000
vt 0.293572 0.000000
vt 0.293572 0.000334
vt 0.245014 0.000334
vt 0.586568 0.534942
vt 0.538011 0.534942
vt 0.538011 0.534607
vt 0.244684 0.000334
vt 0.245014 0.534607
vt 0.244684 0.534607
vt 0.489123 0.000334
vt 0.489453 0.534607
vt 0.489123 0.534607
vt 0.682788 0.924120
vt 0.682311 0.924187
vt 0.212037 0.779521
vt 0.211707 0.778966
vt 0.211707 0.750141
vt 0.212037 0.750328
vt 0.518018 0.772895
vt 0.518485 0.772483
vt 0.166374 0.748849
vt 0.166705 0.749034
vt 0.687944 0.720230
vt 0.688135 0.720506
vt 0.204110 0.778966
vt 0.203779 0.779521
vt 0.203779 0.750328
vt 0.204110 0.750141
vt 0.211707 0.779430
vt 0.204110 0.779430
vt 0.549110 0.740730
vt 0.548634 0.740662
vt 0.158447 0.749034
vt 0.158777 0.748849
vt 0.895933 0.535396
vt 0.896358 0.534942
vt 0.901785 0.748849
vt 0.901595 0.749114
vt 0.711941 0.924120
vt 0.711464 0.924187
vt 0.195521 0.750141
vt 0.195852 0.750697
vt 0.195852 0.779521
vt 0.195521 0.779335
vt 0.717288 0.769220
vt 0.717755 0.768807
vt 0.157355 0.748849
vt 0.157686 0.749034
vt 0.717096 0.720230
vt 0.717288 0.720506
vt 0.203449 0.750697
vt 0.203779 0.750141
vt 0.203779 0.779335
vt 0.203449 0.779521
vt 0.195852 0.750232
vt 0.203449 0.750232
vt 0.525367 0.740730
vt 0.524891 0.740662
vt 0.149427 0.749034
vt 0.149758 0.748849
vt 0.890023 0.535396
vt 0.890448 0.534942
vt 0.895875 0.748849
vt 0.895685 0.749114
vt 0.596119 0.541047
vt 0.596126 0.540562
vt 0.595385 0.744769
vt 0.595852 0.744657
vt 0.590388 0.768946
vt 0.590167 0.768686
vt 0.638986 0.541047
vt 0.638993 0.540562
vt 0.245143 0.750252
vt 0.245609 0.750141
vt 0.240145 0.774430
vt 0.239924 0.774169
vt 0.617553 0.541047
vt 0.617559 0.540562
vt 0.717755 0.744408
vt 0.717288 0.744519
vt 0.722752 0.720230
vt 0.722974 0.720491
vt 0.097898 0.534607
vt 0.097568 0.534607
vt 0.097568 0.000334
vt 0.097898 0.000334
vt 0.146847 0.534607
vt 0.146517 0.534607
vt 0.146517 0.000334
vt 0.146847 0.000334
vt 0.722974 0.720341
vt 0.723441 0.720230
vt 0.064323 0.546472
vt 0.064314 0.545987
vt 0.733575 0.999830
vt 0.733245 1.000000
vt 0.733245 0.534942
vt 0.733575 0.535112
vt 0.085913 0.534942
vt 0.086217 0.535094
vt 0.256513 0.750252
vt 0.256980 0.750141
vt 0.108129 0.540890
vt 0.108120 0.540404
vt 0.981953 0.464888
vt 0.981623 0.465058
vt 0.981623 0.000000
vt 0.981953 0.000170
vt 0.251516 0.774430
vt 0.251295 0.774169
vt 0.674039 0.784818
vt 0.673572 0.784929
vt 0.086226 0.546472
vt 0.086217 0.545987
vt 0.981953 0.929947
vt 0.981623 0.930117
vt 0.981623 0.465058
vt 0.981953 0.465229
vt 0.107816 0.534942
vt 0.108120 0.535094
vt 0.317294 0.739507
vt 0.316820 0.739424
vt 0.187263 0.750328
vt 0.187593 0.750141
vt 0.187593 0.778966
vt 0.187263 0.779521
vt 0.183221 0.783780
vt 0.182891 0.783965
vt 0.693774 0.720230
vt 0.693966 0.720506
vt 0.195191 0.750141
vt 0.195521 0.750328
vt 0.195521 0.779521
vt 0.195191 0.778966
vt 0.195191 0.779430
vt 0.187593 0.779430
vt 0.688619 0.924120
vt 0.688142 0.924187
vt 0.175293 0.783965
vt 0.174963 0.783780
vt 0.181836 0.748849
vt 0.181411 0.748394
vt 0.913576 0.748919
vt 0.913380 0.749180
vt 0.913140 0.535385
vt 0.913576 0.534942
vt 0.440565 0.000000
vt 0.489123 0.000000
vt 0.489123 0.000334
vt 0.440565 0.000334
vt 0.293902 0.000000
vt 0.342460 0.000000
vt 0.342460 0.000334
vt 0.293902 0.000334
vt 0.391347 0.534607
vt 0.391017 0.534607
vt 0.391017 0.000334
vt 0.391347 0.000334
vt 0.293572 0.000334
vt 0.293902 0.534607
vt 0.293572 0.534607
vt 0.391017 0.534942
vt 0.342460 0.534942
vt 0.342460 0.534607
vt 0.391678 0.000000
vt 0.440235 0.000000
vt 0.440235 0.000334
vt 0.391678 0.000334
vt 0.440235 0.000334
vt 0.440565 0.534607
vt 0.440235 0.534607
vt 0.391347 0.000334
vt 0.391678 0.534607
vt 0.391347 0.534607
vt 0.264606 0.739507
vt 0.264132 0.739424
vt 0.220295 0.750328
vt 0.220626 0.750141
vt 0.220626 0.778966
vt 0.220295 0.779521
vt 0.509760 0.783125
vt 0.509430 0.783310
vt 0.705435 0.720230
vt 0.705627 0.720506
vt 0.228223 0.750141
vt 0.228553 0.750328
vt 0.228553 0.779521
vt 0.228223 0.778966
vt 0.228223 0.779430
vt 0.220626 0.779430
vt 0.700280 0.924120
vt 0.699803 0.924187
vt 0.501832 0.783310
vt 0.501502 0.783125
vt 0.524891 0.748195
vt 0.524466 0.747740
vt 0.907695 0.748849
vt 0.907505 0.749114
vt 0.901843 0.535396
vt 0.902268 0.534942
vt 0.290950 0.739507
vt 0.290476 0.739424
vt 0.509760 0.748381
vt 0.510090 0.748195
vt 0.510090 0.777019
vt 0.509760 0.777575
vt 0.681830 0.760716
vt 0.681500 0.760901
vt 0.699605 0.720230
vt 0.699796 0.720506
vt 0.517688 0.748195
vt 0.518018 0.748381
vt 0.518018 0.777575
vt 0.517688 0.777019
vt 0.517688 0.777484
vt 0.510090 0.777484
vt 0.694449 0.924120
vt 0.693973 0.924187
vt 0.673902 0.760901
vt 0.673572 0.760716
vt 0.153019 0.748849
vt 0.152595 0.748394
vt 0.919458 0.748919
vt 0.919261 0.749180
vt 0.919022 0.535385
vt 0.919458 0.534942
vt 0.257447 0.774058
vt 0.256980 0.774169
vt 0.660430 0.546509
vt 0.660420 0.546023
vt 0.806192 0.802741
vt 0.805862 0.802911
vt 0.805862 0.534942
vt 0.806192 0.535112
vt 0.682000 0.534942
vt 0.682305 0.535093
vt 0.246076 0.774318
vt 0.245609 0.774430
vt 0.682314 0.540907
vt 0.682305 0.540422
vt 0.822708 0.802741
vt 0.822378 0.802911
vt 0.822378 0.534942
vt 0.822708 0.535112
vt 0.251074 0.750141
vt 0.251295 0.750401
vt 0.234706 0.774318
vt 0.234239 0.774430
vt 0.703820 0.540907
vt 0.703811 0.540422
vt 0.814450 0.802741
vt 0.814120 0.802911
vt 0.814120 0.534942
vt 0.814450 0.535112
vt 0.239703 0.750141
vt 0.239924 0.750401
vt 0.049341 0.534942
vt 0.049341 0.534607
vt 0.097568 0.534942
vt 0.098290 0.534942
vt 0.098290 0.534607
vt 0.146517 0.534942
vt 0.000000 0.000334
vt 0.000330 0.000334
vt 0.000330 0.534607
vt 0.000000 0.534607
vt 0.195796 0.534607
vt 0.195466 0.534607
vt 0.195466 0.000334
vt 0.195796 0.000334
vt 0.725317 0.535112
vt 0.725647 0.534942
vt 0.725647 1.000000
vt 0.725317 0.999830
vt 0.973695 0.000170
vt 0.974025 0.000000
vt 0.974025 0.465058
vt 0.973695 0.464888
vt 0.973695 0.465229
vt 0.974025 0.465059
vt 0.974025 0.930117
vt 0.973695 0.929947
vt 0.797934 0.535112
vt 0.798264 0.534942
vt 0.798264 0.802911
vt 0.797934 0.802741
vt 0.814450 0.535112
vt 0.814780 0.534942
vt 0.814780 0.802911
vt 0.814450 0.802741
vt 0.806192 0.535112
vt 0.806522 0.534942
vt 0.806522 0.802911
vt 0.806192 0.802741
vt 0.147239 0.534942
vt 0.147239 0.534607
vt 0.195466 0.534942
vt 0.048557 0.000000
vt 0.048557 0.000334
vt 0.000330 0.000000
vt 0.877387 0.534942
vt 0.877387 0.534607
vt 0.924954 0.534607
vt 0.924954 0.534942
vt 0.780688 0.534942
vt 0.780688 0.534607
vt 0.828255 0.534607
vt 0.828255 0.534942
vt 0.635640 0.534942
vt 0.635640 0.534607
vt 0.683206 0.534607
vt 0.683206 0.534942
vt 0.587290 0.534942
vt 0.587290 0.534607
vt 0.634857 0.534607
vt 0.634857 0.534942
vt 0.000330 0.534942
vt 0.048558 0.534607
vt 0.048558 0.534942
vt 0.732339 0.534942
vt 0.732339 0.534607
vt 0.779905 0.534607
vt 0.779905 0.534942
vt 0.683989 0.534942
vt 0.683989 0.534607
vt 0.731556 0.534607
vt 0.731556 0.534941
vt 0.925737 0.534942
vt 0.925737 0.534607
vt 0.973303 0.534607
vt 0.973303 0.534941
vt 0.829038 0.534941
vt 0.829038 0.534607
vt 0.876604 0.534607
vt 0.876604 0.534942
vt 0.195466 0.000000
vt 0.147239 0.000334
vt 0.147239 0.000000
vt 0.876604 0.000000
vt 0.876604 0.000334
vt 0.829038 0.000334
vt 0.829038 0.000000
vt 0.973303 0.000000
vt 0.973303 0.000334
vt 0.925737 0.000334
vt 0.925737 0.000000
vt 0.731556 0.000000
vt 0.731556 0.000334
vt 0.683989 0.000334
vt 0.683989 0.000000
vt 0.779905 0.000000
vt 0.779905 0.000334
vt 0.732339 0.000334
vt 0.732339 0.000000
vt 0.146517 0.000000
vt 0.098290 0.000334
vt 0.098290 0.000000
vt 0.634856 0.000000
vt 0.634856 0.000334
vt 0.587290 0.000334
vt 0.587290 0.000000
vt 0.683206 0.000000
vt 0.683206 0.000334
vt 0.635640 0.000334
vt 0.635640 0.000000
vt 0.828255 0.000000
vt 0.828255 0.000334
vt 0.780688 0.000334
vt 0.780688 0.000000
vt 0.924954 0.000000
vt 0.924954 0.000334
vt 0.877387 0.000334
vt 0.877387 0.000000
vt 0.097568 0.000000
vt 0.049341 0.000334
vt 0.049341 0.000000
vt 0.639465 0.741060
vt 0.645367 0.741392
vt 0.613160 0.741060
vt 0.619062 0.741392
vt 0.626313 0.741060
vt 0.632214 0.741392
vt 0.670211 0.726348
vt 0.664309 0.726015
vt 0.605910 0.741392
vt 0.600008 0.741060
vt 0.307444 0.744078
vt 0.313366 0.744250
vt 0.294246 0.744077
vt 0.300168 0.744250
vt 0.320642 0.744077
vt 0.326564 0.744250
vt 0.286970 0.744251
vt 0.281048 0.744078
vt 0.534576 0.745096
vt 0.528654 0.744924
vt 0.287455 0.744011
vt 0.670717 0.726170
vt 0.639049 0.740830
vt 0.612745 0.740830
vt 0.625897 0.740830
vt 0.599592 0.740830
vt 0.663893 0.725785
vt 0.535061 0.744857
vt 0.327049 0.744010
vt 0.300653 0.744010
vt 0.313851 0.744010
vt 0.606416 0.741214
vt 0.632720 0.741214
vt 0.619568 0.741214
vt 0.645873 0.741214
vt 0.307004 0.743811
vt 0.293806 0.743811
vt 0.320202 0.743811
vt 0.528214 0.744657
vt 0.280608 0.743811
vt 0.780297 0.534144
vt 0.780297 0.000797
vt 0.828646 0.000797
vt 0.828646 0.534144
vt 0.683598 0.534144
vt 0.683598 0.000797
vt 0.731947 0.000797
vt 0.731947 0.534144
vt 0.048949 0.000797
vt 0.048949 0.534144
vt 0.586899 0.534144
vt 0.586898 0.000797
vt 0.635248 0.000797
vt 0.635248 0.534144
vt 0.635248 0.534144
vt 0.635248 0.000797
vt 0.683598 0.000797
vt 0.683598 0.534144
vt 0.048949 0.534144
vt 0.048949 0.000797
vt 0.925345 0.000797
vt 0.925345 0.534144
vt 0.876996 0.534144
vt 0.876996 0.000797
vt 0.146847 0.534144
vt 0.146847 0.000797
vt 0.828646 0.534144
vt 0.828646 0.000797
vt 0.876996 0.000797
vt 0.876996 0.534144
vt 0.925345 0.534144
vt 0.925345 0.000797
vt 0.973695 0.000797
vt 0.973695 0.534144
vt 0.097898 0.534144
vt 0.097898 0.000797
vt 0.780297 0.000797
vt 0.780297 0.534144
vt 0.731947 0.534144
vt 0.731947 0.000797
vt 0.293572 0.534607
vt 0.293572 0.534942
vt 0.245014 0.534942
vt 0.538011 0.000334
vt 0.538011 0.000000
vt 0.586568 0.000000
vt 0.195796 0.000334
vt 0.195796 0.000000
vt 0.244354 0.000000
vt 0.538011 0.534607
vt 0.538011 0.534942
vt 0.489453 0.534942
vt 0.342460 0.000334
vt 0.342460 0.000000
vt 0.391017 0.000000
vt 0.440235 0.534607
vt 0.440235 0.534941
vt 0.391678 0.534942
vt 0.489123 0.534607
vt 0.489123 0.534942
vt 0.440565 0.534942
vt 0.342460 0.534607
vt 0.342460 0.534942
vt 0.293902 0.534942
vt 0.656509 0.741189
vt 0.657930 0.744783
vt 0.648729 0.744173
vt 0.651080 0.740830
vt 0.582576 0.782476
vt 0.580931 0.778592
vt 0.590167 0.778960
vt 0.588025 0.782693
vt 0.874980 0.535706
vt 0.879518 0.534942
vt 0.879518 0.921933
vt 0.874980 0.919917
vt 0.856694 0.536627
vt 0.861300 0.534942
vt 0.861300 0.921933
vt 0.856694 0.920838
vt 0.343047 0.751146
vt 0.339278 0.753166
vt 0.339278 0.743811
vt 0.343047 0.745627
vt 0.339278 0.755185
vt 0.343047 0.753166
vt 0.343047 0.762521
vt 0.339278 0.760704
vt 0.870443 0.921171
vt 0.865905 0.921935
vt 0.865905 0.534942
vt 0.870443 0.536957
vt 0.852088 0.920250
vt 0.847482 0.921935
vt 0.847482 0.534942
vt 0.852088 0.536037
vt 0.186172 0.767559
vt 0.183515 0.771723
vt 0.183929 0.771723
vt 0.183221 0.767559
vt 0.682110 0.773394
vt 0.679505 0.777660
vt 0.679906 0.777660
vt 0.679257 0.773394
vt 0.679257 0.769230
vt 0.681914 0.765065
vt 0.681500 0.765065
vt 0.682208 0.769230
vt 0.231406 0.778653
vt 0.234076 0.774430
vt 0.233701 0.774446
vt 0.234076 0.778533
vt 0.339278 0.766685
vt 0.341935 0.762521
vt 0.341520 0.762521
vt 0.342229 0.766685
vt 0.234239 0.778696
vt 0.236844 0.774430
vt 0.236443 0.774430
vt 0.237091 0.778696
vt 0.679257 0.765065
vt 0.681914 0.760901
vt 0.681500 0.760901
vt 0.682208 0.765065
vt 0.239943 0.778653
vt 0.242613 0.774430
vt 0.242238 0.774447
vt 0.242613 0.778533
vt 0.183221 0.760223
vt 0.186990 0.758204
vt 0.186990 0.767559
vt 0.183221 0.765742
vt 0.183221 0.750868
vt 0.186990 0.748849
vt 0.186990 0.758204
vt 0.183221 0.756388
vt 0.874980 0.921171
vt 0.870443 0.921935
vt 0.870443 0.534942
vt 0.874980 0.536957
vt 0.856694 0.920250
vt 0.852088 0.921935
vt 0.852088 0.534942
vt 0.856694 0.536037
vt 0.337857 0.744171
vt 0.339278 0.747764
vt 0.330077 0.747154
vt 0.332428 0.743811
vt 0.573341 0.782476
vt 0.571696 0.778592
vt 0.580931 0.778960
vt 0.578790 0.782693
vt 0.884055 0.921168
vt 0.879518 0.921933
vt 0.879518 0.534942
vt 0.884055 0.536957
vt 0.861300 0.536627
vt 0.865905 0.534942
vt 0.865905 0.921933
vt 0.861300 0.920838
vt 0.682208 0.769230
vt 0.681500 0.773394
vt 0.681914 0.773394
vt 0.679257 0.769230
vt 0.237091 0.778696
vt 0.237739 0.774430
vt 0.237339 0.774430
vt 0.239943 0.778696
vt 0.248430 0.774449
vt 0.248021 0.778297
vt 0.248430 0.778300
vt 0.245522 0.774430
vt 0.228553 0.778696
vt 0.229202 0.774430
vt 0.228801 0.774430
vt 0.341520 0.770849
vt 0.341935 0.770849
vt 0.183221 0.775989
vt 0.183869 0.771723
vt 0.183469 0.771723
vt 0.186073 0.775989
vt 0.245522 0.774449
vt 0.245113 0.778297
vt 0.245522 0.778300
vt 0.242613 0.774430
vt 0.339278 0.775116
vt 0.339926 0.770849
vt 0.339526 0.770849
vt 0.342130 0.775116
vt 0.523703 0.770604
vt 0.228553 0.752021
vt 0.722974 0.766928
vt 0.208920 0.743684
vt 0.187693 0.750037
vt 0.187263 0.542860
vt 0.596119 0.744657
vt 0.711458 0.922804
vt 0.262785 0.782508
vt 0.262785 0.775526
vt 0.889965 0.535862
vt 0.648729 0.781891
vt 0.657930 0.782501
vt 0.734235 0.534942
vt 0.743471 0.535283
vt 0.590167 0.745025
vt 0.580931 0.744657
vt 0.754027 0.534942
vt 0.763264 0.535283
vt 0.260165 0.743684
vt 0.238939 0.750037
vt 0.238509 0.542860
vt 0.572376 0.744657
vt 0.688135 0.922803
vt 0.523823 0.780822
vt 0.523823 0.773840
vt 0.901785 0.535862
vt 0.234542 0.743684
vt 0.213316 0.750037
vt 0.212886 0.542860
vt 0.548634 0.744657
vt 0.717288 0.922804
vt 0.723093 0.777146
vt 0.723093 0.770164
vt 0.895875 0.535862
vt 0.590167 0.746537
vt 0.239924 0.752021
vt 0.722974 0.742639
vt 0.356358 0.535405
vt 0.343823 0.534942
vt 0.042876 0.892084
vt 0.021786 0.883743
vt 0.064713 0.540431
vt 0.021438 0.892084
vt 0.000348 0.883743
vt 0.251295 0.752021
vt 0.064314 0.892084
vt 0.043224 0.883743
vt 0.679257 0.760901
vt 0.679257 0.783050
vt 0.343163 0.743811
vt 0.178178 0.742253
vt 0.158447 0.541690
vt 0.158838 0.747062
vt 0.693966 0.922804
vt 0.666224 0.773849
vt 0.666224 0.766866
vt 0.187263 0.534942
vt 0.187263 0.747929
vt 0.547953 0.783363
vt 0.538746 0.782844
vt 0.773160 0.535283
vt 0.763923 0.534942
vt 0.149427 0.783526
vt 0.140189 0.783255
vt 0.753367 0.535283
vt 0.744131 0.534942
vt 0.290476 0.743811
vt 0.521233 0.741598
vt 0.501502 0.541035
vt 0.501893 0.746407
vt 0.705627 0.922804
vt 0.590167 0.775928
vt 0.590167 0.768946
vt 0.907695 0.535862
vt 0.316820 0.743811
vt 0.149362 0.742253
vt 0.129630 0.541689
vt 0.130022 0.747062
vt 0.699796 0.922804
vt 0.660420 0.773849
vt 0.660420 0.766866
vt 0.158447 0.534942
vt 0.158447 0.747929
vt 0.617553 0.740830
vt 0.596456 0.732504
vt 0.262665 0.750141
vt 0.262665 0.772290
vt 0.660420 0.740830
vt 0.639323 0.732504
vt 0.251295 0.772550
vt 0.638986 0.740830
vt 0.617890 0.732504
vt 0.239924 0.772550
vt 0.635576 0.781396
vt 0.623081 0.780694
vt 0.357018 0.534942
vt 0.369553 0.535405
vt 0.065040 0.854810
vt 0.086217 0.861869
vt 0.108462 0.849229
vt 0.129630 0.856315
vt 0.086943 0.854810
vt 0.108120 0.861869
vt 0.661116 0.718762
vt 0.682305 0.725785
vt 0.682637 0.713161
vt 0.703811 0.720230
vt 0.704143 0.713162
vt 0.725317 0.720230
vt 0.330077 0.780648
vt 0.317538 0.780283
vt 0.277284 0.782445
vt 0.264789 0.781741
vt 0.648729 0.781396
vt 0.636234 0.780694
vt 0.622424 0.781397
vt 0.609929 0.780694
vt 0.673572 0.766866
vt 0.661077 0.766162
vt 0.609271 0.781397
vt 0.596777 0.780694
vt 0.561832 0.779199
vt 0.549293 0.778832
vt 0.316879 0.780648
vt 0.304340 0.780283
vt 0.303680 0.780648
vt 0.291142 0.780283
vt 0.290482 0.781111
vt 0.277944 0.780744
vt 0.538089 0.781495
vt 0.525551 0.781129
vt 0.724504 0.720230
vt 0.724770 0.720230
vt 0.724770 0.727920
vt 0.724504 0.727920
vt 0.723972 0.720230
vt 0.724238 0.720230
vt 0.724238 0.727920
vt 0.723972 0.727920
vt 0.723707 0.720230
vt 0.723972 0.720230
vt 0.723972 0.727920
vt 0.723707 0.727920
vt 0.682096 0.733475
vt 0.681830 0.733475
vt 0.681830 0.725785
vt 0.682096 0.725785
vt 0.723706 0.727920
vt 0.723441 0.727920
vt 0.723441 0.720230
vt 0.723706 0.720230
vt 0.724504 0.727920
vt 0.724238 0.727920
vt 0.724238 0.720230
vt 0.724504 0.720230
vt 0.571696 0.783364
vt 0.562489 0.782844
vt 0.139529 0.783526
vt 0.130290 0.783255
vt 0.339278 0.785482
vt 0.330077 0.784872
vt 0.571696 0.744657
vt 0.580931 0.745025
vn -0.9791 0.0000 0.2032
vn 0.8379 0.0000 -0.5458
vn 0.9791 0.0000 -0.2032
vn -0.8379 0.0000 0.5459
vn 0.9085 -0.1853 -0.3745
vn -0.9085 -0.1853 0.3745
vn 0.9085 0.1853 -0.3745
vn -0.9085 0.1853 0.3745
vn 0.8379 0.0000 -0.5459
vn -0.8379 0.0000 0.5458
vn -0.6360 -0.6995 -0.3259
vn -0.2214 -0.6998 0.6792
vn -0.8175 0.3956 -0.4185
vn -0.2844 0.3955 0.8733
vn -0.6358 -0.6999 -0.3256
vn -0.2215 -0.6998 0.6791
vn -0.2853 0.3952 0.8732
vn -0.6358 -0.6999 -0.3254
vn -0.2213 -0.6995 0.6795
vn -0.8178 0.3949 -0.4186
vn -0.2849 0.3953 0.8732
vn 0.2117 -0.7062 -0.6757
vn 0.2765 0.3802 -0.8826
vn 0.8182 0.3802 0.4313
vn 0.6261 -0.7064 0.3301
vn -0.8179 -0.3818 -0.4305
vn -0.0782 0.4133 -0.9072
vn 0.5838 0.4134 0.6987
vn -0.2771 -0.3816 0.8818
vn -0.3155 0.5369 -0.7825
vn 0.3281 0.5368 0.7773
vn 0.3139 -0.5771 -0.7539
vn -0.7541 -0.5770 -0.3137
vn -0.3138 -0.5773 0.7539
vn 0.7541 -0.5771 0.3135
vn 0.3139 0.5771 -0.7539
vn -0.7541 0.5770 -0.3137
vn -0.3137 0.5772 0.7539
vn 0.7541 0.5771 0.3136
vn 0.2114 -0.7061 -0.6758
vn 0.2761 0.3801 -0.8828
vn 0.8183 0.3802 0.4310
vn 0.6259 -0.7067 0.3300
vn -0.8181 -0.3816 -0.4302
vn -0.0778 0.4135 -0.9072
vn 0.5840 0.4137 0.6984
vn -0.2767 -0.3815 0.8820
vn -0.3152 0.5373 -0.7823
vn 0.3280 0.5375 0.7769
vn 0.2766 0.3801 -0.8826
vn 0.8185 0.3794 0.4313
vn 0.6266 -0.7060 0.3302
vn -0.8180 -0.3820 -0.4301
vn -0.0779 0.4135 -0.9072
vn 0.5840 0.4136 0.6985
vn -0.2771 -0.3813 0.8819
vn -0.3149 0.5377 -0.7821
vn 0.3280 0.5375 0.7768
vn -0.6356 -0.7000 -0.3257
vn -0.2216 -0.6999 0.6790
vn -0.2856 0.3949 0.8732
vn -0.6358 -0.6999 -0.3255
vn -0.2217 -0.6996 0.6792
vn -0.8177 0.3954 -0.4184
vn -0.2852 0.3952 0.8732
vn -0.6360 -0.6998 -0.3254
vn -0.2216 -0.6996 0.6793
vn -0.8177 0.3949 -0.4188
vn -0.7539 -0.5772 -0.3137
vn -0.3138 -0.5774 0.7538
vn -0.7539 0.5772 -0.3138
vn -0.3141 0.5773 0.7537
vn 0.2212 -0.6999 -0.6791
vn 0.6359 -0.6996 0.3258
vn 0.2849 0.3952 -0.8733
vn 0.8175 0.3953 0.4188
vn 0.2217 -0.6998 -0.6790
vn 0.6357 -0.6999 0.3256
vn 0.2847 0.3951 -0.8734
vn 0.8176 0.3949 0.4190
vn 0.2217 -0.6998 -0.6791
vn 0.6361 -0.6996 0.3256
vn 0.2850 0.3953 -0.8732
vn 0.8177 0.3950 0.4187
vn -0.6264 -0.7061 -0.3302
vn -0.8181 0.3805 -0.4312
vn -0.2765 0.3798 0.8828
vn -0.2119 -0.7062 0.6756
vn 0.2771 -0.3814 -0.8819
vn -0.5842 0.4131 -0.6986
vn 0.0780 0.4134 0.9072
vn 0.8182 -0.3815 0.4301
vn -0.3287 0.5367 -0.7771
vn 0.3142 0.5372 0.7827
vn -0.7536 -0.5776 -0.3137
vn 0.3140 -0.5772 -0.7538
vn 0.7538 -0.5774 0.3137
vn -0.3135 -0.5774 0.7539
vn -0.7536 0.5776 -0.3137
vn 0.3140 0.5772 -0.7538
vn 0.7538 0.5774 0.3137
vn -0.3135 0.5774 0.7539
vn -0.6262 -0.7063 -0.3302
vn -0.8183 0.3802 -0.4311
vn -0.2769 0.3799 0.8826
vn -0.2118 -0.7063 0.6755
vn 0.2772 -0.3814 -0.8819
vn -0.5838 0.4136 -0.6987
vn 0.0778 0.4134 0.9072
vn 0.8183 -0.3809 0.4305
vn -0.3280 0.5373 -0.7770
vn 0.3150 0.5374 0.7822
vn -0.6264 -0.7061 -0.3301
vn -0.8185 0.3795 -0.4314
vn -0.2768 0.3805 0.8824
vn -0.2118 -0.7064 0.6754
vn 0.2773 -0.3814 -0.8818
vn -0.5840 0.4134 -0.6985
vn 0.0779 0.4135 0.9072
vn 0.8182 -0.3816 0.4301
vn -0.3278 0.5376 -0.7769
vn 0.3146 0.5373 0.7825
vn 0.2218 -0.6998 -0.6791
vn 0.6359 -0.6997 0.3255
vn 0.2847 0.3949 -0.8735
vn 0.8177 0.3949 0.4188
vn 0.2218 -0.6999 -0.6790
vn 0.6352 -0.7004 0.3256
vn 0.2849 0.3950 -0.8734
vn 0.2216 -0.6997 -0.6792
vn 0.6358 -0.6998 0.3256
vn 0.2850 0.3950 -0.8733
vn 0.8178 0.3950 0.4186
vn 0.3137 -0.5774 -0.7538
vn 0.7536 -0.5777 0.3135
vn 0.3138 0.5775 -0.7537
vn 0.7535 0.5779 0.3136
vn -0.2695 -0.7074 -0.6535
vn -0.2695 -0.7074 -0.6534
vn -0.2696 -0.7070 -0.6538
vn -0.2696 -0.7069 -0.6538
vn -0.2699 -0.7073 -0.6533
vn 0.2691 0.7075 0.6535
vn 0.2694 0.7066 0.6543
vn 0.2699 0.7073 0.6534
vn 0.2691 0.7073 0.6537
vn -0.2699 0.7073 -0.6534
vn -0.2696 0.7070 -0.6538
vn -0.2695 0.7074 -0.6534
vn 0.2691 -0.7073 0.6537
vn 0.2691 -0.7074 0.6535
vn 0.2691 -0.7075 0.6535
vn 0.2693 -0.7070 0.6539
vn 0.5988 -0.4087 -0.6888
vn 0.9102 0.4087 0.0666
vn -0.9102 0.4087 -0.0668
vn -0.5990 -0.4085 0.6887
vn -0.9103 -0.4086 -0.0668
vn 0.5988 -0.4086 -0.6888
vn -0.9102 -0.4087 -0.0667
vn 0.5989 -0.4086 -0.6888
vn -0.9103 -0.4085 -0.0667
vn -0.9103 -0.4086 -0.0666
vn -0.5986 0.4087 0.6889
vn 0.9103 0.4085 0.0668
vn -0.5988 0.4085 0.6889
vn 0.9102 0.4087 0.0667
vn -0.5987 0.4087 0.6889
vn 0.9103 0.4086 0.0668
vn -0.5989 0.4085 0.6888
vn 0.5989 0.4087 -0.6887
vn -0.9103 0.4086 -0.0666
vn 0.5987 0.4086 -0.6889
vn -0.9102 0.4087 -0.0667
vn 0.5988 0.4086 -0.6888
vn -0.9103 0.4085 -0.0668
vn -0.9103 0.4086 -0.0668
vn 0.5988 0.4088 -0.6887
vn 0.9102 -0.4087 0.0667
vn -0.5988 -0.4086 0.6888
vn 0.9103 -0.4085 0.0668
vn -0.5987 -0.4088 0.6888
vn 0.9102 -0.4088 0.0668
vn 0.9103 -0.4085 0.0667
vn -0.5986 -0.4087 0.6889
vn 0.9102 -0.4088 0.0666
vn -0.8715 -0.2756 -0.4056
vn -0.3325 -0.2755 0.9020
vn -0.5107 -0.8336 0.2105
vn -0.7708 0.5522 0.3177
vn -0.3327 -0.2756 0.9019
vn -0.5108 -0.8335 0.2106
vn -0.7706 0.5526 0.3177
vn -0.8716 -0.2756 -0.4053
vn -0.7707 0.5524 0.3177
vn 0.3333 -0.1949 -0.9224
vn -0.2695 0.7072 -0.6536
vn 0.3322 0.2760 -0.9019
vn -0.2695 -0.7070 -0.6538
vn 0.7782 0.5399 -0.3208
vn 0.2694 0.7072 0.6536
vn 0.5104 0.8338 -0.2104
vn 0.8866 -0.1949 0.4194
vn 0.2695 -0.7071 0.6537
vn -0.3839 0.2081 0.8996
vn 0.4994 -0.8415 -0.2059
vn -0.7773 -0.5414 0.3204
vn -0.9064 0.2081 -0.3677
vn 0.8714 0.2760 0.4056
vn -0.2695 -0.7071 -0.6537
vn -0.9233 0.0000 -0.3842
vn -0.2695 0.7071 -0.6538
vn 0.3842 0.0000 -0.9232
vn -0.6537 -0.7071 0.2695
vn -0.3841 0.0000 0.9233
vn -0.6537 0.7071 0.2695
vn 0.2695 -0.7071 0.6538
vn 0.9233 0.0000 0.3841
vn 0.2695 0.7071 0.6537
vn 0.6540 -0.7069 -0.2696
vn 0.6540 0.7068 -0.2696
vn 0.3332 -0.1949 -0.9225
vn -0.2695 0.7070 -0.6538
vn 0.3324 0.2760 -0.9018
vn 0.7781 0.5401 -0.3208
vn 0.2695 0.7072 0.6537
vn 0.5106 0.8337 -0.2105
vn 0.8866 -0.1950 0.4194
vn -0.3841 0.2081 0.8995
vn 0.4994 -0.8416 -0.2059
vn -0.7775 -0.5410 0.3205
vn -0.9064 0.2081 -0.3675
vn 0.8713 0.2760 0.4057
vn 0.3331 -0.1950 -0.9225
vn -0.2695 0.7072 -0.6537
vn 0.3323 0.2760 -0.9019
vn -0.2695 -0.7072 -0.6537
vn 0.7780 0.5402 -0.3207
vn 0.2695 0.7071 0.6538
vn 0.8866 -0.1950 0.4195
vn -0.3839 0.2080 0.8997
vn 0.4993 -0.8416 -0.2059
vn -0.7775 -0.5411 0.3205
vn -0.8716 -0.2756 -0.4055
vn -0.3327 -0.2755 0.9019
vn -0.5106 -0.8337 0.2105
vn -0.7708 0.5521 0.3178
vn -0.3325 -0.2756 0.9019
vn -0.5109 -0.8335 0.2106
vn -0.7707 0.5523 0.3178
vn -0.9232 0.0000 -0.3842
vn -0.6537 -0.7072 0.2695
vn -0.6536 0.7072 0.2694
vn 0.3326 -0.2756 -0.9019
vn 0.8715 -0.2756 0.4056
vn 0.5107 -0.8336 -0.2105
vn 0.7707 0.5523 -0.3177
vn -0.2695 -0.7071 -0.6538
vn 0.3324 -0.2756 -0.9019
vn 0.8715 -0.2756 0.4057
vn -0.2695 -0.7072 -0.6536
vn 0.3325 -0.2756 -0.9020
vn 0.8715 -0.2756 0.4055
vn 0.5108 -0.8335 -0.2106
vn 0.7706 0.5525 -0.3177
vn -0.8865 -0.1950 -0.4197
vn -0.8713 0.2761 -0.4057
vn -0.7782 0.5398 0.3208
vn -0.5104 0.8338 0.2104
vn -0.3334 -0.1949 0.9224
vn 0.2695 -0.7072 0.6536
vn 0.9064 0.2081 0.3676
vn -0.4993 -0.8416 0.2058
vn 0.7776 -0.5410 -0.3205
vn 0.3840 0.2081 -0.8996
vn -0.3326 0.2760 0.9018
vn -0.2694 -0.7072 -0.6536
vn 0.3843 0.0000 -0.9232
vn 0.6538 -0.7070 -0.2695
vn 0.6538 0.7070 -0.2695
vn -0.3842 0.0000 0.9232
vn -0.6538 -0.7071 0.2695
vn -0.8866 -0.1950 -0.4194
vn -0.8714 0.2759 -0.4056
vn -0.7783 0.5397 0.3209
vn -0.3335 -0.1950 0.9224
vn 0.9063 0.2081 0.3678
vn -0.4992 -0.8417 0.2058
vn 0.7773 -0.5414 -0.3204
vn -0.3325 0.2761 0.9018
vn -0.8866 -0.1949 -0.4195
vn -0.8714 0.2760 -0.4057
vn -0.7779 0.5404 0.3207
vn -0.5105 0.8337 0.2105
vn -0.3334 -0.1950 0.9224
vn 0.2695 -0.7072 0.6537
vn 0.9064 0.2081 0.3677
vn 0.7774 -0.5413 -0.3205
vn 0.3839 0.2081 -0.8996
vn -0.3325 0.2760 0.9018
vn 0.3324 -0.2756 -0.9020
vn 0.2695 0.7070 0.6538
vn 0.5106 -0.8337 -0.2105
vn 0.7706 0.5526 -0.3176
vn 0.3325 -0.2756 -0.9019
vn 0.8716 -0.2756 0.4055
vn 0.5107 -0.8336 -0.2106
vn -0.2695 0.7070 -0.6539
vn -0.2695 0.7071 -0.6537
vn 0.2695 -0.7070 0.6538
vn -0.3810 0.0000 -0.9246
vn 0.3817 0.0000 0.9243
vn 0.3810 0.0000 0.9246
vn 0.3804 0.0000 0.9248
vn 0.0000 -1.0000 0.0000
vn 0.0000 1.0000 -0.0000
vn 0.8808 -0.0934 -0.4642
vn 0.9520 0.0935 -0.2915
vn -0.9520 0.0935 0.2914
vn -0.8808 -0.0933 0.4642
vn -0.9520 -0.0935 0.2914
vn -0.9520 -0.0934 0.2914
vn 0.8808 -0.0934 -0.4641
vn -0.9520 -0.0936 0.2914
vn 0.8808 -0.0935 -0.4641
vn -0.8808 0.0935 0.4642
vn 0.9520 0.0934 -0.2914
vn -0.8808 0.0934 0.4642
vn 0.9521 0.0933 -0.2914
vn 0.9520 0.0936 -0.2914
vn -0.8808 0.0936 0.4642
vn -0.8808 0.0933 0.4642
vn 0.8808 0.0935 -0.4641
vn -0.9520 0.0936 0.2914
vn 0.8808 0.0934 -0.4642
vn -0.9520 0.0934 0.2914
vn -0.9520 0.0933 0.2914
vn 0.8808 0.0935 -0.4642
vn 0.9520 -0.0935 -0.2914
vn -0.8808 -0.0936 0.4641
vn 0.9520 -0.0936 -0.2914
vn -0.8808 -0.0934 0.4642
vn 0.9520 -0.0934 -0.2914
vn 0.9520 -0.0934 -0.2915
vn -0.8834 0.0000 -0.4686
vn 0.2966 0.0000 -0.9550
vn 0.8835 0.0000 0.4684
vn -0.2969 0.0000 0.9549
vn 0.5900 -0.7699 -0.2432
vn -0.5899 -0.7700 0.2432
vn 0.5899 0.7700 -0.2432
vn -0.5899 0.7699 0.2432
vn 0.2969 0.0000 -0.9549
vn -0.8834 0.0000 -0.4687
vn 0.2968 0.0000 -0.9549
vn -0.8835 0.0000 -0.4685
vn 0.2967 0.0000 -0.9550
vn -0.8835 0.0000 -0.4684
vn -0.2964 0.0000 0.9551
vn -0.2966 0.0000 0.9550
vn 0.8834 0.0000 0.4686
vn -0.2968 0.0000 0.9549
vn 0.8835 0.0000 0.4685
vn -0.2965 0.0000 0.9550
vn 0.8834 0.0000 0.4687
vn -0.5902 -0.7697 0.2433
vn 0.5902 -0.7697 -0.2433
vn -0.5903 -0.7697 0.2433
vn 0.5901 -0.7698 -0.2433
vn -0.5901 -0.7698 0.2433
vn 0.5903 -0.7697 -0.2433
vn -0.5901 0.7698 0.2433
vn 0.5902 0.7697 -0.2433
vn -0.5902 0.7697 0.2433
vn 0.5900 0.7699 -0.2432
vn 0.5901 0.7698 -0.2433
vn -0.9695 0.0000 0.2452
vn 0.9695 0.0000 -0.2452
vn 0.9150 -0.1428 -0.3772
vn 0.9150 0.1428 -0.3772
vn 0.8606 0.0000 -0.5093
vn -0.8606 0.0000 0.5093
vn -0.9150 -0.1428 0.3772
vn -0.9150 0.1429 0.3772
vn -0.8765 0.1010 0.4706
vn 0.9535 -0.1011 -0.2838
vn 0.8766 0.1011 -0.4706
vn -0.9536 -0.1009 0.2838
vn 0.9535 -0.1010 -0.2839
vn 0.8765 0.1009 -0.4706
vn -0.9535 -0.1010 0.2838
vn -0.9150 -0.1429 0.3772
vn 0.9150 -0.1429 -0.3772
vn 0.9150 0.1429 -0.3772
vn 0.9535 0.1011 -0.2838
vn -0.8766 -0.1010 0.4706
vn -0.9536 0.1009 0.2838
vn 0.8766 -0.1010 -0.4706
vn 0.9535 0.1010 -0.2838
vn -0.9535 0.1011 0.2839
vn 0.8765 -0.1010 -0.4706
vn -0.8514 -0.3897 0.3510
vn -0.3811 -0.0000 -0.9245
vn 0.3811 -0.0000 0.9245
vn 0.8866 -0.2834 -0.3655
vn 0.8512 0.3903 -0.3509
vn 0.5156 0.8300 -0.2126
vn -0.5474 0.8059 0.2257
vn -0.8859 0.2860 0.3652
vn -0.9245 0.0000 0.3811
vn 0.9245 0.0000 -0.3811
vn 0.5155 0.8301 -0.2125
vn -0.5475 0.8058 0.2257
vn 0.8514 -0.3897 -0.3510
vn -0.8866 -0.2834 0.3655
vn -0.5156 0.8300 0.2126
vn -0.8512 0.3903 0.3509
vn -0.5155 0.8301 0.2125
vn 0.8859 0.2860 -0.3652
vn 0.5474 0.8059 -0.2257
vn 0.5475 0.8058 -0.2257
vn 0.5476 0.8057 -0.2257
usemtl Material.002
s off
f 477/1/1 478/2/1 479/3/1 480/4/1
f 481/5/2 482/6/2 483/7/2 484/8/2
f 485/9/3 486/10/3 487/11/3 488/12/3
f 489/13/4 490/14/4 491/15/4 492/16/4
f 493/17/5 494/18/5 495/19/5 496/20/5
f 497/21/6 498/22/6 499/23/6 500/24/6
f 501/25/7 502/26/7 503/27/7 504/28/7
f 505/29/8 506/30/8 507/31/8 508/32/8
f 509/33/9 510/34/9 511/35/9 512/36/9
f 513/37/1 514/38/1 515/39/1 516/40/1
f 517/41/9 518/42/9 519/43/9 520/44/9
f 521/45/1 522/46/1 523/47/1 524/48/1
f 525/49/2 526/50/2 527/51/2 528/52/2
f 529/53/1 530/54/1 531/55/1 532/56/1
f 533/57/2 534/58/2 535/59/2 536/60/2
f 537/61/1 538/62/1 539/63/1 540/64/1
f 541/65/10 542/66/10 543/67/10 544/68/10
f 545/69/3 546/70/3 547/71/3 548/72/3
f 549/73/4 550/74/4 551/75/4 552/76/4
f 553/77/3 554/78/3 555/79/3 556/80/3
f 557/81/10 558/82/10 559/83/10 560/84/10
f 561/85/3 562/86/3 563/87/3 564/88/3
f 565/89/10 566/90/10 567/91/10 568/92/10
f 569/93/3 570/94/3 571/95/3 572/96/3
f 573/97/6 574/98/6 575/99/6 576/100/6
f 577/101/5 578/102/5 579/103/5 580/104/5
f 581/105/6 582/106/6 583/107/6 584/108/6
f 585/109/5 586/110/5 587/111/5 588/112/5
f 589/113/6 590/114/6 591/115/6 592/116/6
f 593/117/5 594/118/5 595/119/5 596/120/5
f 597/121/6 598/122/6 599/123/6 600/124/6
f 601/125/5 602/126/5 603/127/5 604/128/5
f 605/129/8 606/130/8 607/131/8 608/132/8
f 609/133/7 610/134/7 611/135/7 612/136/7
f 613/137/8 614/138/8 615/139/8 616/140/8
f 617/141/7 618/142/7 619/143/7 620/144/7
f 621/145/8 622/146/8 623/147/8 624/148/8
f 625/149/7 626/150/7 627/151/7 628/152/7
f 629/153/8 630/154/8 631/155/8 632/156/8
f 633/157/7 634/158/7 635/159/7 636/160/7
f 1/161/11 143/162/11 317/163/11
f 320/164/12 313/165/12 2/166/12
f 4/167/13 324/168/13 144/169/13
f 316/170/14 321/171/14 3/172/14
f 5/173/15 151/174/15 329/175/15
f 332/176/16 325/177/16 6/178/16
f 8/179/13 336/180/13 152/181/13
f 328/182/17 333/183/17 7/184/17
f 9/185/18 159/186/18 341/187/18
f 344/188/19 337/189/19 10/190/19
f 12/191/20 348/192/20 160/193/20
f 340/194/21 345/195/21 11/196/21
f 32/197/22 27/198/22 16/199/22
f 15/200/23 19/201/23 33/202/23
f 18/203/24 26/204/24 34/205/24
f 31/206/25 25/207/25 28/208/25
f 30/209/26 41/210/26 17/211/26
f 14/212/27 36/213/27 20/214/27
f 21/215/28 35/216/28 22/217/28
f 24/218/29 42/219/29 29/220/29
f 40/221/30 37/222/30 13/223/30
f 38/224/31 39/225/31 23/226/31
f 43/227/32 57/228/32 637/229/32
f 60/230/33 48/231/33 638/232/33
f 59/233/34 51/234/34 49/235/34
f 56/236/35 639/237/35 640/238/35
f 46/239/36 641/240/36 58/241/36
f 47/242/37 66/243/37 642/244/37
f 54/245/38 63/246/38 50/247/38
f 55/248/39 643/249/39 644/250/39
f 86/251/40 81/252/40 70/253/40
f 69/254/41 73/255/41 87/256/41
f 72/257/42 80/258/42 88/259/42
f 85/260/43 79/261/43 82/262/43
f 84/263/44 95/264/44 71/265/44
f 68/266/45 90/267/45 74/268/45
f 75/269/46 89/270/46 76/271/46
f 78/272/47 96/273/47 83/274/47
f 94/275/48 91/276/48 67/277/48
f 92/278/49 93/279/49 77/280/49
f 116/281/22 111/282/22 100/283/22
f 99/284/50 103/285/50 117/286/50
f 102/287/51 110/288/51 118/289/51
f 115/290/52 109/291/52 112/292/52
f 114/293/53 125/294/53 101/295/53
f 98/296/54 120/297/54 104/298/54
f 105/299/55 119/300/55 106/301/55
f 108/302/56 126/303/56 113/304/56
f 124/305/57 121/306/57 97/307/57
f 122/308/58 123/309/58 107/310/58
f 127/311/59 281/312/59 353/313/59
f 356/314/60 349/315/60 128/316/60
f 130/317/20 360/318/20 282/319/20
f 352/320/61 357/321/61 129/322/61
f 131/323/62 289/324/62 365/325/62
f 368/326/63 361/327/63 132/328/63
f 134/329/64 372/330/64 290/331/64
f 364/332/65 369/333/65 133/334/65
f 135/335/66 297/336/66 377/337/66
f 380/338/67 373/339/67 136/340/67
f 138/341/68 384/342/68 298/343/68
f 376/344/65 381/345/65 137/346/65
f 139/347/69 399/348/69 452/349/69
f 451/350/70 432/351/70 140/352/70
f 142/353/71 471/354/71 400/355/71
f 431/356/72 472/357/72 141/358/72
f 146/359/73 149/360/73 318/361/73
f 319/362/74 148/363/74 314/364/74
f 323/365/75 150/366/75 145/367/75
f 315/368/76 147/369/76 322/370/76
f 154/371/77 157/372/77 330/373/77
f 331/374/78 156/375/78 326/376/78
f 335/377/79 158/378/79 153/379/79
f 327/380/80 155/381/80 334/382/80
f 162/383/81 165/384/81 342/385/81
f 343/386/82 164/387/82 338/388/82
f 347/389/83 166/390/83 161/391/83
f 339/392/84 163/393/84 346/394/84
f 170/395/85 183/396/85 186/397/85
f 185/398/86 173/399/86 171/400/86
f 188/401/87 180/402/87 174/403/87
f 182/404/88 177/405/88 187/406/88
f 169/407/89 193/408/89 184/409/89
f 172/410/90 190/411/90 167/412/90
f 176/413/91 191/414/91 175/415/91
f 181/416/92 196/417/92 178/418/92
f 168/419/93 189/420/93 194/421/93
f 179/422/94 195/423/94 192/424/94
f 645/425/95 209/426/95 197/427/95
f 646/428/96 202/429/96 216/430/96
f 201/431/97 205/432/97 213/433/97
f 647/434/98 648/435/98 210/436/98
f 212/437/99 649/438/99 198/439/99
f 650/440/100 218/441/100 203/442/100
f 204/443/101 217/444/101 206/445/101
f 651/446/102 652/447/102 211/448/102
f 224/449/103 237/450/103 240/451/103
f 239/452/104 227/453/104 225/454/104
f 242/455/105 234/456/105 228/457/105
f 236/458/106 231/459/106 241/460/106
f 223/461/107 247/462/107 238/463/107
f 226/464/108 244/465/108 221/466/108
f 230/467/109 245/468/109 229/469/109
f 235/470/110 250/471/110 232/472/110
f 222/473/111 243/474/111 248/475/111
f 233/476/112 249/477/112 246/478/112
f 254/479/113 267/480/113 270/481/113
f 269/482/114 257/483/114 255/484/114
f 272/485/115 264/486/115 258/487/115
f 266/488/116 261/489/116 271/490/116
f 253/491/117 277/492/117 268/493/117
f 256/494/118 274/495/118 251/496/118
f 260/497/119 275/498/119 259/499/119
f 265/500/120 280/501/120 262/502/120
f 252/503/121 273/504/121 278/505/121
f 263/506/122 279/507/122 276/508/122
f 284/509/123 287/510/123 354/511/123
f 355/512/124 286/513/124 350/514/124
f 359/515/125 288/516/125 283/517/125
f 351/518/126 285/519/126 358/520/126
f 292/521/127 295/522/127 366/523/127
f 367/524/128 294/525/128 362/526/128
f 371/527/129 296/528/129 291/529/129
f 363/530/126 293/531/126 370/532/126
f 300/533/130 303/534/130 378/535/130
f 379/536/131 302/537/131 374/538/131
f 383/539/132 304/540/132 299/541/132
f 375/542/133 301/543/133 382/544/133
f 439/545/134 412/546/134 311/547/134
f 310/548/135 419/549/135 440/550/135
f 411/551/136 460/552/136 312/553/136
f 309/554/137 459/555/137 420/556/137
f 516/557/138 597/558/138 596/559/138 509/560/138
f 524/561/139 499/562/139 602/563/139 519/564/139
f 480/565/140 591/566/140 496/567/140 527/568/140
f 538/569/141 583/570/141 588/571/141 483/572/141
f 532/573/142 573/574/142 580/575/142 533/576/142
f 628/577/143 561/578/143 568/579/143 629/580/143
f 634/581/144 571/582/144 490/583/144 507/584/144
f 504/585/145 485/586/145 558/587/145 623/588/145
f 620/589/143 553/590/143 550/591/143 615/592/143
f 612/593/146 545/594/146 544/595/146 605/596/146
f 536/597/147 609/598/147 608/599/147 529/600/147
f 482/601/148 617/602/148 614/603/148 539/604/148
f 526/605/148 501/606/148 622/607/148 477/608/148
f 518/609/147 635/610/147 506/611/147 521/612/147
f 512/613/149 625/614/149 632/615/149 513/616/149
f 576/617/150 541/618/150 548/619/150 577/620/150
f 582/621/151 551/622/151 556/623/151 585/624/151
f 590/625/152 559/626/152 488/627/152 493/628/152
f 498/629/153 491/630/153 570/631/153 603/632/153
f 600/633/152 565/634/152 564/635/152 593/636/152
f 398/637/154 510/34/154 595/119/154 449/638/154
f 430/639/155 562/86/155 627/640/155 469/641/155
f 410/642/156 530/54/156 607/643/156 457/644/156
f 418/645/157 542/66/157 575/99/157 437/646/157
f 515/39/158 403/647/158 456/648/158 598/649/158
f 601/125/159 453/650/159 402/651/159 520/44/159
f 523/47/160 407/652/160 390/653/160 500/654/160
f 495/19/161 391/655/161 406/656/161 528/52/161
f 479/3/162 307/657/162 446/658/162 592/659/162
f 587/111/159 447/660/159 306/661/159 484/8/159
f 537/61/163 413/662/163 442/663/163 584/664/163
f 579/103/161 443/665/161 416/666/161 534/58/161
f 438/667/162 574/668/162 531/55/162 409/669/162
f 567/91/164 435/670/164 476/671/164 630/154/164
f 633/672/165 473/673/165 434/674/165 572/96/165
f 489/13/166 385/675/166 394/676/166 508/32/166
f 503/677/167 395/678/167 388/679/167 486/10/167
f 557/81/168 425/680/168 466/681/168 624/148/168
f 619/682/169 467/683/169 428/684/169 554/78/169
f 549/73/166 421/685/166 462/686/166 616/140/166
f 611/687/167 463/688/167 424/689/167 546/70/167
f 458/690/170 606/130/170 543/67/170 417/691/170
f 535/59/171 415/692/171 464/693/171 610/134/171
f 613/694/172 461/695/172 414/696/172 540/64/172
f 481/5/173 305/697/173 468/698/173 618/142/173
f 621/699/174 465/700/174 308/701/174 478/2/174
f 525/49/175 405/702/175 396/703/175 502/26/175
f 505/704/176 393/705/176 408/706/176 522/46/176
f 517/41/175 401/707/175 474/708/175 636/160/175
f 631/709/177 475/710/177 404/711/177 514/38/177
f 470/712/178 626/150/178 511/35/178 397/713/178
f 547/71/179 423/714/179 444/715/179 578/716/179
f 581/105/180 441/717/180 422/718/180 552/76/180
f 555/79/181 427/719/181 448/720/181 586/721/181
f 589/113/182 445/722/182 426/723/182 560/84/182
f 487/11/183 387/724/183 392/725/183 494/726/183
f 497/21/180 389/727/180 386/728/180 492/16/180
f 569/93/184 433/729/184 454/730/184 604/731/184
f 599/123/185 455/732/185 436/733/185 566/90/185
f 450/734/186 594/735/186 563/87/186 429/736/186
f 143/737/187 1/738/187 4/167/187 144/169/187
f 316/170/188 3/172/188 2/739/188 313/740/188
f 1/161/189 317/163/189 320/164/189 2/166/189
f 3/172/190 321/171/190 324/741/190 4/742/190
f 151/743/187 5/744/187 8/179/187 152/181/187
f 328/182/191 7/184/191 6/745/191 325/746/191
f 5/173/192 329/175/192 332/176/192 6/178/192
f 7/184/193 333/183/193 336/747/193 8/748/193
f 159/749/194 9/750/194 12/191/194 160/193/194
f 340/194/188 11/196/188 10/751/188 337/752/188
f 9/185/189 341/187/189 344/188/189 10/190/189
f 11/196/195 345/195/195 348/753/195 12/754/195
f 15/200/196 33/202/196 32/755/196 16/756/196
f 14/757/197 20/758/197 19/759/197 15/760/197
f 13/761/198 37/762/198 36/213/198 14/212/198
f 16/199/199 27/198/199 30/763/199 17/764/199
f 18/765/200 34/766/200 33/202/200 19/201/200
f 21/767/201 22/768/201 26/769/201 18/770/201
f 20/758/202 36/771/202 35/772/202 21/767/202
f 25/773/203 31/774/203 34/205/203 26/204/203
f 24/775/204 29/776/204 28/208/204 25/207/204
f 23/777/205 39/778/205 42/219/205 24/218/205
f 27/198/206 32/197/206 31/206/206 28/208/206
f 29/220/207 42/219/207 41/779/207 30/780/207
f 17/211/208 41/210/208 40/221/208 13/223/208
f 22/217/209 35/216/209 38/224/209 23/226/209
f 638/781/210 653/782/210 61/783/210 60/784/210
f 638/232/211 48/231/211 47/242/211 642/244/211
f 46/785/212 45/786/212 654/787/212 641/788/212
f 46/239/213 58/241/213 57/228/213 43/227/213
f 48/789/214 60/784/214 59/790/214 49/791/214
f 49/235/215 51/234/215 54/245/215 50/247/215
f 50/792/216 63/793/216 66/794/216 47/795/216
f 639/796/217 655/797/217 656/798/217 640/799/217
f 639/237/218 56/236/218 55/248/218 644/250/218
f 54/800/219 53/801/219 64/802/219 63/793/219
f 56/803/220 640/799/220 637/804/220 57/805/220
f 58/806/221 641/788/221 643/807/221 55/808/221
f 69/254/222 87/256/222 86/809/222 70/810/222
f 68/811/223 74/812/223 73/813/223 69/814/223
f 67/815/224 91/816/224 90/267/224 68/266/224
f 70/253/210 81/252/210 84/817/210 71/818/210
f 72/819/225 88/820/225 87/256/225 73/255/225
f 75/821/226 76/822/226 80/823/226 72/824/226
f 74/812/227 90/825/227 89/826/227 75/821/227
f 79/827/228 85/828/228 88/259/228 80/258/228
f 78/829/217 83/830/217 82/262/217 79/261/217
f 77/831/229 93/832/229 96/273/229 78/272/229
f 81/252/230 86/251/230 85/260/230 82/262/230
f 83/274/231 96/273/231 95/833/231 84/834/231
f 71/265/232 95/264/232 94/275/232 67/277/232
f 76/271/233 89/270/233 92/278/233 77/280/233
f 99/284/234 117/286/234 116/835/234 100/836/234
f 98/837/235 104/838/235 103/839/235 99/840/235
f 97/841/236 121/842/236 120/297/236 98/296/236
f 100/283/237 111/282/237 114/843/237 101/844/237
f 102/845/238 118/846/238 117/286/238 103/285/238
f 105/847/239 106/848/239 110/849/239 102/850/239
f 104/838/227 120/851/227 119/852/227 105/847/227
f 109/853/240 115/854/240 118/289/240 110/288/240
f 108/855/217 113/856/217 112/292/217 109/291/217
f 107/857/241 123/858/241 126/303/241 108/302/241
f 111/282/242 116/281/242 115/290/242 112/292/242
f 113/304/243 126/303/243 125/859/243 114/860/243
f 101/295/208 125/294/208 124/305/208 97/307/208
f 106/301/209 119/300/209 122/308/209 107/310/209
f 281/861/244 127/862/244 130/317/244 282/319/244
f 352/320/245 129/322/245 128/863/245 349/864/245
f 127/311/246 353/313/246 356/314/246 128/316/246
f 129/322/247 357/321/247 360/865/247 130/866/247
f 289/867/187 131/868/187 134/329/187 290/331/187
f 364/332/248 133/334/248 132/869/248 361/870/248
f 131/323/249 365/325/249 368/326/249 132/328/249
f 133/334/190 369/333/190 372/871/190 134/872/190
f 297/873/244 135/874/244 138/341/244 298/343/244
f 376/344/248 137/346/248 136/875/248 373/876/248
f 135/335/189 377/337/189 380/338/189 136/340/189
f 137/346/250 381/345/250 384/877/250 138/878/250
f 399/348/251 139/347/251 142/353/251 400/355/251
f 431/356/215 141/358/215 140/352/215 432/351/215
f 139/879/252 452/880/252 451/881/252 140/882/252
f 141/883/253 472/884/253 471/885/253 142/886/253
f 146/359/210 318/361/210 317/163/210 143/162/210
f 145/367/254 150/366/254 149/887/254 146/888/254
f 314/889/255 148/890/255 147/369/255 315/368/255
f 315/891/239 322/892/239 321/893/239 316/894/239
f 148/363/256 319/362/256 318/361/256 149/360/256
f 150/895/257 323/896/257 322/370/257 147/369/257
f 154/371/258 330/373/258 329/175/258 151/174/258
f 153/379/259 158/378/259 157/897/259 154/898/259
f 326/899/260 156/900/260 155/381/260 327/380/260
f 327/901/219 334/902/219 333/903/219 328/904/219
f 156/375/256 331/374/256 330/373/256 157/372/256
f 158/378/257 335/377/257 334/905/257 155/906/257
f 162/383/261 342/385/261 341/187/261 159/186/261
f 161/391/262 166/390/262 165/907/262 162/908/262
f 338/909/263 164/910/263 163/393/263 339/392/263
f 339/911/239 346/912/239 345/913/239 340/914/239
f 164/387/264 343/386/264 342/385/264 165/384/264
f 166/915/265 347/916/265 346/394/265 163/393/265
f 170/917/266 186/918/266 185/398/266 171/400/266
f 171/919/212 173/920/212 172/921/212 167/922/212
f 167/412/267 190/411/267 189/420/267 168/419/267
f 169/923/210 184/924/210 183/396/210 170/395/210
f 173/925/268 185/926/268 188/401/268 174/403/268
f 174/927/219 180/928/219 176/929/219 175/930/219
f 175/930/269 191/931/269 190/932/269 172/921/269
f 180/402/270 188/401/270 187/933/270 177/934/270
f 177/405/271 182/404/271 181/935/271 178/936/271
f 178/418/272 196/417/272 195/937/272 179/938/272
f 182/404/273 187/406/273 186/397/273 183/396/273
f 184/409/274 193/408/274 196/939/274 181/940/274
f 168/941/275 194/942/275 193/408/275 169/407/275
f 179/422/276 192/424/276 191/414/276 176/413/276
f 197/943/277 200/944/277 657/945/277 645/946/277
f 650/440/278 203/442/278 202/429/278 646/428/278
f 650/947/212 658/948/212 219/949/212 218/950/212
f 197/427/211 209/426/211 212/437/211 198/439/211
f 201/951/279 213/952/279 216/953/279 202/954/279
f 204/443/218 206/445/218 205/432/218 201/431/218
f 203/955/280 218/950/280 217/956/280 204/957/280
f 205/958/204 208/959/204 214/960/204 213/952/204
f 651/446/281 211/448/281 210/436/281 648/435/281
f 651/961/219 659/962/219 660/963/219 652/964/219
f 209/965/282 645/946/282 647/966/282 210/967/282
f 211/968/216 652/964/216 649/969/216 212/970/216
f 224/971/283 240/972/283 239/452/283 225/454/283
f 225/973/212 227/974/212 226/975/212 221/976/212
f 221/466/284 244/465/284 243/474/284 222/473/284
f 223/977/210 238/978/210 237/450/210 224/449/210
f 227/979/285 239/980/285 242/455/285 228/457/285
f 228/981/226 234/982/226 230/983/226 229/984/226
f 229/984/269 245/985/269 244/986/269 226/975/269
f 234/456/286 242/455/286 241/987/286 231/988/286
f 231/459/204 236/458/204 235/989/204 232/990/204
f 232/472/287 250/471/287 249/991/287 233/992/287
f 236/458/288 241/460/288 240/451/288 237/450/288
f 238/463/289 247/462/289 250/993/289 235/994/289
f 222/995/275 248/996/275 247/462/275 223/461/275
f 233/476/290 246/478/290 245/468/290 230/467/290
f 254/997/291 270/998/291 269/482/291 255/484/291
f 255/999/235 257/1000/235 256/1001/235 251/1002/235
f 251/496/292 274/495/292 273/504/292 252/503/292
f 253/1003/199 268/1004/199 267/480/199 254/479/199
f 257/1005/293 269/1006/293 272/485/293 258/487/293
f 258/1007/219 264/1008/219 260/1009/219 259/1010/219
f 259/1010/294 275/1011/294 274/1012/294 256/1001/294
f 264/486/295 272/485/295 271/1013/295 261/1014/295
f 261/489/296 266/488/296 265/1015/296 262/1016/296
f 262/502/297 280/501/297 279/1017/297 263/1018/297
f 266/488/273 271/490/273 270/481/273 267/480/273
f 268/493/298 277/492/298 280/1019/298 265/1020/298
f 252/1021/299 278/1022/299 277/492/299 253/491/299
f 263/506/300 276/508/300 275/498/300 260/497/300
f 284/509/258 354/511/258 353/313/258 281/312/258
f 283/517/301 288/516/301 287/1023/301 284/1024/301
f 350/1025/255 286/1026/255 285/519/255 351/518/255
f 351/1027/302 358/1028/302 357/1029/302 352/1030/302
f 286/513/303 355/512/303 354/511/303 287/510/303
f 288/1031/304 359/1032/304 358/520/304 285/519/304
f 292/521/237 366/523/237 365/325/237 289/324/237
f 291/529/305 296/528/305 295/1033/305 292/1034/305
f 362/1035/260 294/1036/260 293/531/260 363/530/260
f 363/1037/226 370/1038/226 369/1039/226 364/1040/226
f 294/525/303 367/524/303 366/523/303 295/522/303
f 296/528/265 371/527/265 370/1041/265 293/1042/265
f 300/533/258 378/535/258 377/337/258 297/336/258
f 299/541/305 304/540/305 303/1043/305 300/1044/305
f 374/1045/306 302/1046/306 301/543/306 375/542/306
f 375/1047/219 382/1048/219 381/1049/219 376/1050/219
f 302/537/307 379/536/307 378/535/307 303/534/307
f 304/540/265 383/539/265 382/1051/265 301/1052/265
f 398/1053/258 449/1054/258 452/880/258 399/1055/258
f 411/551/278 312/553/278 311/547/278 412/546/278
f 419/549/218 310/548/218 309/554/218 420/556/218
f 430/1056/239 469/1057/239 472/884/239 431/1058/239
f 310/1059/279 440/1060/279 439/1061/279 311/1062/279
f 312/1063/280 460/1064/280 459/1065/280 309/1066/280
f 144/1067/212 324/1068/212 323/1069/212 145/1070/212
f 313/165/217 320/164/217 319/362/217 314/364/217
f 152/1071/212 336/1072/212 335/1073/212 153/1074/212
f 325/177/204 332/176/204 331/374/204 326/376/204
f 160/1075/212 348/1076/212 347/1077/212 161/1078/212
f 337/189/217 344/188/217 343/386/217 338/388/217
f 282/1079/308 360/1080/308 359/1081/308 283/1082/308
f 349/315/204 356/314/204 355/512/204 350/514/204
f 290/1083/309 372/1084/309 371/1085/309 291/1086/309
f 361/327/204 368/326/204 367/524/204 362/526/204
f 298/1087/309 384/1088/309 383/1089/309 299/1090/309
f 373/339/310 380/338/310 379/536/310 374/538/310
f 410/1091/309 457/1092/309 460/1064/309 411/1093/309
f 418/1094/204 437/1095/204 440/1060/204 419/1096/204
f 402/1097/210 453/1098/210 456/1099/210 403/1100/210
f 406/1101/210 391/1102/210 390/1103/210 407/1104/210
f 306/1105/258 447/1106/258 446/1107/258 307/1108/258
f 416/1109/210 443/1110/210 442/1111/210 413/1112/210
f 412/1113/210 439/1061/210 438/1114/210 409/1115/210
f 434/1116/226 473/1117/226 476/1118/226 435/1119/226
f 388/1120/226 395/1121/226 394/1122/226 385/1123/226
f 428/1124/219 467/1125/219 466/1126/219 425/1127/219
f 424/1128/239 463/1129/239 462/1130/239 421/1131/239
f 420/1132/219 459/1065/219 458/1133/219 417/1134/219
f 414/1135/309 461/1136/309 464/1137/309 415/1138/309
f 308/1139/309 465/1140/309 468/1141/309 305/1142/309
f 408/1143/309 393/1144/309 396/1145/309 405/1146/309
f 404/1147/235 475/1148/235 474/1149/235 401/1150/235
f 400/1151/223 471/885/223 470/1152/223 397/1153/223
f 422/1154/217 441/1155/217 444/1156/217 423/1157/217
f 426/1158/204 445/1159/204 448/1160/204 427/1161/204
f 386/1162/296 389/1163/296 392/1164/296 387/1165/296
f 436/1166/204 455/1167/204 454/1168/204 433/1169/204
f 432/1170/204 451/881/204 450/1171/204 429/1172/204
f 516/40/311 509/1173/311 512/1174/311 513/37/311
f 524/48/311 519/1175/311 518/1176/311 521/45/311
f 480/4/311 527/1177/311 526/1178/311 477/1/311
f 536/1179/311 529/53/311 532/56/311 533/1180/311
f 482/1181/311 539/63/311 538/62/311 483/1182/311
f 548/72/312 541/1183/312 544/1184/312 545/69/312
f 556/80/313 551/1185/313 550/1186/313 553/77/313
f 488/12/314 559/1187/314 558/1188/314 485/9/314
f 568/1189/313 561/85/313 564/88/313 565/1190/313
f 490/1191/312 571/95/312 570/94/312 491/1192/312
f 580/575/315 573/574/315 576/617/315 577/620/315
f 588/571/315 583/570/315 582/621/315 585/624/315
f 496/567/315 591/566/315 590/625/315 493/628/315
f 600/633/315 593/636/315 596/559/315 597/558/315
f 498/629/315 603/632/315 602/563/315 499/562/315
f 612/593/316 605/596/316 608/599/316 609/598/316
f 620/589/316 615/592/316 614/603/316 617/602/316
f 504/585/316 623/588/316 622/607/316 501/606/316
f 632/615/316 625/614/316 628/577/316 629/580/316
f 506/611/316 635/610/316 634/581/316 507/584/316
f 509/33/317 596/120/317 595/119/317 510/34/317
f 561/85/318 628/1193/318 627/640/318 562/86/318
f 529/53/319 608/1194/319 607/643/319 530/54/319
f 541/65/320 576/100/320 575/99/320 542/66/320
f 515/39/321 598/649/321 597/1195/321 516/40/321
f 519/43/317 602/126/317 601/125/317 520/44/317
f 523/47/322 500/654/322 499/1196/322 524/48/322
f 527/51/323 496/20/323 495/19/323 528/52/323
f 479/3/322 592/659/322 591/1197/322 480/4/322
f 483/7/317 588/112/317 587/111/317 484/8/317
f 537/61/324 584/664/324 583/1198/324 538/62/324
f 533/57/325 580/104/325 579/103/325 534/58/325
f 531/55/321 574/668/321 573/1199/321 532/56/321
f 567/91/326 630/154/326 629/153/326 568/92/326
f 571/95/327 634/1200/327 633/672/327 572/96/327
f 489/13/328 508/32/328 507/31/328 490/14/328
f 485/9/329 504/1201/329 503/677/329 486/10/329
f 557/81/328 624/148/328 623/147/328 558/82/328
f 553/77/330 620/1202/330 619/682/330 554/78/330
f 549/73/331 616/140/331 615/139/331 550/74/331
f 545/69/327 612/1203/327 611/687/327 546/70/327
f 543/67/332 606/130/332 605/129/332 544/68/332
f 535/59/333 610/134/333 609/133/333 536/60/333
f 539/63/334 614/1204/334 613/694/334 540/64/334
f 481/5/335 618/142/335 617/141/335 482/6/335
f 477/1/336 622/1205/336 621/699/336 478/2/336
f 525/49/333 502/26/333 501/25/333 526/50/333
f 521/45/337 506/1206/337 505/704/337 522/46/337
f 517/41/335 636/160/335 635/159/335 518/42/335
f 513/37/337 632/1207/337 631/709/337 514/38/337
f 511/35/338 626/150/338 625/149/338 512/36/338
f 547/71/339 578/716/339 577/1208/339 548/72/339
f 551/75/340 582/106/340 581/105/340 552/76/340
f 555/79/341 586/721/341 585/1209/341 556/80/341
f 559/83/342 590/114/342 589/113/342 560/84/342
f 487/11/343 494/726/343 493/1210/343 488/12/343
f 491/15/342 498/22/342 497/21/342 492/16/342
f 569/93/343 604/731/343 603/1211/343 570/94/343
f 565/89/342 600/124/342 599/123/342 566/90/342
f 563/87/344 594/735/344 593/1212/344 564/88/344
f 307/657/345 479/3/345 478/2/345 308/701/345
f 305/697/346 481/5/346 484/8/346 306/661/346
f 387/724/347 487/11/347 486/10/347 388/679/347
f 385/675/348 489/13/348 492/16/348 386/728/348
f 391/1102/349 495/1213/349 494/1214/349 392/1164/349
f 389/1163/350 497/1215/350 500/1216/350 390/1103/350
f 395/1121/351 503/1217/351 502/1218/351 396/1145/351
f 393/1144/352 505/1219/352 508/1220/352 394/1122/352
f 397/713/353 511/35/353 510/34/353 398/637/353
f 403/647/354 515/39/354 514/38/354 404/711/354
f 401/707/355 517/41/355 520/44/355 402/651/355
f 407/652/356 523/47/356 522/46/356 408/706/356
f 405/702/346 525/49/346 528/52/346 406/656/346
f 409/669/345 531/55/345 530/54/345 410/642/345
f 415/692/357 535/59/357 534/58/357 416/666/357
f 413/662/358 537/61/358 540/64/358 414/696/358
f 417/691/359 543/67/359 542/66/359 418/645/359
f 423/714/347 547/71/347 546/70/347 424/689/347
f 421/685/360 549/73/360 552/76/360 422/718/360
f 427/719/361 555/79/361 554/78/361 428/684/361
f 425/680/362 557/81/362 560/84/362 426/723/362
f 429/736/363 563/87/363 562/86/363 430/639/363
f 435/670/364 567/91/364 566/90/364 436/733/364
f 433/729/365 569/93/365 572/96/365 434/674/365
f 437/1095/366 575/1221/366 574/1222/366 438/1114/366
f 443/1110/367 579/1223/367 578/1224/367 444/1156/367
f 441/1155/368 581/1225/368 584/1226/368 442/1111/368
f 447/1106/369 587/1227/369 586/1228/369 448/1160/369
f 445/1159/370 589/1229/370 592/1230/370 446/1107/370
f 449/1054/371 595/1231/371 594/1232/371 450/1171/371
f 455/1167/366 599/1233/366 598/1234/366 456/1099/366
f 453/1098/369 601/1235/369 604/1236/369 454/1168/369
f 457/1092/372 607/1237/372 606/1238/372 458/1133/372
f 463/1129/373 611/1239/373 610/1240/373 464/1137/373
f 461/1136/374 613/1241/374 616/1242/374 462/1130/374
f 467/1125/375 619/1243/375 618/1244/375 468/1141/375
f 465/1140/372 621/1245/372 624/1246/372 466/1126/372
f 469/1057/373 627/1247/373 626/1248/373 470/1152/373
f 475/1148/372 631/1249/372 630/1250/372 476/1118/372
f 473/1117/376 633/1251/376 636/1252/376 474/1149/376
f 663/1253/199 44/1254/199 43/1255/199 637/804/199
f 65/1256/309 661/1257/309 642/1258/309 66/794/309
f 62/1259/204 52/1260/204 51/1261/204 59/790/204
f 664/1262/219 662/1263/219 644/1264/219 643/807/219
f 215/1265/210 665/1266/210 646/1267/210 216/953/210
f 668/1268/197 199/1269/197 198/1270/197 649/969/197
f 667/1271/217 666/1272/217 648/1273/217 647/966/217
f 220/1274/219 207/1275/219 206/1276/219 217/956/219
f 669/1277/377 45/1278/377 44/1279/377 670/1280/377
f 671/1281/378 53/1282/378 52/1283/378 672/1284/378
f 673/1285/379 62/1286/379 61/1287/379 674/1288/379
f 675/1289/380 65/1290/380 64/1291/380 676/1292/380
f 677/1293/381 200/1294/381 199/1295/381 678/1296/381
f 679/1297/382 208/1298/382 207/1299/382 680/1300/382
f 681/1301/383 215/1302/383 214/1303/383 682/1304/383
f 683/1305/384 220/1306/384 219/1307/384 684/1308/384
f 674/1309/385 61/1310/385 653/1311/385 670/1312/385
f 675/1313/386 654/1314/386 45/1315/386 669/1316/386
f 673/1317/387 656/1318/387 655/1319/387 672/1320/387
f 676/1321/388 64/1322/388 53/1323/388 671/1324/388
f 681/1325/385 657/1326/385 200/1327/385 677/1328/385
f 684/1329/389 219/1330/389 658/1331/389 678/1332/389
f 682/1333/390 214/1334/390 208/1335/390 679/1336/390
f 683/1337/391 660/1338/391 659/1339/391 680/1340/391
f 670/1341/381 653/1342/381 661/1343/381 669/1344/381
f 672/1345/382 655/1346/382 662/1347/382 671/1348/382
f 674/1349/392 663/1350/392 656/1351/392 673/1352/392
f 676/1353/384 664/1354/384 654/1355/384 675/1356/384
f 678/1357/377 658/1358/377 665/1359/377 677/1360/377
f 680/1361/378 659/1362/378 666/1363/378 679/1364/378
f 682/1365/393 667/1366/393 657/1367/393 681/1368/393
f 684/1369/394 668/1370/394 660/1371/394 683/1372/394
f 670/1373/395 44/1374/395 663/1375/395 674/1376/395
f 669/1377/396 661/1378/396 65/1379/396 675/1380/396
f 672/1381/397 52/1382/397 62/1383/397 673/1384/397
f 671/1385/398 662/1386/398 664/1387/398 676/1321/398
f 677/1328/399 665/1388/399 215/1389/399 681/1325/399
f 678/1390/396 199/1391/396 668/1392/396 684/1393/396
f 679/1394/400 666/1395/400 667/1396/400 682/1397/400
f 680/1398/401 207/1399/401 220/1400/401 683/1401/401
s 1
f 1/1402/402 2/739/402 3/172/402 4/742/402
f 5/1403/402 6/745/402 7/184/402 8/748/402
f 9/1404/402 10/751/402 11/196/402 12/754/402
f 13/223/403 14/1405/403 15/1406/403 16/1407/403
f 17/211/403 13/223/403 16/1407/403
f 18/770/316 19/759/316 20/758/316 21/767/316
f 22/217/404 23/226/404 24/1408/404 25/773/404
f 22/217/404 25/773/404 26/204/404
f 27/198/315 28/208/315 29/776/315 30/763/315
f 31/1409/405 32/755/405 33/202/405 34/766/405
f 35/1410/406 36/213/406 37/762/407 38/1411/407
f 39/778/408 40/1412/408 41/779/409 42/219/409
f 43/1413/403 44/1279/403 45/1278/403 46/1414/403
f 47/1415/410 48/1416/410 49/235/410 50/247/410
f 51/1417/404 52/1283/404 53/1282/404 54/1418/404
f 55/1419/411 56/1420/411 57/228/411 58/241/411
f 59/790/315 60/784/315 61/783/315 62/1259/315
f 63/793/316 64/802/316 65/1256/316 66/794/316
f 67/277/403 68/1421/403 69/1422/403 70/1423/403
f 71/265/403 67/277/403 70/1423/403
f 72/824/316 73/813/316 74/812/316 75/821/316
f 76/271/404 77/280/404 78/1424/404 79/827/404
f 76/271/404 79/827/404 80/258/404
f 81/252/315 82/262/315 83/830/315 84/817/315
f 85/1425/405 86/809/405 87/256/405 88/820/405
f 89/1426/406 90/267/406 91/816/412 92/1427/412
f 93/832/413 94/1428/413 95/833/409 96/273/409
f 97/307/403 98/1429/403 99/1430/403 100/1431/403
f 101/295/403 97/307/403 100/1431/403
f 102/850/316 103/839/316 104/838/316 105/847/316
f 106/301/404 107/310/404 108/1432/404 109/853/404
f 106/301/404 109/853/404 110/288/404
f 111/282/315 112/292/315 113/856/315 114/843/315
f 115/1433/405 116/835/405 117/286/405 118/846/405
f 119/1434/406 120/297/406 121/842/412 122/1435/412
f 123/858/413 124/1436/413 125/859/409 126/303/409
f 127/1437/402 128/863/402 129/322/402 130/866/402
f 131/1438/402 132/869/402 133/334/402 134/872/402
f 135/1439/402 136/875/402 137/346/402 138/878/402
f 139/1440/410 140/352/410 141/358/410 142/1441/410
f 143/737/403 144/169/403 145/1442/403 146/1443/403
f 147/369/414 148/890/414 149/1444/414 150/895/414
f 151/743/403 152/181/403 153/1445/403 154/1446/403
f 155/906/414 156/1447/414 157/897/414 158/378/414
f 159/749/403 160/193/403 161/1448/403 162/1449/403
f 163/1450/414 164/1451/414 165/907/414 166/390/414
f 167/412/403 168/419/403 169/1452/403 170/917/403
f 171/400/403 167/412/403 170/917/403
f 172/921/316 173/920/316 174/927/316 175/930/316
f 176/1453/404 177/1454/404 178/418/404 179/938/404
f 177/1454/404 176/1453/404 180/1455/404
f 181/935/315 182/404/315 183/396/315 184/924/315
f 185/926/415 186/1456/415 187/933/415 188/401/415
f 189/1457/416 190/1458/417 191/414/417 192/424/418
f 193/1459/419 194/1460/420 195/937/421 196/417/419
f 197/427/403 198/439/403 199/1461/403 200/1462/403
f 201/1463/411 202/429/411 203/442/411 204/1464/411
f 205/432/404 206/445/404 207/1465/404 208/1466/404
f 209/1467/410 210/436/410 211/448/410 212/1468/410
f 213/952/315 214/960/315 215/1265/315 216/953/315
f 217/956/316 218/950/316 219/949/316 220/1274/316
f 221/466/403 222/473/403 223/1469/403 224/971/403
f 225/454/403 221/466/403 224/971/403
f 226/975/316 227/974/316 228/981/316 229/984/316
f 230/1470/404 231/1471/404 232/472/404 233/992/404
f 231/1471/404 230/1470/404 234/1472/404
f 235/989/315 236/458/315 237/450/315 238/978/315
f 239/980/415 240/1473/415 241/987/415 242/455/415
f 243/1474/418 244/1475/417 245/468/417 246/478/418
f 247/462/419 248/996/421 249/1476/421 250/993/419
f 251/496/403 252/503/403 253/1477/403 254/997/403
f 255/484/403 251/496/403 254/997/403
f 256/1001/316 257/1000/316 258/1007/316 259/1010/316
f 260/1478/404 261/1479/404 262/502/404 263/1018/404
f 261/1479/404 260/1478/404 264/1480/404
f 265/1015/315 266/488/315 267/480/315 268/1004/315
f 269/1006/415 270/1481/415 271/1013/415 272/485/415
f 273/1482/418 274/1483/417 275/498/417 276/508/418
f 277/1484/419 278/1485/421 279/1017/422 280/501/419
f 281/861/403 282/319/403 283/1486/403 284/1487/403
f 285/1488/414 286/1489/414 287/1023/414 288/516/414
f 289/867/403 290/331/403 291/1490/403 292/1491/403
f 293/1042/414 294/1492/414 295/1033/414 296/528/414
f 297/873/403 298/343/403 299/1493/403 300/1494/403
f 301/1052/414 302/1495/414 303/1043/414 304/540/414
f 305/1496/403 306/1497/403 307/657/403 308/701/403
f 309/1498/411 310/1499/411 311/547/411 312/553/411
f 313/1500/404 314/889/404 315/368/404 316/1501/404
f 317/163/315 318/361/315 319/362/315 320/164/315
f 321/893/316 322/892/316 323/1069/316 324/1068/316
f 325/1502/404 326/899/404 327/380/404 328/1503/404
f 329/175/315 330/373/315 331/374/315 332/176/315
f 333/903/316 334/902/316 335/1073/316 336/1072/316
f 337/1504/404 338/909/404 339/392/404 340/1505/404
f 341/187/315 342/385/315 343/386/315 344/188/315
f 345/913/316 346/912/316 347/1077/316 348/1076/316
f 349/1506/404 350/1025/404 351/518/404 352/1507/404
f 353/313/315 354/511/315 355/512/315 356/314/315
f 357/1029/316 358/1028/316 359/1081/316 360/1080/316
f 361/1508/404 362/1035/404 363/530/404 364/1509/404
f 365/325/315 366/523/315 367/524/315 368/326/315
f 369/1039/316 370/1038/316 371/1085/316 372/1084/316
f 373/1510/404 374/1045/404 375/542/404 376/1511/404
f 377/337/315 378/535/315 379/536/315 380/338/315
f 381/1049/316 382/1048/316 383/1089/316 384/1088/316
f 385/1512/404 386/1513/404 387/724/404 388/679/404
f 389/1163/315 390/1103/315 391/1102/315 392/1164/315
f 393/1144/316 394/1122/316 395/1121/316 396/1145/316
f 397/1514/403 398/1515/403 399/348/403 400/355/403
f 401/1516/403 402/1517/403 403/647/403 404/711/403
f 405/1518/403 406/1519/403 407/652/403 408/706/403
f 409/669/403 410/642/403 411/1520/403 412/1521/403
f 413/662/403 414/696/403 415/1522/403 416/1523/403
f 417/1524/404 418/1525/404 419/549/404 420/556/404
f 421/1526/404 422/1527/404 423/714/404 424/689/404
f 425/1528/404 426/1529/404 427/719/404 428/684/404
f 429/736/404 430/639/404 431/1530/404 432/1531/404
f 433/729/404 434/674/404 435/1532/404 436/1533/404
f 437/1095/315 438/1114/315 439/1061/315 440/1060/315
f 441/1155/315 442/1111/315 443/1110/315 444/1156/315
f 445/1159/315 446/1107/315 447/1106/315 448/1160/315
f 449/1054/315 450/1171/315 451/881/315 452/880/315
f 453/1098/315 454/1168/315 455/1167/315 456/1099/315
f 457/1092/316 458/1133/316 459/1065/316 460/1064/316
f 461/1136/316 462/1130/316 463/1129/316 464/1137/316
f 465/1140/316 466/1126/316 467/1125/316 468/1141/316
f 469/1057/316 470/1152/316 471/885/316 472/884/316
f 473/1117/316 474/1149/316 475/1148/316 476/1118/316
f 37/1534/407 40/1535/408 39/1536/408 38/1537/407
f 91/1538/412 94/1539/413 93/1540/413 92/1541/412
f 121/1542/412 124/1543/413 123/1544/413 122/1545/412
f 192/1546/418 195/1547/421 194/1548/420 189/1549/416
f 246/1550/418 249/1551/421 248/1552/421 243/1553/418
f 276/1554/418 279/1555/422 278/1556/421 273/1557/418
f 661/1558/403 653/1559/403 638/232/403 642/244/403
f 662/1560/404 655/1561/404 639/237/404 644/250/404
f 656/798/315 663/1253/315 637/804/315 640/799/315
f 654/787/316 664/1262/316 643/807/316 641/788/316
f 665/1359/403 658/1358/403 650/1562/403 646/1563/403
f 666/1363/404 659/1362/404 651/1564/404 648/1565/404
f 657/945/315 667/1271/315 647/966/315 645/946/315
f 660/963/316 668/1268/316 649/969/316 652/964/316
