# Blender v2.79 (sub 0) OBJ File: ''
# www.blender.org
mtllib pavement.mtl
o Paving_Stone_1_LOW_UV_
v -43.143356 3.403787 -4.273771
v -43.154919 3.428680 -3.987716
v -43.021408 3.074353 -4.008277
v -43.045738 3.098105 -4.368557
v -43.379463 3.085864 -4.533813
v -43.412872 3.440344 -4.364498
v -43.465275 3.554687 -4.042947
v -50.603462 2.256542 -4.773667
v -50.661514 2.330486 -4.493835
v -50.414078 2.583806 -4.518034
v -50.371655 2.376956 -4.864235
v -50.322083 2.023129 -4.815385
v -50.689770 2.001739 -4.849439
v -50.755260 2.034234 -4.470788
v -50.925308 2.954099 2.663905
v -50.997257 2.727771 2.789003
v -50.648823 2.754304 2.864740
v -50.683754 3.043335 2.718283
v -50.700886 3.136207 2.428871
v -50.983322 2.963291 2.425617
v -51.262184 2.735495 2.526778
v -43.279503 3.457768 3.421968
v -43.195423 3.489976 3.174712
v -43.496693 3.648052 3.159918
v -43.534420 3.542560 3.463278
v -43.535088 3.192913 3.545017
v -43.172283 3.208251 3.538374
v -43.046734 3.174036 3.200943
v -42.860458 -3.427965 3.917118
v -43.143261 -3.510522 4.003644
v -43.122318 -3.755468 3.686337
v -42.804222 -3.542033 3.623847
v -42.716019 -3.181953 3.576884
v -42.812954 -3.117102 3.942344
v -43.191689 -3.143319 3.943496
v -50.737690 -3.832764 4.057597
v -50.811352 -3.447891 4.122743
v -50.916409 -3.463314 3.691149
v -50.777374 -3.866582 3.675574
v -50.390198 -3.882391 3.698961
v -50.403099 -3.894649 4.141530
v -50.392097 -3.432031 4.144658
v -43.083439 -3.650823 -3.640137
v -42.975456 -3.707731 -3.416376
v -43.291767 -3.821795 -3.390174
v -43.312553 -3.724053 -3.704628
v -43.294708 -3.416499 -3.882683
v -42.996986 -3.417970 -3.769418
v -42.804588 -3.393492 -3.494540
v -50.673027 -3.371638 -4.013400
v -50.779228 -3.190069 -4.140732
v -50.410282 -3.180714 -4.237422
v -50.411774 -3.399938 -4.032409
v -50.443726 -3.562425 -3.777317
v -50.752205 -3.462529 -3.785395
v -50.869667 -3.190246 -3.786258
v -50.871143 -3.238298 -3.361820
v -50.879070 -2.837923 -3.378325
v -50.862198 -2.820153 -3.826082
v -50.832371 -2.837376 -4.235999
v -50.864857 -3.603357 -3.397740
v -50.917580 -3.695359 -2.697937
v -50.924236 -3.308123 -2.680850
v -50.480522 -3.652797 -3.368337
v -50.540794 -3.883605 -2.689134
v -50.561356 -3.917380 -1.562360
v -51.018829 -3.837176 -1.580697
v -50.011196 -3.745147 -3.365079
v -50.033260 -3.832784 -2.657354
v -50.062557 -4.012347 -1.539823
v -50.082310 -3.787386 -0.204637
v -50.534389 -3.783237 -0.218901
v -49.259220 -3.835017 -2.633537
v -49.296650 -3.911737 -1.522386
v -49.334888 -3.783468 -0.192981
v -49.337711 -3.700136 1.169524
v -50.077011 -3.581779 1.160470
v -48.158489 -3.879245 -1.507250
v -48.197994 -3.862187 -0.179782
v -48.213802 -3.855823 1.184323
v -48.205635 -3.925272 2.414196
v -49.321316 -3.912445 2.378797
v -46.864231 -3.913759 -0.165465
v -46.895218 -3.873244 1.199490
v -46.903549 -3.826199 2.431243
v -46.902039 -3.902773 3.293902
v -48.194469 -3.969734 3.286739
v -45.570065 -3.879490 1.210786
v -45.603821 -4.036242 2.412540
v -45.601124 -4.095811 3.265908
v -45.580830 -4.042089 3.833342
v -46.898067 -3.930273 3.839586
v -44.451790 -4.094583 2.401709
v -44.444214 -3.984442 3.231825
v -44.417542 -3.913226 3.761450
v -44.401863 -3.709034 4.123685
v -45.558662 -3.893441 4.308050
v -43.653900 -3.842733 3.199696
v -43.620892 -3.772561 3.703951
v -43.614964 -3.597303 4.058772
v -43.664017 -3.224538 3.928970
v -44.455627 -3.320777 4.001492
v -44.445309 -2.792134 4.114183
v -45.612442 -2.836410 4.303470
v -45.574146 -3.401213 4.412898
v -43.686279 -2.723236 3.871762
v -43.680462 -1.902134 3.845359
v -44.451698 -1.932788 4.093040
v -43.207569 -2.673913 3.835602
v -43.198990 -1.872862 3.824724
v -43.200851 -0.681469 3.834040
v -43.684448 -0.706692 3.788383
v -42.862980 -2.659949 3.829484
v -42.872250 -1.862300 3.755754
v -42.835407 -0.669107 3.774366
v -42.798393 0.678532 3.821754
v -43.246078 0.649006 3.764922
v -42.594189 -1.867878 3.508300
v -42.781048 -0.675033 3.415264
v -42.717484 0.659506 3.371189
v -42.757786 0.642910 2.892343
v -42.737663 1.840141 2.823342
v -42.771133 1.865321 3.302777
v -42.984737 1.870651 3.623929
v -42.761848 -0.689053 2.960472
v -42.807812 -0.704720 2.225623
v -42.647743 0.632044 2.162734
v -42.621887 -1.893924 3.017223
v -42.693733 -1.922993 2.270024
v -42.649994 -1.949816 1.142774
v -42.650459 -0.718556 1.093969
v -42.684803 -2.737232 3.064101
v -42.661652 -2.784462 2.292459
v -42.877968 -2.795513 1.174613
v -42.838734 -2.806723 -0.131769
v -42.685822 -1.960379 -0.164787
v -42.747086 -3.299957 2.326157
v -42.933559 -3.311784 1.195643
v -42.848686 -3.317861 -0.113031
v -42.487564 -3.387646 -1.370695
v -42.509209 -2.805834 -1.386436
v -42.959175 -3.650465 1.209634
v -42.932865 -3.635275 -0.105729
v -42.887508 -3.615148 -1.382278
v -42.905701 -3.602997 -2.403517
v -42.702389 -3.310681 -2.414386
v -43.192097 -3.831252 -0.108445
v -43.212029 -3.704844 -1.383050
v -43.229496 -3.690660 -2.395083
v -43.626583 -3.883248 -1.398715
v -43.649464 -3.824703 -2.413873
v -43.678013 -3.819191 -3.033369
v -43.242546 -3.831212 -3.002794
v -42.866390 -3.733073 -3.032465
v -42.693859 -3.360621 -3.080817
v -42.689419 -2.926775 -3.616823
v -42.632427 -2.854785 -3.144552
v -42.640816 -2.809881 -2.442352
v -42.516136 -2.055687 -3.260226
v -42.704285 -2.003876 -2.531988
v -42.625000 -1.971583 -1.454240
v -42.790344 -0.834581 -2.677439
v -42.680466 -0.771064 -1.559785
v -42.746887 -0.739927 -0.236148
v -42.719940 0.571385 -1.651155
v -42.967949 0.583871 -0.306727
v -42.737228 0.618867 1.028610
v -43.009476 1.792879 -0.350703
v -42.973793 1.797497 0.992715
v -42.821678 1.815840 2.102976
v -42.961273 2.611249 0.966624
v -43.014503 2.600799 2.077230
v -42.978466 2.631486 2.783094
v -42.956970 3.103312 2.069280
v -43.023212 3.129661 2.768149
v -42.914448 2.695413 3.238137
v -43.072071 2.713875 3.600836
v -43.460617 2.679492 3.618304
v -43.347450 1.843678 3.655788
v -43.934391 2.705158 3.578856
v -43.823627 1.837253 3.599709
v -43.729961 0.623825 3.699593
v -44.610714 1.846080 3.627281
v -44.525597 0.606535 3.746038
v -44.476597 -0.725526 3.929622
v -45.711266 0.589733 3.705191
v -45.671494 -0.755055 3.914964
v -45.640121 -1.961660 4.193779
v -47.018814 -0.753005 3.950945
v -46.993191 -1.974343 4.221448
v -46.954563 -2.868547 4.326385
v -48.305302 -1.984877 4.074245
v -48.260208 -2.880014 4.227270
v -48.228832 -3.446227 4.310527
v -46.923779 -3.442000 4.460650
v -48.210529 -3.875171 4.238414
v -46.902000 -3.864095 4.263586
v -48.195419 -3.942591 3.826972
v -49.289829 -3.828898 4.139875
v -49.284718 -3.960794 3.782024
v -49.292229 -3.920985 3.247360
v -49.977379 -3.941740 3.739237
v -50.002590 -3.919621 3.208862
v -50.040344 -3.820787 2.363500
v -50.411842 -3.846561 3.185476
v -50.469456 -3.878090 2.351514
v -50.502846 -3.702740 1.152711
v -50.784981 -3.743279 2.359114
v -50.790657 -3.671340 1.152008
v -50.870773 -3.716047 -0.226933
v -50.943661 -3.399515 1.147678
v -51.025299 -3.401755 -0.233945
v -51.099781 -3.385148 -1.585883
v -50.939198 -2.952988 -0.250628
v -51.015244 -2.932405 -1.594026
v -50.857525 -2.880548 -2.686225
v -50.986927 -2.237130 -1.634504
v -50.978691 -2.219294 -2.748160
v -50.939243 -2.201086 -3.460670
v -51.082176 -1.155663 -2.861765
v -51.066086 -1.176994 -3.614992
v -51.004402 -1.200493 -4.102845
v -50.898369 -2.203133 -3.924741
v -50.864632 -1.233126 -4.499060
v -50.820763 -2.227672 -4.307334
v -50.453342 -1.224577 -4.531472
v -50.427502 -2.214984 -4.387084
v -50.411854 -2.808358 -4.244462
v -49.945229 -2.198779 -4.291370
v -49.931347 -2.812246 -4.179716
v -49.945702 -3.201165 -4.194091
v -49.979557 -3.503182 -4.090861
v -49.189583 -2.880607 -4.227352
v -49.208996 -3.276264 -4.206408
v -49.236744 -3.611008 -4.122159
v -49.239964 -3.679252 -3.769346
v -49.991848 -3.623001 -3.778010
v -48.073326 -3.347325 -4.103889
v -48.091240 -3.666834 -4.069902
v -48.100143 -3.684396 -3.731056
v -48.106415 -3.745212 -3.302013
v -49.243313 -3.750721 -3.337712
v -46.746033 -3.705299 -4.002441
v -46.761826 -3.762797 -3.687788
v -46.775696 -3.810808 -3.268568
v -46.789406 -3.948836 -2.584724
v -48.122402 -3.851166 -2.608000
v -45.443512 -3.882071 -3.624432
v -45.457970 -3.843779 -3.200510
v -45.470463 -3.732402 -2.536738
v -45.491302 -3.688124 -1.452484
v -46.823009 -3.883169 -1.488123
v -44.365929 -3.779333 -3.111985
v -44.353184 -3.752284 -2.467389
v -44.358742 -3.870396 -1.425417
v -44.391788 -3.992721 -0.132645
v -45.529484 -3.841301 -0.142535
v -43.650490 -3.843969 -0.108902
v -43.642452 -4.112257 1.212761
v -44.434299 -4.110303 1.207835
v -43.137772 -4.004103 1.215679
v -43.189396 -3.842006 2.376300
v -43.661625 -3.999284 2.392239
v -42.806332 -3.703916 2.357630
v -42.849197 -3.590577 3.142967
v -43.169037 -3.768156 3.176969
v -42.756271 -3.234659 3.101991
v -42.663216 -2.698765 3.540632
v -44.360195 -3.866307 -3.521944
v -43.694584 -3.829298 -3.431286
v -44.339432 -3.808275 -3.898207
v -43.690781 -3.735997 -3.763066
v -44.339851 -3.449930 -4.088922
v -43.691673 -3.409646 -3.929602
v -44.342350 -2.952362 -4.105597
v -43.669628 -2.941696 -4.060413
v -43.243309 -2.959080 -4.035533
v -43.625313 -2.177634 -4.240525
v -43.189369 -2.198045 -4.266819
v -42.859177 -2.184979 -4.094149
v -42.819149 -3.014378 -4.041358
v -42.622345 -2.133022 -3.768708
v -42.698009 -1.016554 -4.438276
v -42.613937 -0.950137 -3.942266
v -42.641262 -0.888734 -3.422323
v -42.835152 0.400874 -4.038729
v -42.807743 0.443322 -3.554290
v -42.805073 0.498663 -2.802796
v -43.014030 1.664874 -3.612343
v -43.056892 1.699746 -2.854570
v -42.995617 1.764337 -1.702658
v -43.171421 2.558048 -2.861167
v -43.181530 2.589474 -1.716235
v -43.126915 2.607270 -0.366413
v -43.307888 3.062016 -1.719831
v -43.168797 3.075687 -0.372074
v -43.037071 3.081547 0.963839
v -43.172871 3.419231 -0.378825
v -43.200027 3.358930 0.962999
v -43.022854 3.529020 2.054545
v -43.489635 3.455149 0.953302
v -43.417957 3.686124 2.037926
v -43.468403 3.630705 2.743641
v -43.119190 3.494450 2.762778
v -43.887913 3.784025 2.006405
v -43.913242 3.813643 2.717480
v -43.935040 3.810386 3.157493
v -44.683887 4.000394 2.648696
v -44.725864 3.939579 3.116046
v -44.751724 3.788316 3.513435
v -43.971619 3.654027 3.495059
v -44.753510 3.337841 3.578803
v -43.997139 3.248454 3.525266
v -44.698589 2.759938 3.638530
v -45.892380 3.371633 3.561007
v -45.841393 2.780375 3.634505
v -45.772137 1.856242 3.756202
v -47.146873 2.746644 3.550226
v -47.091759 1.845989 3.654159
v -47.049637 0.602015 3.809703
v -48.372845 1.794245 3.400198
v -48.332909 0.568956 3.482831
v -48.331486 -0.758521 3.796692
v -49.452930 0.562806 3.434791
v -49.423500 -0.778110 3.582479
v -49.379848 -1.996017 3.892165
v -50.129333 -0.764189 3.609043
v -50.063179 -1.991805 3.855996
v -49.992607 -2.878378 4.027205
v -49.320694 -2.890162 4.049963
v -49.963860 -3.437304 4.142385
v -49.293991 -3.441512 4.150939
v -49.968933 -3.915036 4.201344
v -50.423306 -2.874868 4.046687
v -50.490456 -1.985246 3.901485
v -50.874992 -1.999709 3.861966
v -50.838696 -2.884120 4.049036
v -51.076855 -2.057389 3.498078
v -51.024570 -2.931247 3.646589
v -51.055984 -2.111109 3.000015
v -50.906242 -2.931422 3.130656
v -50.897091 -3.435489 3.177062
v -50.992615 -2.947747 2.321594
v -50.923428 -3.416666 2.355611
v -50.701427 -3.724043 3.179962
v -51.011078 -2.957782 1.126462
v -51.044682 -2.164479 2.230437
v -51.138519 -2.219903 1.066361
v -51.039669 -2.238818 -0.295617
v -51.151348 -1.074631 0.948299
v -51.078274 -1.115793 -0.387824
v -50.988026 -1.133632 -1.723910
v -51.132488 0.163679 -0.503289
v -51.027344 0.124933 -1.833362
v -51.069878 0.073328 -2.988792
v -51.126461 1.193138 -1.933508
v -51.129395 1.121017 -3.102727
v -51.034119 1.066190 -3.894119
v -51.104378 0.030055 -3.768454
v -50.849026 1.020891 -4.358423
v -51.004055 -0.002614 -4.266165
v -50.774231 0.994142 -4.758814
v -50.826134 -0.033584 -4.636295
v -50.386936 1.005573 -4.679058
v -50.439236 -0.028912 -4.602484
v -49.943382 1.011188 -4.823715
v -49.972336 -0.022867 -4.629587
v -49.973366 -1.212412 -4.474588
v -49.202648 0.024617 -4.556388
v -49.200291 -1.203574 -4.437153
v -49.187687 -2.240384 -4.327949
v -48.043251 -1.169054 -4.346734
v -48.043736 -2.269475 -4.278666
v -48.055614 -2.946727 -4.147822
v -46.715950 -2.274060 -4.345790
v -46.720634 -2.982188 -4.135944
v -46.730213 -3.403490 -4.080339
v -45.411533 -2.975713 -4.135017
v -45.413277 -3.448443 -4.140406
v -45.422264 -3.811614 -3.997718
v -45.408302 -2.220365 -4.244902
v -44.316372 -2.190664 -4.284633
v -45.417297 -1.072734 -4.458772
v -44.305912 -1.022489 -4.391712
v -43.601910 -1.006794 -4.378932
v -44.345558 0.311600 -4.533804
v -43.634380 0.335135 -4.567020
v -43.203815 0.356053 -4.514755
v -43.165791 -1.008733 -4.373902
v -42.866203 0.374264 -4.417058
v -43.256252 1.621060 -4.641243
v -42.818001 1.653294 -4.549066
v -42.888908 1.654402 -4.088621
v -42.987923 2.558930 -4.437519
v -42.982098 2.537980 -4.056114
v -42.977539 2.543050 -3.587723
v -43.036240 3.075376 -3.566689
v -43.096695 3.079666 -2.841252
v -43.176399 3.443641 -3.568538
v -43.198597 3.448706 -2.845356
v -43.300755 3.366580 -1.720659
v -43.505363 3.672989 -2.867508
v -43.527363 3.574020 -1.724585
v -43.501221 3.507182 -0.380830
v -43.950825 3.642848 -1.743656
v -43.914417 3.572315 -0.400586
v -43.903736 3.592334 0.922142
v -44.614140 3.569352 -0.452613
v -44.596790 3.875086 0.835617
v -44.641521 3.946373 1.933438
v -45.763321 3.832397 0.737169
v -45.809452 4.014614 1.805436
v -45.856552 4.117239 2.529017
v -47.155220 3.989573 1.663636
v -47.196735 4.072780 2.391633
v -47.230167 4.038117 2.924730
v -45.897133 4.098690 3.052270
v -47.231224 3.763044 3.321551
v -45.919231 3.850922 3.469206
v -47.190578 3.310606 3.444251
v -48.504982 3.540793 3.093750
v -48.449425 3.142388 3.160702
v -48.404350 2.628125 3.238147
v -49.534985 2.964288 3.017125
v -49.479061 2.483145 3.021219
v -49.461422 1.718956 3.207599
v -50.186344 2.388932 3.015369
v -50.168957 1.664947 3.133852
v -50.162514 0.552577 3.381488
v -50.601551 1.627992 3.044379
v -50.583801 0.537085 3.315490
v -50.555744 -0.756181 3.647387
v -50.811565 0.491554 3.126802
v -50.908237 -0.772638 3.573344
v -50.970741 0.443953 2.909716
v -50.980881 -0.847560 3.216572
v -51.077442 0.370573 2.529681
v -51.093365 -0.916945 2.785143
v -51.199707 0.284900 1.875137
v -51.113232 -0.997838 2.068244
v -51.221313 0.208721 0.803566
v -51.302269 1.393601 1.707919
v -51.291946 1.321924 0.679063
v -51.191887 1.264195 -0.603681
v -51.328693 2.068204 0.598296
v -51.219856 1.985027 -0.669262
v -51.168968 1.888193 -2.002491
v -51.189022 2.445448 -0.708918
v -51.168816 2.338858 -2.047611
v -50.982971 2.205369 -3.213840
v -51.002563 1.788095 -3.168765
v -50.885822 2.116114 -4.009934
v -50.913239 1.716843 -3.965620
v -50.811577 1.659022 -4.436720
v -50.706722 1.622061 -4.799781
v -50.340874 1.624303 -4.833076
v -49.914009 2.104037 -4.856435
v -49.902348 1.672732 -4.757779
v -49.271275 2.218448 -5.074158
v -49.215614 1.775339 -4.890080
v -49.199867 1.074882 -4.873389
v -48.137012 1.967955 -4.915469
v -48.083790 1.214547 -4.836103
v -48.049980 0.082789 -4.643732
v -46.809986 1.401520 -4.634960
v -46.757347 0.208861 -4.393369
v -46.722786 -1.122201 -4.361233
v -45.459354 0.256574 -4.594321
v -45.518143 1.490864 -4.773858
v -44.409889 1.547708 -4.772429
v -45.557941 2.394985 -4.814576
v -44.455914 2.476670 -4.801606
v -43.779259 2.501154 -4.605751
v -43.701729 1.589141 -4.699234
v -43.348717 2.524715 -4.519723
v -43.831169 3.050499 -4.459241
v -44.471661 3.053725 -4.789186
v -44.504662 3.447289 -4.625823
v -43.812038 3.475323 -4.500253
v -44.560379 3.602913 -4.263057
v -43.877411 3.558195 -4.130064
v -44.607983 3.640418 -3.767447
v -43.925705 3.651453 -3.673882
v -43.516594 3.548763 -3.603933
v -43.955284 3.751452 -2.906539
v -44.647026 3.691408 -2.973799
v -44.642574 3.636918 -1.795206
v -45.716591 3.560745 -3.054822
v -45.730061 3.542845 -1.880127
v -45.738258 3.646664 -0.556135
v -47.066196 3.580936 -1.973957
v -47.087234 3.629420 -0.668983
v -47.109768 3.728219 0.625752
v -48.434731 3.527155 -0.753346
v -48.448322 3.616213 0.542998
v -48.459324 3.707063 1.585827
v -49.611504 3.541198 0.506169
v -49.551010 3.378991 1.538796
v -49.582134 3.498594 2.167527
v -48.489582 3.789562 2.267669
v -49.590954 3.464520 2.582737
v -48.500336 3.717032 2.731753
v -49.583092 3.304873 2.893553
v -50.309216 3.326597 2.491629
v -50.302120 3.206859 2.845902
v -50.227173 2.836107 2.934718
v -50.630322 2.335479 2.964108
v -51.016331 2.316144 2.903653
v -50.964474 1.606266 3.014041
v -51.336124 2.282028 2.648660
v -51.272552 1.540367 2.780342
v -51.311394 2.213268 2.217864
v -51.238327 1.475034 2.342335
v -51.255611 2.133063 1.596277
v -51.224384 2.657720 2.124608
v -51.173714 2.576540 1.531783
v -51.152939 2.500469 0.557192
v -50.954727 2.822166 1.501993
v -50.943371 2.744740 0.531282
v -51.215572 2.909635 -0.740875
v -50.702152 2.949029 0.519973
v -50.770245 3.035615 -0.765033
v -50.644821 2.739590 -2.068048
v -51.025520 2.691039 -2.079832
v -50.843746 2.490687 -3.231731
v -50.505501 2.526273 -3.205374
v -50.458874 2.647297 -4.006863
v -50.847805 2.500922 -4.051432
v -50.162590 2.704113 -2.042691
v -50.059601 2.625242 -3.179510
v -50.015465 2.717476 -3.975231
v -50.033138 2.786709 -4.531885
v -49.322983 2.698400 -3.147182
v -49.338142 2.804711 -3.965393
v -49.384701 2.933735 -4.528930
v -49.384632 2.774021 -5.088668
v -50.026875 2.562496 -5.009422
v -48.301098 3.080151 -3.951402
v -48.333271 3.201597 -4.519638
v -48.303490 3.018273 -5.112082
v -48.200420 2.449221 -5.018599
v -46.986919 3.226080 -4.466055
v -46.965126 3.205064 -4.987738
v -46.908798 2.721659 -4.925250
v -46.859447 2.214423 -4.819440
v -45.613327 3.375396 -4.813446
v -45.587776 2.947343 -4.799409
v -45.650330 3.425958 -4.382329
v -47.016880 3.428869 -3.929302
v -45.690414 3.567576 -3.870327
v -47.026253 3.360276 -3.103426
v -48.370674 3.316514 -3.166090
v -48.418819 3.475580 -2.055362
v -49.476398 3.038689 -2.070153
v -49.548691 3.254904 -0.777090
v -50.300365 3.135056 -0.782681
v -50.337982 3.252348 0.512130
v -50.681557 2.981720 1.498078
v -50.266808 3.148946 1.511943
v -50.667065 3.030056 2.076089
v -50.284065 3.252442 2.104508
v -50.946766 2.868330 2.078218
vt 0.703754 0.650781
vt 0.691237 0.650772
vt 0.693110 0.634560
vt 0.708377 0.636165
vt 0.026055 0.999500
vt 0.020739 0.985651
vt 0.035751 0.982538
vt 0.038380 0.998737
vt 0.706656 0.663805
vt 0.692222 0.665331
vt 0.697886 0.983905
vt 0.685563 0.983742
vt 0.686116 0.968678
vt 0.702573 0.973130
vt 0.334611 0.948442
vt 0.324294 0.952562
vt 0.323756 0.937071
vt 0.339266 0.937708
vt 0.691707 0.020941
vt 0.693375 0.032215
vt 0.677062 0.030132
vt 0.679711 0.017329
vt 0.353804 0.023431
vt 0.352865 0.035230
vt 0.337559 0.034040
vt 0.340527 0.020335
vt 0.388415 0.972787
vt 0.385022 0.961995
vt 0.397556 0.960097
vt 0.398601 0.973983
vt 0.367218 0.020079
vt 0.368452 0.034423
vt 0.368958 0.633010
vt 0.380391 0.632470
vt 0.379392 0.647005
vt 0.365705 0.645656
vt 0.013551 0.028730
vt 0.024106 0.024085
vt 0.026468 0.038913
vt 0.011041 0.040601
vt 0.364892 0.619669
vt 0.380064 0.617446
vt 0.019765 0.339416
vt 0.033007 0.338095
vt 0.032099 0.354681
vt 0.016217 0.353181
vt 0.378000 0.329910
vt 0.391175 0.328397
vt 0.390152 0.344129
vt 0.374155 0.342866
vt 0.006146 0.309101
vt 0.005296 0.296114
vt 0.021314 0.298403
vt 0.018186 0.313890
vt 0.345816 0.320894
vt 0.344594 0.304397
vt 0.362696 0.303219
vt 0.363678 0.321118
vt 0.343047 0.344022
vt 0.346953 0.359878
vt 0.330684 0.361526
vt 0.328798 0.342629
vt 0.330301 0.324844
vt 0.327679 0.305575
vt 0.017798 0.679074
vt 0.013297 0.666997
vt 0.027290 0.664946
vt 0.028651 0.679470
vt 0.027147 0.695341
vt 0.013929 0.692748
vt 0.688605 0.339989
vt 0.693897 0.350681
vt 0.680515 0.355084
vt 0.677929 0.339808
vt 0.343356 0.698931
vt 0.347596 0.709920
vt 0.331688 0.711500
vt 0.331706 0.698470
vt 0.333166 0.685156
vt 0.346827 0.687149
vt 0.685035 0.250756
vt 0.675465 0.255860
vt 0.671670 0.244045
vt 0.686919 0.240887
vt 0.654448 0.249393
vt 0.651674 0.232862
vt 0.670060 0.228748
vt 0.687128 0.226067
vt 0.659339 0.264071
vt 0.630677 0.273099
vt 0.626540 0.257256
vt 0.351803 0.668525
vt 0.335361 0.666850
vt 0.337915 0.635958
vt 0.355551 0.637563
vt 0.339881 0.587835
vt 0.359529 0.588708
vt 0.315007 0.664836
vt 0.316292 0.634532
vt 0.318506 0.586804
vt 0.320482 0.529615
vt 0.339720 0.530188
vt 0.283339 0.632444
vt 0.285704 0.585558
vt 0.288513 0.529233
vt 0.289240 0.471579
vt 0.320810 0.471444
vt 0.237012 0.584186
vt 0.239622 0.528520
vt 0.241108 0.471383
vt 0.240966 0.419439
vt 0.287851 0.420002
vt 0.182379 0.527271
vt 0.184895 0.470237
vt 0.186412 0.418833
vt 0.186980 0.382247
vt 0.240302 0.382766
vt 0.128745 0.468298
vt 0.131351 0.417508
vt 0.132889 0.381823
vt 0.133386 0.357812
vt 0.187283 0.359143
vt 0.083060 0.415223
vt 0.084900 0.379928
vt 0.085648 0.357437
vt 0.085359 0.339830
vt 0.133496 0.336804
vt 0.051465 0.377775
vt 0.052400 0.356093
vt 0.053108 0.339300
vt 0.038290 0.318951
vt 0.041220 0.302387
vt 0.074807 0.307503
vt 0.072299 0.324579
vt 0.076566 0.284827
vt 0.126320 0.287039
vt 0.124868 0.311326
vt 0.122744 0.332612
vt 0.043132 0.281302
vt 0.043878 0.247099
vt 0.077740 0.248973
vt 0.022925 0.278451
vt 0.023690 0.245618
vt 0.023830 0.197395
vt 0.044318 0.197911
vt 0.008489 0.277104
vt 0.009526 0.244916
vt 0.008227 0.197202
vt 0.004704 0.143527
vt 0.023830 0.143592
vt 0.368713 0.450158
vt 0.370083 0.398373
vt 0.385656 0.400194
vt 0.384099 0.451776
vt 0.381153 0.508745
vt 0.361804 0.507296
vt 0.401595 0.510118
vt 0.400627 0.560561
vt 0.380234 0.560057
vt 0.363847 0.559834
vt 0.403396 0.453552
vt 0.434716 0.456308
vt 0.432879 0.512661
vt 0.406282 0.402038
vt 0.437831 0.404994
vt 0.485172 0.408892
vt 0.482983 0.460498
vt 0.408353 0.366317
vt 0.440376 0.368636
vt 0.487065 0.372301
vt 0.540316 0.376143
vt 0.539601 0.412693
vt 0.441805 0.346693
vt 0.488171 0.350359
vt 0.541169 0.354283
vt 0.593446 0.356835
vt 0.592818 0.380522
vt 0.488829 0.336020
vt 0.540999 0.340282
vt 0.593680 0.337970
vt 0.635892 0.343681
vt 0.635568 0.358945
vt 0.008228 0.574974
vt 0.009801 0.518946
vt 0.023642 0.519251
vt 0.022493 0.575304
vt 0.023163 0.619979
vt 0.008945 0.620198
vt 0.041618 0.576374
vt 0.042026 0.620648
vt 0.043347 0.647951
vt 0.024915 0.647688
vt 0.008484 0.649072
vt 0.661429 0.340433
vt 0.662970 0.357720
vt 0.685422 0.375529
vt 0.665648 0.379096
vt 0.636352 0.380960
vt 0.670047 0.413084
vt 0.638696 0.415446
vt 0.593414 0.415744
vt 0.643160 0.465165
vt 0.595610 0.466149
vt 0.539357 0.464649
vt 0.596860 0.522749
vt 0.538867 0.521167
vt 0.481224 0.517050
vt 0.537319 0.572103
vt 0.479563 0.567596
vt 0.431604 0.562716
vt 0.477665 0.601958
vt 0.430144 0.595950
vt 0.399597 0.595164
vt 0.428513 0.616076
vt 0.398668 0.616103
vt 0.379912 0.595990
vt 0.363286 0.596979
vt 0.009703 0.061125
vt 0.026135 0.060498
vt 0.024855 0.094906
vt 0.009352 0.094964
vt 0.046041 0.057106
vt 0.044948 0.093197
vt 0.044571 0.143312
vt 0.078044 0.090234
vt 0.078021 0.142176
vt 0.078326 0.198214
vt 0.127963 0.140024
vt 0.128388 0.197370
vt 0.127869 0.249763
vt 0.184927 0.195198
vt 0.184284 0.248671
vt 0.182909 0.287168
vt 0.239199 0.246585
vt 0.237577 0.285576
vt 0.236513 0.310114
vt 0.181426 0.312191
vt 0.236556 0.328682
vt 0.180619 0.331828
vt 0.187888 0.341029
vt 0.240570 0.342378
vt 0.240130 0.360067
vt 0.284042 0.344911
vt 0.284657 0.361009
vt 0.285894 0.383622
vt 0.313224 0.361386
vt 0.315715 0.383617
vt 0.318584 0.419712
vt 0.333333 0.383471
vt 0.336806 0.419051
vt 0.339569 0.471131
vt 0.351239 0.418225
vt 0.351800 0.470860
vt 0.354272 0.530316
vt 0.527166 0.291470
vt 0.469635 0.298176
vt 0.467931 0.285060
vt 0.525217 0.276701
vt 0.581131 0.267703
vt 0.584906 0.286712
vt 0.522567 0.257422
vt 0.578034 0.248393
vt 0.623314 0.239402
vt 0.574698 0.218924
vt 0.620555 0.211290
vt 0.649905 0.206214
vt 0.618212 0.166556
vt 0.649448 0.163343
vt 0.669964 0.162028
vt 0.669353 0.203277
vt 0.687688 0.161589
vt 0.685893 0.201829
vt 0.349868 0.753564
vt 0.350963 0.797623
vt 0.333522 0.797398
vt 0.332864 0.754306
vt 0.332192 0.727779
vt 0.349988 0.726440
vt 0.311960 0.754096
vt 0.311431 0.727525
vt 0.311909 0.710927
vt 0.312499 0.697278
vt 0.279531 0.725489
vt 0.280181 0.709119
vt 0.281028 0.694962
vt 0.281631 0.680239
vt 0.313825 0.683140
vt 0.231601 0.705157
vt 0.232471 0.691792
vt 0.233005 0.677676
vt 0.233553 0.659649
vt 0.282279 0.662136
vt 0.174617 0.688662
vt 0.175510 0.675155
vt 0.176324 0.657405
vt 0.177609 0.628284
vt 0.234752 0.630364
vt 0.119106 0.670366
vt 0.119771 0.653001
vt 0.120334 0.625243
vt 0.122000 0.580151
vt 0.179735 0.582541
vt 0.072885 0.649702
vt 0.072323 0.622521
vt 0.072696 0.577868
vt 0.075670 0.522573
vt 0.124873 0.525146
vt 0.043166 0.520659
vt 0.046438 0.463007
vt 0.079664 0.465720
vt 0.024766 0.461281
vt 0.028620 0.410844
vt 0.049577 0.412771
vt 0.008212 0.460689
vt 0.011321 0.409348
vt 0.015395 0.374682
vt 0.030775 0.376272
vt 0.442704 0.329494
vt 0.409932 0.345128
vt 0.410720 0.329412
vt 0.388141 0.364842
vt 0.373307 0.363412
vt 0.073176 0.667173
vt 0.044444 0.665620
vt 0.072938 0.682952
vt 0.044894 0.680936
vt 0.072420 0.699708
vt 0.044169 0.697284
vt 0.071350 0.720454
vt 0.042430 0.718769
vt 0.024048 0.717229
vt 0.040459 0.753250
vt 0.022080 0.752654
vt 0.006391 0.752163
vt 0.005995 0.714978
vt 0.703799 0.370454
vt 0.708592 0.405932
vt 0.691842 0.409612
vt 0.718638 0.457707
vt 0.697327 0.460391
vt 0.675303 0.463049
vt 0.699034 0.519070
vt 0.678322 0.520463
vt 0.646182 0.522008
vt 0.677883 0.573390
vt 0.645454 0.574190
vt 0.595704 0.574821
vt 0.643725 0.610652
vt 0.594201 0.610976
vt 0.535681 0.606792
vt 0.593003 0.632063
vt 0.534395 0.626463
vt 0.476060 0.622309
vt 0.533399 0.640729
vt 0.475060 0.636208
vt 0.427561 0.632838
vt 0.475076 0.649402
vt 0.427396 0.649426
vt 0.397132 0.647619
vt 0.398092 0.631912
vt 0.427616 0.668625
vt 0.397022 0.667638
vt 0.378195 0.667026
vt 0.398065 0.700762
vt 0.377841 0.701130
vt 0.359648 0.700645
vt 0.362572 0.666027
vt 0.042288 0.017506
vt 0.075044 0.008559
vt 0.077709 0.027506
vt 0.045801 0.034270
vt 0.078357 0.051916
vt 0.126316 0.022034
vt 0.126812 0.047250
vt 0.127485 0.086639
vt 0.182785 0.044807
vt 0.183490 0.083436
vt 0.184640 0.136896
vt 0.239264 0.081559
vt 0.240585 0.134107
vt 0.240421 0.192440
vt 0.288429 0.132780
vt 0.286901 0.190662
vt 0.284334 0.244609
vt 0.316260 0.190055
vt 0.312527 0.243609
vt 0.309984 0.282146
vt 0.282279 0.283695
vt 0.309829 0.306533
vt 0.281684 0.307701
vt 0.311259 0.326956
vt 0.282204 0.324162
vt 0.311251 0.342067
vt 0.327583 0.281576
vt 0.330144 0.243534
vt 0.345905 0.243828
vt 0.344586 0.281350
vt 0.363072 0.243449
vt 0.362595 0.280493
vt 0.383552 0.242159
vt 0.383786 0.278167
vt 0.384303 0.299991
vt 0.416777 0.273277
vt 0.418266 0.293503
vt 0.420282 0.308431
vt 0.385814 0.314701
vt 0.346690 0.382554
vt 0.465828 0.266110
vt 0.415129 0.239373
vt 0.463053 0.233952
vt 0.519216 0.226785
vt 0.459829 0.184579
vt 0.515410 0.178563
vt 0.570730 0.172019
vt 0.512488 0.123511
vt 0.568504 0.118420
vt 0.616724 0.115047
vt 0.568188 0.072690
vt 0.617960 0.070922
vt 0.651526 0.071156
vt 0.649637 0.113914
vt 0.672591 0.071795
vt 0.671055 0.113597
vt 0.689745 0.072406
vt 0.688466 0.113541
vt 0.348496 0.849574
vt 0.345662 0.894243
vt 0.329112 0.893052
vt 0.332034 0.848772
vt 0.309504 0.892741
vt 0.312164 0.848126
vt 0.313007 0.796920
vt 0.279331 0.848184
vt 0.279806 0.796339
vt 0.279572 0.752518
vt 0.230021 0.796548
vt 0.230282 0.750636
vt 0.230781 0.721918
vt 0.173230 0.750430
vt 0.173512 0.719652
vt 0.173964 0.701825
vt 0.117329 0.720964
vt 0.117639 0.701638
vt 0.118191 0.685783
vt 0.116880 0.752537
vt 0.069757 0.753443
vt 0.116976 0.801242
vt 0.069235 0.803411
vt 0.039064 0.804561
vt 0.071723 0.860509
vt 0.041596 0.863097
vt 0.023240 0.864769
vt 0.020510 0.804955
vt 0.008391 0.866097
vt 0.000500 0.805839
vt 0.027670 0.919728
vt 0.008914 0.922639
vt 0.715183 0.518179
vt 0.718594 0.573034
vt 0.698847 0.572970
vt 0.712104 0.612435
vt 0.695965 0.611279
vt 0.676045 0.610925
vt 0.674080 0.633671
vt 0.642624 0.632669
vt 0.673170 0.650408
vt 0.641993 0.648460
vt 0.592238 0.645333
vt 0.641251 0.664055
vt 0.591711 0.658758
vt 0.532977 0.654890
vt 0.591180 0.677364
vt 0.532764 0.672515
vt 0.475412 0.668088
vt 0.532944 0.702230
vt 0.476031 0.699915
vt 0.428889 0.700268
vt 0.477950 0.748983
vt 0.431563 0.749186
vt 0.400387 0.750038
vt 0.434203 0.805645
vt 0.403292 0.806286
vt 0.380795 0.807264
vt 0.378194 0.751050
vt 0.360384 0.808798
vt 0.357823 0.751320
vt 0.125151 0.001395
vt 0.182743 0.000500
vt 0.182637 0.020366
vt 0.239988 0.005630
vt 0.239060 0.022917
vt 0.238821 0.045127
vt 0.287335 0.027588
vt 0.286428 0.048234
vt 0.286799 0.082052
vt 0.316876 0.051202
vt 0.317161 0.083082
vt 0.319358 0.132438
vt 0.335829 0.083626
vt 0.338186 0.132506
vt 0.334026 0.190062
vt 0.351577 0.132859
vt 0.348925 0.190795
vt 0.363860 0.132983
vt 0.364270 0.190660
vt 0.381769 0.133279
vt 0.382980 0.190055
vt 0.411158 0.132418
vt 0.412995 0.188475
vt 0.457081 0.128864
vt 0.412760 0.083854
vt 0.456476 0.080638
vt 0.511256 0.076028
vt 0.456130 0.048392
vt 0.511087 0.045133
vt 0.568866 0.042946
vt 0.511308 0.025427
vt 0.569585 0.023856
vt 0.621367 0.024498
vt 0.619927 0.042230
vt 0.656400 0.026967
vt 0.654474 0.043741
vt 0.675102 0.045748
vt 0.691185 0.047441
vt 0.340947 0.921252
vt 0.325485 0.920014
vt 0.306558 0.939100
vt 0.306800 0.920528
vt 0.278932 0.944136
vt 0.277653 0.923799
vt 0.278044 0.894125
vt 0.232634 0.930453
vt 0.231117 0.898426
vt 0.230294 0.850095
vt 0.176967 0.904359
vt 0.174518 0.853858
vt 0.173232 0.798331
vt 0.118945 0.857151
vt 0.122777 0.909697
vt 0.076308 0.913663
vt 0.125888 0.947753
vt 0.080495 0.952746
vt 0.051251 0.956138
vt 0.046482 0.917103
vt 0.032839 0.958818
vt 0.054254 0.980258
vt 0.017453 0.961958
vt 0.083091 0.976824
vt 0.084643 0.994689
vt 0.055877 0.998347
vt 0.710680 0.682244
vt 0.713922 0.712941
vt 0.697091 0.713449
vt 0.694296 0.683474
vt 0.675894 0.713454
vt 0.674259 0.684034
vt 0.673334 0.665702
vt 0.641267 0.682945
vt 0.641754 0.712122
vt 0.591033 0.707178
vt 0.641593 0.757781
vt 0.591196 0.753934
vt 0.534181 0.750161
vt 0.590317 0.810585
vt 0.534771 0.807647
vt 0.479648 0.805832
vt 0.534396 0.864888
vt 0.479640 0.862616
vt 0.435186 0.861822
vt 0.478449 0.911417
vt 0.435103 0.910286
vt 0.408260 0.909954
vt 0.405904 0.862036
vt 0.390639 0.910883
vt 0.385966 0.862945
vt 0.375867 0.912496
vt 0.369057 0.864804
vt 0.394437 0.941961
vt 0.378947 0.944109
vt 0.288900 0.012144
vt 0.321116 0.015122
vt 0.318442 0.031380
vt 0.335814 0.052679
vt 0.351938 0.053368
vt 0.351013 0.083894
vt 0.368446 0.053232
vt 0.367376 0.084070
vt 0.386406 0.052735
vt 0.385793 0.084666
vt 0.413052 0.051302
vt 0.386132 0.033070
vt 0.412610 0.031733
vt 0.455828 0.028261
vt 0.412268 0.017690
vt 0.455004 0.014529
vt 0.511452 0.005686
vt 0.527418 0.985655
vt 0.475385 0.977344
vt 0.476555 0.964025
vt 0.529018 0.966155
vt 0.583586 0.967891
vt 0.582737 0.984096
vt 0.570850 0.007757
vt 0.622628 0.011100
vt 0.631350 0.967344
vt 0.631086 0.981763
vt 0.664766 0.967261
vt 0.664534 0.984910
vt 0.585242 0.947644
vt 0.631998 0.948095
vt 0.665477 0.948136
vt 0.688487 0.950654
vt 0.633712 0.917439
vt 0.667688 0.919040
vt 0.691749 0.922562
vt 0.715668 0.927764
vt 0.709792 0.956512
vt 0.670903 0.873320
vt 0.694822 0.876345
vt 0.720823 0.879742
vt 0.238295 0.975108
vt 0.234730 0.950883
vt 0.282623 0.967680
vt 0.699211 0.819222
vt 0.721378 0.821077
vt 0.184455 0.981563
vt 0.181848 0.960832
vt 0.179438 0.939183
vt 0.129943 0.989219
vt 0.128035 0.971151
vt 0.717965 0.761559
vt 0.699382 0.761058
vt 0.674785 0.816781
vt 0.676609 0.759934
vt 0.639507 0.813806
vt 0.636233 0.870560
vt 0.589066 0.867457
vt 0.587247 0.915751
vt 0.532966 0.913349
vt 0.530895 0.945839
vt 0.477625 0.944035
vt 0.436661 0.961114
vt 0.436005 0.942160
vt 0.412883 0.960103
vt 0.410902 0.941457
vt 0.436434 0.974517
vt 0.413315 0.973839
vt 0.385510 0.018051
vt 0.309041 0.959938
vt 0.658719 0.010718
vn 0.9426 0.3334 -0.0192
vn 0.3706 0.4075 -0.8346
vn 0.3076 0.9340 -0.1817
vn -0.6211 0.6731 -0.4016
vn -0.1055 0.0503 -0.9931
vn -0.9197 0.3220 -0.2246
vn -0.2766 0.4635 0.8418
vn -0.4555 0.8597 0.2311
vn -0.6081 0.6766 0.4152
vn 0.3934 0.8677 0.3040
vn 0.1099 0.3296 0.9377
vn 0.8387 0.4550 0.2991
vn 0.4800 -0.7284 0.4889
vn 0.9456 -0.1825 0.2694
vn 0.1229 0.0512 0.9911
vn -0.9440 -0.2736 0.1845
vn -0.1113 -0.9933 0.0296
vn -0.1439 -0.0900 0.9855
vn 0.3271 -0.8846 -0.3324
vn 0.3363 -0.5138 -0.7893
vn 0.7190 -0.5151 -0.4666
vn -0.1555 -0.6543 -0.7401
vn -0.2002 -0.8480 -0.4908
vn -0.8137 -0.4895 -0.3135
vn -0.9998 -0.0021 -0.0212
vn -0.9841 -0.0907 -0.1528
vn -0.9679 -0.1782 -0.1775
vn -0.9969 -0.0117 -0.0778
vn -0.2783 -0.9299 -0.2405
vn -0.3024 -0.9489 -0.0907
vn -0.0333 -0.9737 -0.2255
vn -0.0385 -0.9947 -0.0954
vn -0.1078 -0.9853 0.1324
vn 0.0663 -0.9915 -0.1120
vn 0.0658 -0.9890 0.1325
vn -0.0778 -0.9914 0.1051
vn -0.0210 -0.9983 0.0540
vn -0.1035 -0.9941 0.0320
vn -0.0720 -0.9909 -0.1137
vn -0.0262 -0.9995 0.0167
vn 0.0313 -0.9995 -0.0091
vn 0.0644 -0.9955 -0.0699
vn -0.0822 -0.9955 -0.0463
vn -0.1541 -0.9850 -0.0778
vn -0.1153 -0.9930 0.0259
vn 0.0235 -0.9993 0.0299
vn 0.1073 -0.9884 0.1080
vn 0.1647 -0.9115 0.3768
vn 0.1806 -0.9758 0.1230
vn 0.1743 -0.8725 0.4565
vn 0.0404 0.3190 0.9469
vn 0.1294 -0.8395 0.5277
vn -0.0025 0.2483 0.9687
vn 0.2540 0.0036 0.9672
vn 0.2489 0.0386 0.9678
vn 0.2039 -0.0503 0.9777
vn 0.3033 0.0271 0.9525
vn -0.0006 0.1677 0.9858
vn 0.0572 0.0224 0.9981
vn -0.0270 0.0199 0.9994
vn 0.1091 0.0526 0.9926
vn 0.1832 -0.0142 0.9830
vn 0.0031 0.0081 1.0000
vn 0.8753 0.0700 0.4784
vn 0.9855 -0.0372 0.1658
vn 0.9999 0.0135 -0.0077
vn 0.9275 0.1317 0.3498
vn 0.9994 -0.0263 -0.0217
vn 0.9972 -0.0591 0.0447
vn 0.9909 0.1341 -0.0146
vn 0.9916 0.1005 -0.0819
vn 0.9949 0.0499 0.0877
vn 0.9993 -0.0193 -0.0311
vn 0.9905 -0.1160 -0.0742
vn 0.9756 -0.2195 0.0031
vn 0.9745 -0.1424 -0.1731
vn 0.9970 -0.0618 0.0477
vn 0.9642 0.0187 0.2645
vn 0.9857 -0.1636 0.0412
vn 0.7406 -0.6590 0.1317
vn 0.6492 -0.7532 -0.1058
vn 0.4393 -0.8971 -0.0471
vn 0.2636 -0.9645 -0.0171
vn 0.3518 -0.9352 -0.0406
vn 0.1346 -0.9854 0.1039
vn 0.2615 -0.9417 0.2116
vn 0.2840 -0.9535 -0.1013
vn 0.8527 -0.4689 -0.2305
vn 0.8700 -0.4830 0.0993
vn 0.9657 -0.2057 -0.1585
vn 0.9926 -0.1194 0.0205
vn 0.9904 -0.0151 0.1371
vn 0.9901 0.0987 -0.0995
vn 0.9855 -0.0430 -0.1641
vn 0.9949 0.0501 -0.0879
vn 0.9975 0.0515 0.0477
vn 0.9883 -0.0127 0.1517
vn 0.9880 0.1035 0.1147
vn 0.9865 0.1078 -0.1234
vn 0.9985 0.0226 -0.0503
vn 0.9887 0.1118 -0.1000
vn 0.9802 0.1660 -0.1078
vn 0.9992 -0.0259 0.0302
vn 0.9929 0.1105 -0.0446
vn 0.9612 0.2606 -0.0910
vn 0.9977 0.0653 0.0163
vn 0.9997 -0.0123 0.0220
vn 0.9824 0.1745 -0.0661
vn 0.9724 0.2269 -0.0534
vn 0.9037 0.2514 0.3466
vn 0.8717 0.1447 0.4682
vn 0.0227 0.1373 0.9903
vn 0.0619 0.0434 0.9971
vn -0.0996 0.0210 0.9948
vn -0.1275 0.0755 0.9890
vn -0.0391 0.1228 0.9917
vn 0.0460 0.0920 0.9947
vn 0.1144 0.1051 0.9879
vn -0.1166 0.0549 0.9917
vn -0.0259 0.1445 0.9892
vn 0.0311 0.1808 0.9830
vn 0.2377 0.0916 0.9670
vn 0.0221 0.2211 0.9750
vn 0.0166 0.1210 0.9925
vn 0.1195 0.0770 0.9898
vn -0.0939 0.1378 0.9860
vn -0.0945 0.1817 0.9788
vn 0.0200 0.2105 0.9774
vn -0.0620 -0.3036 0.9508
vn 0.0025 -0.3135 0.9496
vn 0.0066 -0.9874 0.1581
vn -0.0549 -0.9709 0.2332
vn -0.0291 -0.9678 0.2500
vn -0.0135 -0.9998 -0.0117
vn 0.0306 -0.9995 -0.0004
vn -0.0112 -0.9983 -0.0577
vn -0.0626 -0.9962 -0.0600
vn -0.0268 -0.9992 -0.0298
vn -0.0171 -0.9991 -0.0391
vn 0.2049 -0.9635 -0.1722
vn -0.1373 -0.9742 -0.1792
vn -0.2654 -0.9595 -0.0943
vn -0.1565 -0.9863 0.0513
vn 0.1287 -0.9865 0.1014
vn -0.8844 -0.4629 0.0597
vn -0.9524 -0.2913 0.0896
vn -0.1849 -0.9772 0.1045
vn -0.9806 0.1872 0.0573
vn -0.9763 0.1656 -0.1390
vn -0.9859 -0.1010 -0.1334
vn -0.9943 -0.0739 -0.0771
vn -0.9899 -0.1404 -0.0187
vn -0.9974 0.0704 -0.0172
vn -0.9927 -0.1143 -0.0374
vn -0.9862 -0.1302 -0.1028
vn -0.9942 -0.0857 -0.0644
vn -0.9585 -0.1198 -0.2587
vn -0.9905 -0.0382 -0.1323
vn -0.1317 -0.1700 -0.9766
vn -0.0973 -0.1746 -0.9798
vn -0.1235 -0.1478 -0.9813
vn 0.1636 -0.1996 -0.9661
vn 0.1138 0.0077 -0.9935
vn -0.0839 -0.5030 -0.8602
vn -0.0412 -0.0066 -0.9991
vn -0.0624 -0.2763 -0.9590
vn -0.1091 -0.9559 -0.2726
vn 0.0565 -0.1814 -0.9818
vn -0.0216 -0.9921 -0.1235
vn 0.0051 -0.9884 -0.1519
vn -0.0385 -0.9926 -0.1155
vn -0.0498 -0.9905 -0.1283
vn -0.0565 -0.9829 -0.1753
vn -0.0570 -0.9983 -0.0134
vn 0.0702 -0.9974 -0.0184
vn 0.1515 -0.9870 0.0535
vn 0.0125 -0.9944 0.1052
vn -0.0879 -0.9955 -0.0357
vn -0.1428 -0.9838 -0.1080
vn -0.0543 -0.9949 -0.0850
vn 0.0928 -0.9952 -0.0300
vn 0.0970 -0.9852 -0.1415
vn 0.2143 -0.9762 -0.0328
vn 0.1234 -0.9784 -0.1660
vn 0.2618 -0.9576 0.1205
vn 0.7809 -0.6224 -0.0526
vn 0.6589 -0.7522 0.0065
vn 0.4141 -0.9033 0.1125
vn 0.9815 -0.1212 -0.1484
vn 0.9801 -0.1911 0.0545
vn 0.9881 -0.1508 0.0316
vn 0.9902 -0.1294 -0.0520
vn 0.9660 -0.2517 -0.0595
vn 0.9957 -0.0806 -0.0453
vn 0.7472 0.0159 0.6644
vn 0.9126 0.0614 0.4041
vn 0.0956 -0.9927 0.0736
vn 0.2384 -0.9619 0.1337
vn 0.5230 -0.8523 0.0043
vn 0.1505 -0.9760 0.1575
vn 0.0590 -0.9967 0.0550
vn -0.1255 -0.9902 -0.0610
vn -0.1653 -0.9843 -0.0620
vn 0.0249 -0.9997 0.0015
vn 0.1010 -0.9927 -0.0662
vn -0.0823 -0.9964 0.0197
vn 0.0234 -0.9886 0.1491
vn -0.0170 -0.9927 0.1195
vn 0.1158 -0.9721 -0.2038
vn 0.0601 -0.9568 -0.2844
vn -0.0055 -1.0000 0.0013
vn 0.2347 -0.4493 -0.8620
vn 0.1215 -0.4766 -0.8707
vn 0.1569 -0.1522 -0.9758
vn 0.0742 -0.2976 -0.9518
vn -0.0130 -0.2596 -0.9656
vn 0.2034 -0.1739 -0.9635
vn 0.0951 -0.4607 -0.8824
vn 0.9013 -0.0689 -0.4277
vn 0.8445 -0.4293 -0.3202
vn 0.9287 -0.1423 -0.3423
vn 0.9960 0.0378 -0.0815
vn 0.9803 -0.1368 -0.1423
vn 0.9898 0.1418 -0.0147
vn 0.9929 0.0763 0.0916
vn 0.9700 0.1158 0.2137
vn 0.9824 0.1864 0.0150
vn 0.9745 0.2115 -0.0745
vn 0.9962 0.0132 -0.0864
vn 0.9841 0.1753 -0.0292
vn 0.9832 0.1816 -0.0179
vn 0.9865 0.1340 0.0938
vn 0.9819 0.1748 -0.0725
vn 0.9863 0.1227 -0.1103
vn 0.9952 0.0622 -0.0751
vn 0.9653 0.2593 -0.0324
vn 0.9428 0.3038 -0.1369
vn 0.9998 0.0186 -0.0122
vn 0.3464 0.9147 -0.2082
vn 0.3610 0.9276 0.0965
vn 0.9728 0.2021 0.1136
vn 0.4103 0.9112 0.0376
vn 0.9355 0.3406 0.0944
vn 0.2914 0.9560 0.0330
vn 0.3639 0.9314 0.0060
vn 0.1920 0.9779 0.0826
vn 0.1465 0.9080 0.3925
vn 0.2867 0.8748 0.3906
vn 0.0623 0.1088 0.9921
vn 0.0402 0.1451 0.9886
vn 0.0841 0.1089 0.9905
vn -0.0530 0.1123 0.9923
vn -0.0068 0.1126 0.9936
vn 0.0549 0.0646 0.9964
vn 0.0566 0.0117 0.9983
vn -0.0723 0.1175 0.9904
vn 0.0010 0.0416 0.9991
vn 0.0374 0.0292 0.9989
vn -0.2228 0.0863 0.9710
vn -0.1821 0.1623 0.9698
vn 0.0525 0.1301 0.9901
vn -0.1180 0.1679 0.9787
vn -0.1784 0.2250 0.9579
vn -0.1127 0.2148 0.9701
vn -0.0038 0.2218 0.9751
vn -0.0406 0.1787 0.9831
vn -0.1654 0.1594 0.9733
vn -0.0206 0.1901 0.9816
vn -0.1551 0.1528 0.9760
vn 0.0358 0.0552 0.9978
vn -0.1213 -0.1039 0.9872
vn -0.0647 0.0602 0.9961
vn -0.0955 -0.9953 0.0154
vn 0.0505 -0.9806 0.1895
vn 0.0268 0.1889 0.9816
vn -0.0510 0.1810 0.9822
vn -0.0277 0.1499 0.9883
vn 0.0764 0.1806 0.9806
vn -0.8938 0.0402 0.4467
vn -0.9393 -0.0801 0.3337
vn -0.9822 -0.1381 -0.1275
vn -0.9832 -0.1232 -0.1347
vn -0.9949 -0.0744 0.0687
vn -0.8775 -0.4760 0.0588
vn -0.8903 -0.4278 -0.1562
vn -0.3904 -0.9186 0.0615
vn -0.1895 -0.9651 -0.1808
vn -0.9890 -0.1474 0.0155
vn -0.8990 -0.4379 -0.0065
vn -0.9924 -0.1121 0.0504
vn -0.9854 -0.1591 -0.0606
vn -0.9998 0.0211 0.0036
vn -0.9976 -0.0285 -0.0629
vn -0.9983 -0.0221 -0.0532
vn -0.9987 -0.0506 0.0083
vn -0.9965 -0.0431 -0.0721
vn -0.9982 -0.0052 0.0597
vn -0.9983 -0.0446 0.0382
vn -0.9971 -0.0724 0.0234
vn -0.9993 0.0007 -0.0387
vn -0.9999 -0.0092 0.0124
vn -0.9544 0.0738 -0.2891
vn -0.9864 -0.0366 -0.1601
vn -0.9469 0.0625 -0.3153
vn -0.9242 -0.0327 -0.3804
vn 0.1465 -0.1024 -0.9839
vn 0.0032 -0.0867 -0.9962
vn -0.1825 -0.1205 -0.9758
vn 0.0331 -0.0945 -0.9950
vn 0.1592 -0.1572 -0.9747
vn 0.0752 -0.1123 -0.9908
vn -0.0025 -0.1431 -0.9897
vn -0.0675 -0.1672 -0.9836
vn 0.0606 -0.0822 -0.9948
vn 0.0484 -0.1733 -0.9837
vn 0.0746 -0.0844 -0.9936
vn -0.0237 -0.2385 -0.9709
vn 0.0090 -0.1205 -0.9927
vn 0.0270 -0.1786 -0.9836
vn -0.0233 -0.0558 -0.9982
vn -0.0378 -0.3134 -0.9489
vn -0.0788 -0.9793 -0.1864
vn 0.0638 -0.4192 -0.9056
vn 0.0243 -0.9856 -0.1676
vn 0.0378 -0.0116 -0.9992
vn 0.0429 -0.2135 -0.9760
vn -0.0001 -0.1871 -0.9823
vn 0.0173 -0.1373 -0.9904
vn 0.0427 -0.1049 -0.9936
vn 0.0676 -0.2316 -0.9705
vn -0.0109 -0.1227 -0.9924
vn 0.0681 -0.1186 -0.9906
vn -0.0269 -0.1029 -0.9943
vn 0.0418 -0.0402 -0.9983
vn 0.1331 -0.1963 -0.9715
vn 0.2426 -0.0977 -0.9652
vn 0.9989 0.0056 0.0473
vn 0.9804 0.1353 -0.1435
vn 0.9871 0.1388 0.0796
vn 0.9916 0.0278 0.1261
vn 0.9896 0.1081 0.0947
vn 0.9958 0.0906 0.0106
vn 0.9847 -0.0217 0.1728
vn 0.9868 0.0427 0.1560
vn 0.9487 0.3119 0.0521
vn 0.9799 0.1389 0.1429
vn 0.9940 0.0500 0.0968
vn 0.6234 0.7760 0.0961
vn 0.4699 0.8824 -0.0223
vn 0.9951 -0.0058 -0.0986
vn 0.1558 0.9867 0.0468
vn 0.2370 0.9715 0.0097
vn 0.2846 0.9577 0.0419
vn 0.2072 0.9705 -0.1233
vn 0.3033 0.9465 -0.1101
vn 0.2649 0.9444 -0.1947
vn 0.0221 0.9931 -0.1153
vn 0.0892 0.9907 -0.1023
vn 0.2271 0.9728 -0.0463
vn -0.0124 0.9917 -0.1277
vn -0.0439 0.9979 0.0472
vn 0.1096 0.9900 0.0885
vn -0.1028 0.8382 0.5356
vn 0.0644 0.8946 0.4422
vn -0.1106 0.2154 0.9703
vn -0.0196 0.1661 0.9859
vn -0.2222 0.1881 0.9567
vn -0.2434 0.1432 0.9593
vn -0.0815 0.1465 0.9859
vn -0.1734 0.0629 0.9828
vn -0.2020 0.2027 0.9582
vn -0.2243 0.1368 0.9649
vn -0.0758 0.1984 0.9772
vn -0.0966 0.2033 0.9743
vn -0.1120 0.1260 0.9857
vn -0.1879 0.2231 0.9565
vn -0.0337 0.2087 0.9774
vn -0.0183 0.1394 0.9901
vn -0.4208 0.2745 0.8646
vn -0.1575 0.2070 0.9656
vn 0.0991 0.2039 0.9740
vn -0.9281 0.1405 0.3449
vn -0.9357 0.1030 0.3375
vn -0.9662 0.0642 0.2497
vn -0.9948 0.0433 0.0923
vn -0.9945 -0.0091 0.1042
vn -0.9990 -0.0433 0.0097
vn -0.9979 -0.0567 0.0312
vn -0.9979 -0.0279 0.0593
vn -0.9970 -0.0763 0.0107
vn -0.9954 -0.0656 -0.0700
vn -0.9968 -0.0543 -0.0593
vn -0.9956 -0.0518 -0.0787
vn -0.9978 -0.0535 -0.0402
vn -0.9951 -0.0783 -0.0606
vn -0.9991 0.0313 -0.0290
vn -0.9887 0.0069 -0.1500
vn -0.9958 0.0543 -0.0737
vn -0.9917 0.0439 -0.1205
vn -0.9771 0.1704 -0.1271
vn -0.9645 0.0787 -0.2521
vn -0.9503 0.0818 -0.3003
vn -0.9709 0.0688 -0.2294
vn -0.9706 0.0585 -0.2333
vn 0.0024 -0.0411 -0.9992
vn 0.0637 -0.1599 -0.9851
vn 0.0551 -0.0974 -0.9937
vn -0.0744 -0.0634 -0.9952
vn -0.1932 -0.3153 -0.9291
vn -0.1305 0.0382 -0.9907
vn 0.0326 -0.2385 -0.9706
vn 0.0153 -0.0652 -0.9978
vn -0.0017 -0.2273 -0.9738
vn 0.0080 -0.1655 -0.9862
vn 0.1911 -0.1733 -0.9662
vn 0.0974 -0.1243 -0.9875
vn -0.0302 -0.0371 -0.9989
vn -0.1112 -0.0657 -0.9916
vn 0.0052 -0.0992 -0.9951
vn -0.1190 -0.1751 -0.9773
vn 0.0358 -0.1651 -0.9856
vn 0.0617 -0.1016 -0.9929
vn 0.0089 -0.0377 -0.9993
vn 0.1884 0.0469 -0.9810
vn 0.0345 -0.1454 -0.9888
vn 0.1528 0.1303 -0.9796
vn 0.1300 -0.0952 -0.9869
vn 0.0050 0.1188 -0.9929
vn 0.3304 0.0735 -0.9410
vn 0.1985 0.1535 -0.9680
vn 0.3644 0.1515 -0.9188
vn 0.3175 0.1455 -0.9370
vn 0.0707 0.1633 -0.9840
vn 0.0677 0.9520 -0.2986
vn 0.1154 0.9603 -0.2541
vn 0.0462 0.9903 -0.1314
vn 0.1429 0.9865 -0.0803
vn 0.2214 0.9649 -0.1412
vn 0.4577 0.8859 -0.0750
vn 0.3325 0.9429 0.0183
vn -0.0400 0.9944 -0.0979
vn -0.0535 0.9961 0.0696
vn 0.1598 0.9831 0.0897
vn -0.1059 0.9939 0.0302
vn -0.0064 0.9999 -0.0135
vn -0.0102 0.9986 0.0516
vn 0.0122 0.9983 -0.0577
vn -0.0356 0.9933 -0.1099
vn 0.0313 0.9819 -0.1868
vn -0.0748 0.9945 -0.0731
vn -0.1355 0.9763 -0.1689
vn -0.0275 0.9779 -0.2072
vn -0.1772 0.9834 0.0380
vn -0.2593 0.9526 -0.1590
vn -0.2020 0.9715 -0.1245
vn -0.2520 0.9614 0.1109
vn -0.2394 0.9664 0.0933
vn -0.2638 0.8625 0.4318
vn -0.2589 0.8310 0.4923
vn -0.1856 0.9045 0.3841
vn -0.1302 0.2629 0.9560
vn -0.1939 0.2193 0.9562
vn -0.3077 0.2737 0.9113
vn -0.1652 0.1899 0.9678
vn -0.0758 0.0828 0.9937
vn -0.1915 0.2451 0.9504
vn -0.1262 0.1252 0.9841
vn -0.1702 0.1301 0.9768
vn -0.6202 0.0808 0.7803
vn -0.6852 -0.0614 0.7257
vn -0.3579 0.1332 0.9242
vn -0.9936 -0.1007 -0.0519
vn -0.9750 -0.1880 0.1183
vn -0.9998 -0.0165 0.0086
vn -0.9837 -0.0924 0.1541
vn -0.9800 0.1672 -0.1081
vn -0.9592 0.2828 0.0052
vn -0.9995 0.0106 0.0302
vn -0.7547 0.6529 -0.0640
vn -0.9577 0.2578 0.1275
vn -0.9743 0.2219 -0.0401
vn -0.4229 0.8946 0.1443
vn -0.2051 0.9558 -0.2107
vn -0.9866 0.1337 -0.0937
vn -0.9018 0.3841 -0.1983
vn -0.1041 0.9761 -0.1910
vn -0.2487 0.9659 0.0717
vn -0.0603 0.9892 -0.1335
vn -0.1929 0.9740 0.1191
vn -0.3144 0.9493 -0.0029
vn -0.1154 0.9861 0.1192
vn -0.1728 0.9681 0.1813
vn -0.2705 0.9023 -0.3356
vn -0.2476 0.9422 0.2257
vn -0.2257 0.9321 -0.2834
vn 0.0345 -0.0889 -0.9954
vn -0.0651 0.9810 -0.1829
vn 0.1044 -0.1303 -0.9860
vn 0.1109 -0.1934 -0.9748
vn 0.1219 -0.0722 -0.9899
vn 0.0620 -0.0805 -0.9948
vn 0.0725 0.1833 -0.9804
vn 0.0084 0.0248 -0.9997
vn -0.1282 0.9883 -0.0822
vn -0.0729 0.9632 -0.2587
vn -0.1029 0.9430 -0.3165
vn -0.0939 0.9788 -0.1822
vn -0.1292 0.9907 0.0427
vn -0.0915 0.9953 -0.0310
vn -0.1433 0.9836 -0.1094
vn -0.0454 0.9846 -0.1687
vn -0.0563 0.9945 -0.0888
vn -0.4518 0.8598 -0.2379
vn -0.3069 0.9456 -0.1080
vn -0.0742 0.9965 -0.0393
vn -0.2947 0.9202 -0.2575
vn -0.2631 0.9515 -0.1592
vn -0.1453 0.9785 -0.1467
vn -0.4350 0.9004 -0.0056
vn -0.5166 0.8545 0.0545
vn -0.3369 0.9306 0.1434
vn -0.4308 0.8948 -0.1171
vn -0.3026 0.9354 -0.1829
vn -0.4331 0.8672 -0.2458
vn -0.2546 0.9652 -0.0590
vn -0.5020 0.8627 -0.0609
vn -0.4898 0.8237 -0.2858
vn -0.6815 0.7244 -0.1038
vn -0.6392 0.7331 -0.2323
vn -0.5778 0.8150 -0.0433
vn -0.0621 0.9585 -0.2782
vn -0.2687 0.9402 -0.2091
vn -0.4083 0.9086 -0.0876
vn -0.1381 0.9878 -0.0724
vn 0.1403 -0.1555 -0.9778
vn -0.0375 -0.1319 -0.9906
vn 0.0701 -0.2877 -0.9551
vn -0.1420 -0.2654 -0.9536
vn -0.4978 0.7560 -0.4250
vn -0.1728 -0.1979 -0.9649
vn -0.9206 0.1437 -0.3631
vn -0.9660 0.2495 -0.0679
vn -0.4969 0.8073 -0.3184
vn -0.9832 0.1521 -0.1006
vn -0.6455 0.2652 0.7162
vn -0.4567 0.8395 0.2945
vn 0.9350 0.3532 0.0329
vn 0.9950 0.0936 -0.0348
vn -0.9917 -0.1176 0.0523
vn -0.0207 -0.9998 -0.0057
vn -0.0383 -0.9991 0.0159
vn 0.0080 -0.9989 -0.0471
vn -0.0010 -0.9909 -0.1349
vn -0.0010 -0.9927 -0.1209
vn -0.0343 -0.9739 -0.2242
vn -0.1576 -0.9534 -0.2573
vn -0.1918 -0.8728 -0.4488
vn -0.1552 -0.9867 -0.0478
vn -0.0031 0.2316 0.9728
vn -0.1848 -0.9340 -0.3057
usemtl Material.001
s off
f 1/1/1 2/2/1 3/3/1 4/4/1
f 1/5/2 4/6/2 5/7/2 6/8/2
f 1/1/3 6/9/3 7/10/3 2/2/3
f 8/11/4 9/12/4 10/13/4 11/14/4
f 8/15/5 11/16/5 12/17/5 13/18/5
f 8/19/6 13/20/6 14/21/6 9/22/6
f 15/23/7 16/24/7 17/25/7 18/26/7
f 15/27/8 18/28/8 19/29/8 20/30/8
f 15/23/9 20/31/9 21/32/9 16/24/9
f 22/33/10 23/34/10 24/35/10 25/36/10
f 22/37/11 25/38/11 26/39/11 27/40/11
f 22/33/12 27/41/12 28/42/12 23/34/12
f 29/43/13 30/44/13 31/45/13 32/46/13
f 29/47/14 32/48/14 33/49/14 34/50/14
f 29/51/15 34/52/15 35/53/15 30/54/15
f 36/55/16 37/56/16 38/57/16 39/58/16
f 36/59/17 39/60/17 40/61/17 41/62/17
f 36/55/18 41/63/18 42/64/18 37/56/18
f 43/65/19 44/66/19 45/67/19 46/68/19
f 43/65/20 46/68/20 47/69/20 48/70/20
f 43/71/21 48/72/21 49/73/21 44/74/21
f 50/75/22 51/76/22 52/77/22 53/78/22
f 50/75/23 53/78/23 54/79/23 55/80/23
f 50/81/24 55/82/24 56/83/24 51/84/24
f 56/83/25 57/85/25 58/86/25 59/87/25
f 56/83/26 59/87/26 60/88/26 51/84/26
f 56/83/27 55/82/27 61/89/27 57/85/27
f 61/89/28 62/90/28 63/91/28 57/85/28
f 61/92/29 64/93/29 65/94/29 62/95/29
f 65/94/30 66/96/30 67/97/30 62/95/30
f 65/94/31 64/93/31 68/98/31 69/99/31
f 65/94/32 69/99/32 70/100/32 66/96/32
f 70/100/33 71/101/33 72/102/33 66/96/33
f 70/100/34 69/99/34 73/103/34 74/104/34
f 70/100/35 74/104/35 75/105/35 71/101/35
f 75/105/36 76/106/36 77/107/36 71/101/36
f 75/105/37 74/104/37 78/108/37 79/109/37
f 75/105/38 79/109/38 80/110/38 76/106/38
f 80/110/39 81/111/39 82/112/39 76/106/39
f 80/110/40 79/109/40 83/113/40 84/114/40
f 80/110/41 84/114/41 85/115/41 81/111/41
f 85/115/42 86/116/42 87/117/42 81/111/42
f 85/115/43 84/114/43 88/118/43 89/119/43
f 85/115/44 89/119/44 90/120/44 86/116/44
f 90/120/45 91/121/45 92/122/45 86/116/45
f 90/120/46 89/119/46 93/123/46 94/124/46
f 90/120/47 94/124/47 95/125/47 91/121/47
f 95/125/48 96/126/48 97/127/48 91/121/48
f 95/125/49 94/124/49 98/128/49 99/129/49
f 95/125/50 99/129/50 100/130/50 96/126/50
f 100/131/51 101/132/51 102/133/51 96/134/51
f 100/130/52 99/129/52 31/45/52 30/44/52
f 100/131/53 30/54/53 35/53/53 101/132/53
f 102/133/54 103/135/54 104/136/54 105/137/54
f 102/133/55 105/137/55 97/138/55 96/134/55
f 102/133/56 101/132/56 106/139/56 103/135/56
f 106/139/57 107/140/57 108/141/57 103/135/57
f 106/139/58 101/132/58 35/53/58 109/142/58
f 106/139/59 109/142/59 110/143/59 107/140/59
f 110/143/60 111/144/60 112/145/60 107/140/60
f 110/143/61 109/142/61 113/146/61 114/147/61
f 110/143/62 114/147/62 115/148/62 111/144/62
f 115/148/63 116/149/63 117/150/63 111/144/63
f 115/151/64 114/152/64 118/153/64 119/154/64
f 115/151/65 119/154/65 120/155/65 116/156/65
f 120/155/66 121/157/66 122/158/66 123/159/66
f 120/155/67 123/159/67 124/160/67 116/156/67
f 120/155/68 119/154/68 125/161/68 121/157/68
f 125/161/69 126/162/69 127/163/69 121/157/69
f 125/161/70 119/154/70 118/153/70 128/164/70
f 125/161/71 128/164/71 129/165/71 126/162/71
f 129/165/72 130/166/72 131/167/72 126/162/72
f 129/165/73 128/164/73 132/168/73 133/169/73
f 129/165/74 133/169/74 134/170/74 130/166/74
f 134/170/75 135/171/75 136/172/75 130/166/75
f 134/170/76 133/169/76 137/173/76 138/174/76
f 134/170/77 138/174/77 139/175/77 135/171/77
f 139/175/78 140/176/78 141/177/78 135/171/78
f 139/175/79 138/174/79 142/178/79 143/179/79
f 139/175/80 143/179/80 144/180/80 140/176/80
f 144/180/81 145/181/81 146/182/81 140/176/81
f 144/183/82 143/184/82 147/185/82 148/186/82
f 144/183/83 148/186/83 149/187/83 145/188/83
f 149/187/84 148/186/84 150/189/84 151/190/84
f 149/187/85 151/190/85 152/191/85 153/192/85
f 149/187/86 153/192/86 154/193/86 145/188/86
f 154/193/87 153/192/87 45/67/87 44/66/87
f 154/194/88 44/74/88 49/73/88 155/195/88
f 154/194/89 155/195/89 146/182/89 145/181/89
f 155/195/90 49/73/90 156/196/90 157/197/90
f 155/195/91 157/197/91 158/198/91 146/182/91
f 158/198/92 157/197/92 159/199/92 160/200/92
f 158/198/93 160/200/93 161/201/93 141/177/93
f 158/198/94 141/177/94 140/176/94 146/182/94
f 161/201/95 160/200/95 162/202/95 163/203/95
f 161/201/96 163/203/96 164/204/96 136/172/96
f 161/201/97 136/172/97 135/171/97 141/177/97
f 164/204/98 163/203/98 165/205/98 166/206/98
f 164/204/99 166/206/99 167/207/99 131/167/99
f 164/204/100 131/167/100 130/166/100 136/172/100
f 167/207/101 166/206/101 168/208/101 169/209/101
f 167/207/102 169/209/102 170/210/102 127/163/102
f 167/207/103 127/163/103 126/162/103 131/167/103
f 170/210/104 169/209/104 171/211/104 172/212/104
f 170/210/105 172/212/105 173/213/105 122/158/105
f 170/210/106 122/158/106 121/157/106 127/163/106
f 173/213/107 172/212/107 174/214/107 175/215/107
f 173/213/108 175/215/108 28/42/108 176/216/108
f 173/213/109 176/216/109 123/159/109 122/158/109
f 176/216/110 28/42/110 27/41/110 177/217/110
f 176/216/111 177/217/111 124/160/111 123/159/111
f 177/218/112 27/40/112 26/39/112 178/219/112
f 177/218/113 178/219/113 179/220/113 124/221/113
f 179/220/114 178/219/114 180/222/114 181/223/114
f 179/220/115 181/223/115 182/224/115 117/150/115
f 179/220/116 117/150/116 116/149/116 124/221/116
f 182/224/117 181/223/117 183/225/117 184/226/117
f 182/224/118 184/226/118 185/227/118 112/145/118
f 182/224/119 112/145/119 111/144/119 117/150/119
f 185/227/120 184/226/120 186/228/120 187/229/120
f 185/227/121 187/229/121 188/230/121 108/141/121
f 185/227/122 108/141/122 107/140/122 112/145/122
f 188/230/123 187/229/123 189/231/123 190/232/123
f 188/230/124 190/232/124 191/233/124 104/136/124
f 188/230/125 104/136/125 103/135/125 108/141/125
f 191/233/126 190/232/126 192/234/126 193/235/126
f 191/233/127 193/235/127 194/236/127 195/237/127
f 191/233/128 195/237/128 105/137/128 104/136/128
f 195/237/129 194/236/129 196/238/129 197/239/129
f 195/237/130 197/239/130 97/138/130 105/137/130
f 197/240/131 196/241/131 198/242/131 92/122/131
f 197/240/132 92/122/132 91/121/132 97/127/132
f 198/242/133 196/241/133 199/243/133 200/244/133
f 198/242/134 200/244/134 201/245/134 87/117/134
f 198/242/135 87/117/135 86/116/135 92/122/135
f 201/245/136 200/244/136 202/246/136 203/247/136
f 201/245/137 203/247/137 204/248/137 82/112/137
f 201/245/138 82/112/138 81/111/138 87/117/138
f 204/248/139 203/247/139 205/249/139 206/250/139
f 204/248/140 206/250/140 207/251/140 77/107/140
f 204/248/141 77/107/141 76/106/141 82/112/141
f 207/251/142 206/250/142 208/252/142 209/253/142
f 207/251/143 209/253/143 210/254/143 72/102/143
f 207/251/144 72/102/144 71/101/144 77/107/144
f 210/255/145 209/256/145 211/257/145 212/258/145
f 210/255/146 212/258/146 213/259/146 67/260/146
f 210/254/147 67/97/147 66/96/147 72/102/147
f 213/259/148 212/258/148 214/261/148 215/262/148
f 213/259/149 215/262/149 216/263/149 63/91/149
f 213/259/150 63/91/150 62/90/150 67/260/150
f 216/263/151 215/262/151 217/264/151 218/265/151
f 216/263/152 218/265/152 219/266/152 58/86/152
f 216/263/153 58/86/153 57/85/153 63/91/153
f 219/266/154 218/265/154 220/267/154 221/268/154
f 219/266/155 221/268/155 222/269/155 223/270/155
f 219/266/156 223/270/156 59/87/156 58/86/156
f 223/270/157 222/269/157 224/271/157 225/272/157
f 223/270/158 225/272/158 60/88/158 59/87/158
f 225/273/159 224/274/159 226/275/159 227/276/159
f 225/273/160 227/276/160 228/277/160 60/278/160
f 228/277/161 52/77/161 51/76/161 60/278/161
f 228/277/162 227/276/162 229/279/162 230/280/162
f 228/277/163 230/280/163 231/281/163 52/77/163
f 231/281/164 232/282/164 53/78/164 52/77/164
f 231/281/165 230/280/165 233/283/165 234/284/165
f 231/281/166 234/284/166 235/285/166 232/282/166
f 235/285/167 236/286/167 237/287/167 232/282/167
f 235/285/168 234/284/168 238/288/168 239/289/168
f 235/285/169 239/289/169 240/290/169 236/286/169
f 240/290/170 241/291/170 242/292/170 236/286/170
f 240/290/171 239/289/171 243/293/171 244/294/171
f 240/290/172 244/294/172 245/295/172 241/291/172
f 245/295/173 246/296/173 247/297/173 241/291/173
f 245/295/174 244/294/174 248/298/174 249/299/174
f 245/295/175 249/299/175 250/300/175 246/296/175
f 250/300/176 251/301/176 252/302/176 246/296/176
f 250/300/177 249/299/177 253/303/177 254/304/177
f 250/300/178 254/304/178 255/305/178 251/301/178
f 255/305/179 256/306/179 257/307/179 251/301/179
f 255/305/180 254/304/180 151/190/180 150/189/180
f 255/305/181 150/189/181 258/308/181 256/306/181
f 258/308/182 259/309/182 260/310/182 256/306/182
f 258/308/183 150/189/183 148/186/183 147/185/183
f 258/308/184 147/185/184 261/311/184 259/309/184
f 261/311/185 262/312/185 263/313/185 259/309/185
f 261/311/186 147/185/186 143/184/186 142/314/186
f 261/311/187 142/314/187 264/315/187 262/312/187
f 264/315/188 265/316/188 266/317/188 262/312/188
f 264/318/189 142/178/189 138/174/189 137/173/189
f 264/318/190 137/173/190 267/319/190 265/320/190
f 267/319/191 137/173/191 133/169/191 132/168/191
f 267/319/192 132/168/192 268/321/192 33/49/192
f 267/319/193 33/49/193 32/48/193 265/320/193
f 268/321/194 132/168/194 128/164/194 118/153/194
f 268/321/195 118/153/195 114/152/195 113/322/195
f 268/321/196 113/322/196 34/50/196 33/49/196
f 266/317/197 31/45/197 99/129/197 98/128/197
f 266/317/198 98/128/198 263/313/198 262/312/198
f 266/317/199 265/316/199 32/46/199 31/45/199
f 263/313/200 98/128/200 94/124/200 93/123/200
f 263/313/201 93/123/201 260/310/201 259/309/201
f 260/310/202 93/123/202 89/119/202 88/118/202
f 260/310/203 88/118/203 257/307/203 256/306/203
f 257/307/204 88/118/204 84/114/204 83/113/204
f 257/307/205 83/113/205 252/302/205 251/301/205
f 254/304/206 253/303/206 152/191/206 151/190/206
f 253/303/207 249/299/207 248/298/207 269/323/207
f 253/303/208 269/323/208 270/324/208 152/191/208
f 270/324/209 269/323/209 271/325/209 272/326/209
f 270/324/210 272/326/210 46/68/210 45/67/210
f 270/324/211 45/67/211 153/192/211 152/191/211
f 272/326/212 271/325/212 273/327/212 274/328/212
f 272/326/213 274/328/213 47/69/213 46/68/213
f 274/328/214 273/327/214 275/329/214 276/330/214
f 274/328/215 276/330/215 277/331/215 47/69/215
f 277/331/216 276/330/216 278/332/216 279/333/216
f 277/331/217 279/333/217 280/334/217 281/335/217
f 277/331/218 281/335/218 48/70/218 47/69/218
f 281/336/219 280/337/219 282/338/219 156/196/219
f 281/336/220 156/196/220 49/73/220 48/72/220
f 282/338/221 280/337/221 283/339/221 284/340/221
f 282/338/222 284/340/222 285/341/222 159/199/222
f 282/338/223 159/199/223 157/197/223 156/196/223
f 285/341/224 284/340/224 286/342/224 287/343/224
f 285/341/225 287/343/225 288/344/225 162/202/225
f 285/341/226 162/202/226 160/200/226 159/199/226
f 288/344/227 287/343/227 289/345/227 290/346/227
f 288/344/228 290/346/228 291/347/228 165/205/228
f 288/344/229 165/205/229 163/203/229 162/202/229
f 291/347/230 290/346/230 292/348/230 293/349/230
f 291/347/231 293/349/231 294/350/231 168/208/231
f 291/347/232 168/208/232 166/206/232 165/205/232
f 294/350/233 293/349/233 295/351/233 296/352/233
f 294/350/234 296/352/234 297/353/234 171/211/234
f 294/350/235 171/211/235 169/209/235 168/208/235
f 297/353/236 296/352/236 298/354/236 299/355/236
f 297/353/237 299/355/237 300/356/237 174/214/237
f 297/353/238 174/214/238 172/212/238 171/211/238
f 300/356/239 299/355/239 301/357/239 302/358/239
f 300/356/240 302/358/240 303/359/240 304/360/240
f 300/356/241 304/360/241 175/215/241 174/214/241
f 304/360/242 303/359/242 24/35/242 23/34/242
f 304/360/243 23/34/243 28/42/243 175/215/243
f 303/359/244 302/358/244 305/361/244 306/362/244
f 303/359/245 306/362/245 307/363/245 24/35/245
f 307/363/246 306/362/246 308/364/246 309/365/246
f 307/363/247 309/365/247 310/366/247 311/367/247
f 307/363/248 311/367/248 25/36/248 24/35/248
f 311/368/249 310/369/249 312/370/249 313/371/249
f 311/368/250 313/371/250 26/39/250 25/38/250
f 313/371/251 312/370/251 314/372/251 180/222/251
f 313/371/252 180/222/252 178/219/252 26/39/252
f 314/372/253 312/370/253 315/373/253 316/374/253
f 314/372/254 316/374/254 317/375/254 183/225/254
f 314/372/255 183/225/255 181/223/255 180/222/255
f 317/375/256 316/374/256 318/376/256 319/377/256
f 317/375/257 319/377/257 320/378/257 186/228/257
f 317/375/258 186/228/258 184/226/258 183/225/258
f 320/378/259 319/377/259 321/379/259 322/380/259
f 320/378/260 322/380/260 323/381/260 189/231/260
f 320/378/261 189/231/261 187/229/261 186/228/261
f 323/381/262 322/380/262 324/382/262 325/383/262
f 323/381/263 325/383/263 326/384/263 192/234/263
f 323/381/264 192/234/264 190/232/264 189/231/264
f 326/384/265 325/383/265 327/385/265 328/386/265
f 326/384/266 328/386/266 329/387/266 330/388/266
f 326/384/267 330/388/267 193/235/267 192/234/267
f 330/388/268 329/387/268 331/389/268 332/390/268
f 330/388/269 332/390/269 194/236/269 193/235/269
f 332/390/270 331/389/270 333/391/270 199/392/270
f 332/390/271 199/392/271 196/238/271 194/236/271
f 333/391/272 331/389/272 42/64/272 41/63/272
f 333/393/273 41/62/273 40/61/273 202/246/273
f 333/393/274 202/246/274 200/244/274 199/243/274
f 331/389/275 329/387/275 334/394/275 42/64/275
f 334/394/276 335/395/276 336/396/276 337/397/276
f 334/394/277 337/397/277 37/56/277 42/64/277
f 334/394/278 329/387/278 328/386/278 335/395/278
f 337/397/279 336/396/279 338/398/279 339/399/279
f 337/397/280 339/399/280 38/57/280 37/56/280
f 339/399/281 338/398/281 340/400/281 341/401/281
f 339/399/282 341/401/282 342/402/282 38/57/282
f 342/402/283 341/401/283 343/403/283 344/404/283
f 342/402/284 344/404/284 208/405/284 345/406/284
f 342/402/285 345/406/285 39/58/285 38/57/285
f 345/407/286 208/252/286 206/250/286 205/249/286
f 345/407/287 205/249/287 40/61/287 39/60/287
f 344/404/288 343/403/288 346/408/288 211/257/288
f 344/404/289 211/257/289 209/256/289 208/405/289
f 346/408/290 343/403/290 347/409/290 348/410/290
f 346/408/291 348/410/291 349/411/291 214/261/291
f 346/408/292 214/261/292 212/258/292 211/257/292
f 349/411/293 348/410/293 350/412/293 351/413/293
f 349/411/294 351/413/294 352/414/294 217/264/294
f 349/411/295 217/264/295 215/262/295 214/261/295
f 352/414/296 351/413/296 353/415/296 354/416/296
f 352/414/297 354/416/297 355/417/297 220/267/297
f 352/414/298 220/267/298 218/265/298 217/264/298
f 355/417/299 354/416/299 356/418/299 357/419/299
f 355/417/300 357/419/300 358/420/300 359/421/300
f 355/417/301 359/421/301 221/268/301 220/267/301
f 359/421/302 358/420/302 360/422/302 361/423/302
f 359/421/303 361/423/303 222/269/303 221/268/303
f 361/423/304 360/422/304 362/424/304 363/425/304
f 361/423/305 363/425/305 224/271/305 222/269/305
f 363/426/306 362/427/306 364/428/306 365/429/306
f 363/426/307 365/429/307 226/275/307 224/274/307
f 365/429/308 364/428/308 366/430/308 367/431/308
f 365/429/309 367/431/309 368/432/309 226/275/309
f 368/432/310 229/279/310 227/276/310 226/275/310
f 368/432/311 367/431/311 369/433/311 370/434/311
f 368/432/312 370/434/312 371/435/312 229/279/312
f 371/435/313 233/283/313 230/280/313 229/279/313
f 371/435/314 370/434/314 372/436/314 373/437/314
f 371/435/315 373/437/315 374/438/315 233/283/315
f 374/438/316 238/288/316 234/284/316 233/283/316
f 374/438/317 373/437/317 375/439/317 376/440/317
f 374/438/318 376/440/318 377/441/318 238/288/318
f 377/441/319 243/293/319 239/289/319 238/288/319
f 377/441/320 376/440/320 378/442/320 379/443/320
f 377/441/321 379/443/321 380/444/321 243/293/321
f 380/444/322 248/298/322 244/294/322 243/293/322
f 380/444/323 379/443/323 273/327/323 271/325/323
f 380/444/324 271/325/324 269/323/324 248/298/324
f 379/443/325 378/442/325 275/329/325 273/327/325
f 378/442/326 376/440/326 375/439/326 381/445/326
f 378/442/327 381/445/327 382/446/327 275/329/327
f 382/446/328 381/445/328 383/447/328 384/448/328
f 382/446/329 384/448/329 385/449/329 278/332/329
f 382/446/330 278/332/330 276/330/330 275/329/330
f 385/449/331 384/448/331 386/450/331 387/451/331
f 385/449/332 387/451/332 388/452/332 389/453/332
f 385/449/333 389/453/333 279/333/333 278/332/333
f 389/453/334 388/452/334 390/454/334 283/455/334
f 389/453/335 283/455/335 280/334/335 279/333/335
f 390/454/336 388/452/336 391/456/336 392/457/336
f 390/458/337 392/459/337 393/460/337 286/342/337
f 390/458/338 286/342/338 284/340/338 283/339/338
f 393/460/339 392/459/339 394/461/339 395/462/339
f 393/460/340 395/462/340 396/463/340 289/345/340
f 393/460/341 289/345/341 287/343/341 286/342/341
f 396/463/342 395/462/342 3/3/342 397/464/342
f 396/463/343 397/464/343 398/465/343 292/348/343
f 396/463/344 292/348/344 290/346/344 289/345/344
f 398/465/345 397/464/345 399/466/345 400/467/345
f 398/465/346 400/467/346 401/468/346 295/351/346
f 398/465/347 295/351/347 293/349/347 292/348/347
f 401/468/348 400/467/348 402/469/348 403/470/348
f 401/468/349 403/470/349 404/471/349 298/354/349
f 401/468/350 298/354/350 296/352/350 295/351/350
f 404/471/351 403/470/351 405/472/351 406/473/351
f 404/471/352 406/473/352 407/474/352 301/357/352
f 404/471/353 301/357/353 299/355/353 298/354/353
f 407/474/354 406/473/354 408/475/354 409/476/354
f 407/474/355 409/476/355 410/477/355 305/361/355
f 407/474/356 305/361/356 302/358/356 301/357/356
f 410/477/357 409/476/357 411/478/357 412/479/357
f 410/477/358 412/479/358 413/480/358 308/364/358
f 410/477/359 308/364/359 306/362/359 305/361/359
f 413/480/360 412/479/360 414/481/360 415/482/360
f 413/480/361 415/482/361 416/483/361 417/484/361
f 413/480/362 417/484/362 309/365/362 308/364/362
f 417/484/363 416/483/363 418/485/363 419/486/363
f 417/484/364 419/486/364 310/366/364 309/365/364
f 419/487/365 418/488/365 420/489/365 315/373/365
f 419/487/366 315/373/366 312/370/366 310/369/366
f 420/489/367 418/488/367 421/490/367 422/491/367
f 420/489/368 422/491/368 423/492/368 318/376/368
f 420/489/369 318/376/369 316/374/369 315/373/369
f 423/492/370 422/491/370 424/493/370 425/494/370
f 423/492/371 425/494/371 426/495/371 321/379/371
f 423/492/372 321/379/372 319/377/372 318/376/372
f 426/495/373 425/494/373 427/496/373 428/497/373
f 426/495/374 428/497/374 429/498/374 324/382/374
f 426/495/375 324/382/375 322/380/375 321/379/375
f 429/498/376 428/497/376 430/499/376 431/500/376
f 429/498/377 431/500/377 432/501/377 327/385/377
f 429/498/378 327/385/378 325/383/378 324/382/378
f 432/501/379 431/500/379 433/502/379 434/503/379
f 432/501/380 434/503/380 336/396/380 335/395/380
f 432/501/381 335/395/381 328/386/381 327/385/381
f 434/503/382 433/502/382 435/504/382 436/505/382
f 434/503/383 436/505/383 338/398/383 336/396/383
f 436/505/384 435/504/384 437/506/384 438/507/384
f 436/505/385 438/507/385 340/400/385 338/398/385
f 438/507/386 437/506/386 439/508/386 440/509/386
f 438/507/387 440/509/387 347/409/387 340/400/387
f 440/509/388 439/508/388 441/510/388 350/412/388
f 440/509/389 350/412/389 348/410/389 347/409/389
f 441/510/390 439/508/390 442/511/390 443/512/390
f 441/510/391 443/512/391 444/513/391 353/415/391
f 441/510/392 353/415/392 351/413/392 350/412/392
f 444/513/393 443/512/393 445/514/393 446/515/393
f 444/513/394 446/515/394 447/516/394 356/418/394
f 444/513/395 356/418/395 354/416/395 353/415/395
f 447/516/396 446/515/396 448/517/396 449/518/396
f 447/516/397 449/518/397 450/519/397 451/520/397
f 447/516/398 451/520/398 357/419/398 356/418/398
f 451/520/399 450/519/399 452/521/399 453/522/399
f 451/520/400 453/522/400 358/420/400 357/419/400
f 453/522/401 452/521/401 14/21/401 454/523/401
f 453/522/402 454/523/402 360/422/402 358/420/402
f 454/523/403 14/21/403 13/20/403 455/524/403
f 454/523/404 455/524/404 362/424/404 360/422/404
f 455/525/405 13/18/405 12/17/405 456/526/405
f 455/525/406 456/526/406 364/428/406 362/427/406
f 456/526/407 12/17/407 457/527/407 458/528/407
f 456/526/408 458/528/408 366/430/408 364/428/408
f 458/528/409 457/527/409 459/529/409 460/530/409
f 458/528/410 460/530/410 461/531/410 366/430/410
f 461/531/411 369/433/411 367/431/411 366/430/411
f 461/531/412 460/530/412 462/532/412 463/533/412
f 461/531/413 463/533/413 464/534/413 369/433/413
f 464/534/414 372/436/414 370/434/414 369/433/414
f 464/534/415 463/533/415 465/535/415 466/536/415
f 464/534/416 466/536/416 467/537/416 372/436/416
f 467/537/417 375/439/417 373/437/417 372/436/417
f 467/537/418 466/536/418 468/538/418 383/447/418
f 467/537/419 383/447/419 381/445/419 375/439/419
f 468/538/420 466/536/420 465/535/420 469/539/420
f 468/538/421 469/539/421 470/540/421 386/450/421
f 468/538/422 386/450/422 384/448/422 383/447/422
f 470/540/423 469/539/423 471/541/423 472/542/423
f 470/540/424 472/542/424 473/543/424 474/544/424
f 470/540/425 474/544/425 387/451/425 386/450/425
f 474/544/426 473/543/426 475/545/426 391/456/426
f 474/544/427 391/456/427 388/452/427 387/451/427
f 475/545/428 473/543/428 476/546/428 5/7/428
f 475/545/429 5/7/429 4/6/429 394/547/429
f 475/545/430 394/547/430 392/457/430 391/456/430
f 476/546/431 473/543/431 472/542/431 477/548/431
f 476/546/432 477/548/432 478/549/432 479/550/432
f 476/546/433 479/550/433 6/8/433 5/7/433
f 479/551/434 478/552/434 480/553/434 481/554/434
f 479/551/435 481/554/435 7/10/435 6/9/435
f 481/554/436 480/553/436 482/555/436 483/556/436
f 481/554/437 483/556/437 484/557/437 7/10/437
f 484/557/438 483/556/438 485/558/438 402/469/438
f 484/557/439 402/469/439 400/467/439 399/466/439
f 484/557/440 399/466/440 2/2/440 7/10/440
f 485/558/441 483/556/441 482/555/441 486/559/441
f 485/558/442 486/559/442 487/560/442 405/472/442
f 485/558/443 405/472/443 403/470/443 402/469/443
f 487/560/444 486/559/444 488/561/444 489/562/444
f 487/560/445 489/562/445 490/563/445 408/475/445
f 487/560/446 408/475/446 406/473/446 405/472/446
f 490/563/447 489/562/447 491/564/447 492/565/447
f 490/563/448 492/565/448 493/566/448 411/478/448
f 490/563/449 411/478/449 409/476/449 408/475/449
f 493/566/450 492/565/450 494/567/450 495/568/450
f 493/566/451 495/568/451 496/569/451 414/481/451
f 493/566/452 414/481/452 412/479/452 411/478/452
f 496/569/453 495/568/453 497/570/453 498/571/453
f 496/569/454 498/571/454 499/572/454 500/573/454
f 496/569/455 500/573/455 415/482/455 414/481/455
f 500/573/456 499/572/456 501/574/456 502/575/456
f 500/573/457 502/575/457 416/483/457 415/482/457
f 502/575/458 501/574/458 503/576/458 421/577/458
f 502/575/459 421/577/459 418/485/459 416/483/459
f 503/576/460 501/574/460 504/578/460 505/579/460
f 503/580/461 505/581/461 506/582/461 424/493/461
f 503/580/462 424/493/462 422/491/462 421/490/462
f 506/582/463 505/581/463 18/26/463 17/25/463
f 506/582/464 17/25/464 507/583/464 427/496/464
f 506/582/465 427/496/465 425/494/465 424/493/465
f 507/583/466 17/25/466 16/24/466 508/584/466
f 507/583/467 508/584/467 509/585/467 430/499/467
f 507/583/468 430/499/468 428/497/468 427/496/468
f 509/585/469 508/584/469 510/586/469 511/587/469
f 509/585/470 511/587/470 435/504/470 433/502/470
f 509/585/471 433/502/471 431/500/471 430/499/471
f 511/587/472 510/586/472 512/588/472 513/589/472
f 511/587/473 513/589/473 437/506/473 435/504/473
f 513/589/474 512/588/474 514/590/474 442/511/474
f 513/589/475 442/511/475 439/508/475 437/506/475
f 514/590/476 512/588/476 515/591/476 516/592/476
f 514/590/477 516/592/477 517/593/477 445/514/477
f 514/590/478 445/514/478 443/512/478 442/511/478
f 517/593/479 516/592/479 518/594/479 519/595/479
f 517/593/480 519/595/480 520/596/480 448/517/480
f 517/593/481 448/517/481 446/515/481 445/514/481
f 520/597/482 519/598/482 521/599/482 522/600/482
f 520/597/483 522/600/483 523/601/483 524/602/483
f 520/596/484 524/603/484 449/518/484 448/517/484
f 524/603/485 525/604/485 450/519/485 449/518/485
f 524/602/486 523/601/486 526/605/486 525/606/486
f 526/605/487 527/607/487 528/608/487 525/606/487
f 526/605/488 523/601/488 529/609/488 530/610/488
f 526/605/489 530/610/489 531/611/489 527/607/489
f 531/611/490 532/612/490 10/13/490 527/607/490
f 531/611/491 530/610/491 533/613/491 534/614/491
f 531/611/492 534/614/492 535/615/492 532/612/492
f 535/615/493 536/616/493 537/617/493 532/612/493
f 535/615/494 534/614/494 538/618/494 539/619/494
f 535/615/495 539/619/495 540/620/495 536/616/495
f 540/621/496 541/622/496 459/529/496 536/623/496
f 540/620/497 539/619/497 542/624/497 543/625/497
f 540/621/498 543/626/498 544/627/498 541/622/498
f 544/627/499 545/628/499 462/532/499 541/622/499
f 544/627/500 543/626/500 546/629/500 547/630/500
f 544/627/501 547/630/501 471/541/501 545/628/501
f 547/630/502 546/629/502 478/549/502 477/548/502
f 547/630/503 477/548/503 472/542/503 471/541/503
f 546/631/504 543/625/504 542/624/504 548/632/504
f 546/631/505 548/632/505 480/553/505 478/552/505
f 548/632/506 542/624/506 549/633/506 550/634/506
f 548/632/507 550/634/507 482/555/507 480/553/507
f 550/634/508 549/633/508 551/635/508 488/561/508
f 550/634/509 488/561/509 486/559/509 482/555/509
f 551/635/510 549/633/510 538/618/510 552/636/510
f 551/635/511 552/636/511 553/637/511 491/564/511
f 551/635/512 491/564/512 489/562/512 488/561/512
f 553/637/513 552/636/513 533/613/513 554/638/513
f 553/637/514 554/638/514 555/639/514 494/567/514
f 553/637/515 494/567/515 492/565/515 491/564/515
f 555/639/516 554/638/516 529/609/516 556/640/516
f 555/639/517 556/640/517 557/641/517 497/570/517
f 555/639/518 497/570/518 495/568/518 494/567/518
f 557/641/519 556/640/519 522/600/519 521/599/519
f 557/641/520 521/599/520 558/642/520 559/643/520
f 557/641/521 559/643/521 498/571/521 497/570/521
f 559/643/522 558/642/522 560/644/522 561/645/522
f 559/643/523 561/645/523 499/572/523 498/571/523
f 561/645/524 560/644/524 19/29/524 504/578/524
f 561/645/525 504/578/525 501/574/525 499/572/525
f 560/644/526 558/642/526 518/646/526 562/647/526
f 560/644/527 562/647/527 20/30/527 19/29/527
f 562/648/528 518/594/528 516/592/528 515/591/528
f 562/648/529 515/591/529 21/32/529 20/31/529
f 558/642/530 521/599/530 519/598/530 518/646/530
f 556/640/531 529/609/531 523/601/531 522/600/531
f 554/638/532 533/613/532 530/610/532 529/609/532
f 552/636/533 538/618/533 534/614/533 533/613/533
f 549/633/534 542/624/534 539/619/534 538/618/534
f 545/628/535 465/535/535 463/533/535 462/532/535
f 545/628/536 471/541/536 469/539/536 465/535/536
f 541/622/537 462/532/537 460/530/537 459/529/537
f 537/649/538 457/527/538 12/17/538 11/16/538
f 537/617/539 11/14/539 10/13/539 532/612/539
f 537/649/540 536/623/540 459/529/540 457/527/540
f 528/650/541 9/22/541 14/21/541 452/521/541
f 528/650/542 452/521/542 450/519/542 525/604/542
f 528/608/543 527/607/543 10/13/543 9/12/543
f 515/591/544 512/588/544 510/586/544 21/32/544
f 510/586/545 508/584/545 16/24/545 21/32/545
f 505/579/546 504/578/546 19/29/546 18/28/546
f 399/466/547 397/464/547 3/3/547 2/2/547
f 395/462/548 394/461/548 4/4/548 3/3/548
f 347/409/549 343/403/549 341/401/549 340/400/549
f 252/302/550 83/113/550 79/109/550 78/108/550
f 252/302/551 78/108/551 247/297/551 246/296/551
f 247/297/552 78/108/552 74/104/552 73/103/552
f 247/297/553 73/103/553 242/292/553 241/291/553
f 242/292/554 73/103/554 69/99/554 68/98/554
f 242/292/555 68/98/555 237/287/555 236/286/555
f 237/287/556 68/98/556 64/93/556 54/79/556
f 237/287/557 54/79/557 53/78/557 232/282/557
f 205/249/558 203/247/558 202/246/558 40/61/558
f 113/146/559 109/142/559 35/53/559 34/52/559
f 55/80/560 54/79/560 64/93/560 61/92/560
