^C:\USERS\RARES\DESKTOP\SPG\LAB11\OPENGL_4_APPLICATION_VS2015\OPENGL_4_APPLICATION_VS2015\RELEASE\CAMERA.OBJ|C:\USERS\RARES\DESKTOP\SPG\LAB11\OPENGL_4_APPLICATION_VS2015\OPENGL_4_APPLICATION_VS2015\RELEASE\MESH.OBJ|C:\USERS\RARES\DESKTOP\SPG\LAB11\OPENGL_4_APPLICATION_VS2015\OPENGL_4_APPLICATION_VS2015\RELEASE\MODEL3D.OBJ|C:\USERS\RARES\DESKTOP\SPG\LAB11\OPENGL_4_APPLICATION_VS2015\OPENGL_4_APPLICATION_VS2015\RELEASE\OPENGL_4_APPLICATION_VS2015.OBJ|C:\USERS\RARES\DESKTOP\SPG\LAB11\OPENGL_4_APPLICATION_VS2015\OPENGL_4_APPLICATION_VS2015\RELEASE\SHADER.OBJ|C:\USERS\RARES\DESKTOP\SPG\LAB11\OPENGL_4_APPLICATION_VS2015\OPENGL_4_APPLICATION_VS2015\RELEASE\SKYBOX.OBJ|C:\USERS\RARES\DESKTOP\SPG\LAB11\OPENGL_4_APPLICATION_VS2015\OPENGL_4_APPLICATION_VS2015\RELEASE\STB_IMAGE.OBJ|C:\USERS\RARES\DESKTOP\SPG\LAB11\OPENGL_4_APPLICATION_VS2015\OPENGL_4_APPLICATION_VS2015\RELEASE\STDAFX.OBJ
/OUT:"C:\USERS\RARES\DESKTOP\SPG\LAB11\OPENGL_4_APPLICATION_VS2015\RELEASE\OPENGL_4_APPLICATION_VS2015.EXE" /INCREMENTAL:NO /NOLOGO /LIBPATH:GLEW /LIBPATH:GLFW OPENGL32.LIB GLEW32S.LIB GLFW3.LIB KERNEL32.LIB USER32.LIB GDI32.LIB WINSPOOL.LIB COMDLG32.LIB ADVAPI32.LIB SHELL32.LIB OLE32.LIB OLEAUT32.LIB UUID.LIB ODBC32.LIB ODBCCP32.LIB /MANIFEST /MANIFESTUAC:"level='asInvoker' uiAccess='false'" /manifest:embed /DEBUG /PDB:"C:\USERS\RARES\DESKTOP\SPG\LAB11\OPENGL_4_APPLICATION_VS2015\RELEASE\OPENGL_4_APPLICATION_VS2015.PDB" /SUBSYSTEM:CONSOLE /OPT:REF /OPT:ICF /LTCG:incremental /TLBID:1 /DYNAMICBASE /NXCOMPAT /IMPLIB:"C:\USERS\RARES\DESKTOP\SPG\LAB11\OPENGL_4_APPLICATION_VS2015\RELEASE\OPENGL_4_APPLICATION_VS2015.LIB" /MACHINE:X86 /SAFESEH RELEASE\CAMERA.OBJRELEASE\MESH.OBJRELEASE\MODEL3D.OBJRELEASE\OPENGL_4_APPLICATION_VS2015.OBJRELEASE\SHADER.OBJRELEASE\SKYBOX.OBJRELEASE\STB_IMAGE.OBJRELEASE\STDAFX.OBJ
^C:\USERS\RARES\DESKTOP\SPG\LAB12\OPENGL_4_APPLICATION_VS2015\OPENGL_4_APPLICATION_VS2015\RELEASE\CAMERA.OBJ|C:\USERS\RARES\DESKTOP\SPG\LAB12\OPENGL_4_APPLICATION_VS2015\OPENGL_4_APPLICATION_VS2015\RELEASE\MESH.OBJ|C:\USERS\RARES\DESKTOP\SPG\LAB12\OPENGL_4_APPLICATION_VS2015\OPENGL_4_APPLICATION_VS2015\RELEASE\MODEL3D.OBJ|C:\USERS\RARES\DESKTOP\SPG\LAB12\OPENGL_4_APPLICATION_VS2015\OPENGL_4_APPLICATION_VS2015\RELEASE\OPENGL_4_APPLICATION_VS2015.OBJ|C:\USERS\RARES\DESKTOP\SPG\LAB12\OPENGL_4_APPLICATION_VS2015\OPENGL_4_APPLICATION_VS2015\RELEASE\SHADER.OBJ|C:\USERS\RARES\DESKTOP\SPG\LAB12\OPENGL_4_APPLICATION_VS2015\OPENGL_4_APPLICATION_VS2015\RELEASE\SKYBOX.OBJ|C:\USERS\RARES\DESKTOP\SPG\LAB12\OPENGL_4_APPLICATION_VS2015\OPENGL_4_APPLICATION_VS2015\RELEASE\STB_IMAGE.OBJ|C:\USERS\RARES\DESKTOP\SPG\LAB12\OPENGL_4_APPLICATION_VS2015\OPENGL_4_APPLICATION_VS2015\RELEASE\STDAFX.OBJ
/OUT:"C:\USERS\RARES\DESKTOP\SPG\LAB12\OPENGL_4_APPLICATION_VS2015\RELEASE\OPENGL_4_APPLICATION_VS2015.EXE" /INCREMENTAL:NO /NOLOGO /LIBPATH:GLEW /LIBPATH:GLFW OPENGL32.LIB GLEW32S.LIB GLFW3.LIB KERNEL32.LIB USER32.LIB GDI32.LIB WINSPOOL.LIB COMDLG32.LIB ADVAPI32.LIB SHELL32.LIB OLE32.LIB OLEAUT32.LIB UUID.LIB ODBC32.LIB ODBCCP32.LIB /MANIFEST /MANIFESTUAC:"level='asInvoker' uiAccess='false'" /manifest:embed /DEBUG /PDB:"C:\USERS\RARES\DESKTOP\SPG\LAB12\OPENGL_4_APPLICATION_VS2015\RELEASE\OPENGL_4_APPLICATION_VS2015.PDB" /SUBSYSTEM:CONSOLE /OPT:REF /OPT:ICF /LTCG:incremental /TLBID:1 /DYNAMICBASE /NXCOMPAT /IMPLIB:"C:\USERS\RARES\DESKTOP\SPG\LAB12\OPENGL_4_APPLICATION_VS2015\RELEASE\OPENGL_4_APPLICATION_VS2015.LIB" /MACHINE:X86 /SAFESEH RELEASE\CAMERA.OBJRELEASE\MESH.OBJRELEASE\MODEL3D.OBJRELEASE\OPENGL_4_APPLICATION_VS2015.OBJRELEASE\SHADER.OBJRELEASE\SKYBOX.OBJRELEASE\STB_IMAGE.OBJRELEASE\STDAFX.OBJ
